

---------------------12:45:37

-*-*-*-*-*-*-*-*-*

---------------------12:45:37
dashboardmanage.myshopify.com
-*-*-*-*-*-*-*-*-*

---------------------12:45:37

-*-*-*-*-*-*-*-*-*

---------------------12:45:37
dashboardmanage.myshopify.com
-*-*-*-*-*-*-*-*-*