

---------------------11:10:54
Array
-*-*-*-*-*-*-*-*-*

---------------------11:10:54
grusshoppen-dk.myshopify.com
-*-*-*-*-*-*-*-*-*

---------------------11:10:54
Array
-*-*-*-*-*-*-*-*-*

---------------------11:10:54
grusshoppen-dk.myshopify.com
-*-*-*-*-*-*-*-*-*