

---------------------00:37:07
https://grusshoppen.dk/
-*-*-*-*-*-*-*-*-*

---------------------00:37:07

-*-*-*-*-*-*-*-*-*

---------------------00:37:07
https://grusshoppen.dk/
-*-*-*-*-*-*-*-*-*

---------------------00:37:07

-*-*-*-*-*-*-*-*-*

---------------------00:37:08
https://grusshoppen.dk/
-*-*-*-*-*-*-*-*-*

---------------------00:37:08

-*-*-*-*-*-*-*-*-*

---------------------00:42:54
https://grusshoppen.dk/
-*-*-*-*-*-*-*-*-*

---------------------00:42:54

-*-*-*-*-*-*-*-*-*

---------------------05:55:57
https://grusshoppen.dk/
-*-*-*-*-*-*-*-*-*

---------------------05:55:57

-*-*-*-*-*-*-*-*-*

---------------------05:56:27
https://grusshoppen.dk/
-*-*-*-*-*-*-*-*-*

---------------------05:56:27

-*-*-*-*-*-*-*-*-*

---------------------06:06:30
https://grusshoppen.dk/
-*-*-*-*-*-*-*-*-*

---------------------06:06:30

-*-*-*-*-*-*-*-*-*

---------------------06:11:32
https://grusshoppen.dk/
-*-*-*-*-*-*-*-*-*

---------------------06:11:32

-*-*-*-*-*-*-*-*-*

---------------------06:23:30
https://grusshoppen.dk/
-*-*-*-*-*-*-*-*-*

---------------------06:23:30

-*-*-*-*-*-*-*-*-*

---------------------07:18:20
https://grusshoppen.dk/
-*-*-*-*-*-*-*-*-*

---------------------07:18:20

-*-*-*-*-*-*-*-*-*

---------------------08:00:32
https://grusshoppen.dk/
-*-*-*-*-*-*-*-*-*

---------------------08:00:32

-*-*-*-*-*-*-*-*-*

---------------------08:00:43
https://grusshoppen.dk/
-*-*-*-*-*-*-*-*-*

---------------------08:00:43

-*-*-*-*-*-*-*-*-*

---------------------08:00:53
https://grusshoppen.dk/
-*-*-*-*-*-*-*-*-*

---------------------08:00:53

-*-*-*-*-*-*-*-*-*

---------------------08:00:57
https://grusshoppen.dk/
-*-*-*-*-*-*-*-*-*

---------------------08:00:57

-*-*-*-*-*-*-*-*-*

---------------------08:01:00
https://grusshoppen.dk/
-*-*-*-*-*-*-*-*-*

---------------------08:01:00

-*-*-*-*-*-*-*-*-*

---------------------08:01:15
https://grusshoppen.dk/
-*-*-*-*-*-*-*-*-*

---------------------08:01:15

-*-*-*-*-*-*-*-*-*

---------------------08:01:18
https://grusshoppen.dk/
-*-*-*-*-*-*-*-*-*

---------------------08:01:18

-*-*-*-*-*-*-*-*-*

---------------------08:01:44
https://grusshoppen.dk/
-*-*-*-*-*-*-*-*-*

---------------------08:01:44

-*-*-*-*-*-*-*-*-*

---------------------08:01:50
https://grusshoppen.dk/
-*-*-*-*-*-*-*-*-*

---------------------08:01:50

-*-*-*-*-*-*-*-*-*

---------------------08:01:51
https://grusshoppen.dk/
-*-*-*-*-*-*-*-*-*

---------------------08:01:51

-*-*-*-*-*-*-*-*-*

---------------------08:02:18
https://grusshoppen.dk/
-*-*-*-*-*-*-*-*-*

---------------------08:02:18

-*-*-*-*-*-*-*-*-*

---------------------08:03:14
https://grusshoppen.dk/
-*-*-*-*-*-*-*-*-*

---------------------08:03:14

-*-*-*-*-*-*-*-*-*

---------------------08:03:52
https://grusshoppen.dk/
-*-*-*-*-*-*-*-*-*

---------------------08:03:52

-*-*-*-*-*-*-*-*-*

---------------------08:03:52
https://grusshoppen.dk/
-*-*-*-*-*-*-*-*-*

---------------------08:03:52

-*-*-*-*-*-*-*-*-*

---------------------08:03:56
https://grusshoppen.dk/
-*-*-*-*-*-*-*-*-*

---------------------08:03:56

-*-*-*-*-*-*-*-*-*

---------------------08:03:59
https://grusshoppen.dk/
-*-*-*-*-*-*-*-*-*

---------------------08:03:59

-*-*-*-*-*-*-*-*-*

---------------------08:04:08
https://grusshoppen.dk/
-*-*-*-*-*-*-*-*-*

---------------------08:04:08

-*-*-*-*-*-*-*-*-*

---------------------08:04:25
https://grusshoppen.dk/
-*-*-*-*-*-*-*-*-*

---------------------08:04:25

-*-*-*-*-*-*-*-*-*

---------------------08:05:00
https://grusshoppen.dk/
-*-*-*-*-*-*-*-*-*

---------------------08:05:00

-*-*-*-*-*-*-*-*-*

---------------------08:05:46
https://grusshoppen.dk/
-*-*-*-*-*-*-*-*-*

---------------------08:05:46

-*-*-*-*-*-*-*-*-*

---------------------08:05:58
https://grusshoppen.dk/
-*-*-*-*-*-*-*-*-*

---------------------08:05:58

-*-*-*-*-*-*-*-*-*

---------------------08:06:18
https://grusshoppen.dk/
-*-*-*-*-*-*-*-*-*

---------------------08:06:18

-*-*-*-*-*-*-*-*-*

---------------------08:06:42
https://grusshoppen.dk/
-*-*-*-*-*-*-*-*-*

---------------------08:06:42

-*-*-*-*-*-*-*-*-*

---------------------08:08:56
https://grusshoppen.dk/
-*-*-*-*-*-*-*-*-*

---------------------08:08:56

-*-*-*-*-*-*-*-*-*

---------------------08:09:00
https://grusshoppen.dk/
-*-*-*-*-*-*-*-*-*

---------------------08:09:00

-*-*-*-*-*-*-*-*-*

---------------------08:10:10
https://grusshoppen.dk/
-*-*-*-*-*-*-*-*-*

---------------------08:10:10

-*-*-*-*-*-*-*-*-*

---------------------08:10:12
https://grusshoppen.dk/
-*-*-*-*-*-*-*-*-*

---------------------08:10:12

-*-*-*-*-*-*-*-*-*

---------------------08:11:35
https://grusshoppen.dk/
-*-*-*-*-*-*-*-*-*

---------------------08:11:35

-*-*-*-*-*-*-*-*-*

---------------------08:11:42
https://grusshoppen.dk/
-*-*-*-*-*-*-*-*-*

---------------------08:11:42

-*-*-*-*-*-*-*-*-*

---------------------08:12:01
https://grusshoppen.dk/
-*-*-*-*-*-*-*-*-*

---------------------08:12:01

-*-*-*-*-*-*-*-*-*

---------------------08:17:33
https://grusshoppen.dk/
-*-*-*-*-*-*-*-*-*

---------------------08:17:33

-*-*-*-*-*-*-*-*-*

---------------------08:17:36
https://grusshoppen.dk/
-*-*-*-*-*-*-*-*-*

---------------------08:17:36

-*-*-*-*-*-*-*-*-*

---------------------08:17:53
https://grusshoppen.dk/
-*-*-*-*-*-*-*-*-*

---------------------08:17:53

-*-*-*-*-*-*-*-*-*

---------------------08:18:33
https://grusshoppen.dk/
-*-*-*-*-*-*-*-*-*

---------------------08:18:33

-*-*-*-*-*-*-*-*-*

---------------------08:18:35
https://grusshoppen.dk/
-*-*-*-*-*-*-*-*-*

---------------------08:18:35

-*-*-*-*-*-*-*-*-*

---------------------08:19:38
https://grusshoppen.dk/
-*-*-*-*-*-*-*-*-*

---------------------08:19:38

-*-*-*-*-*-*-*-*-*

---------------------08:25:48
https://grusshoppen.dk/
-*-*-*-*-*-*-*-*-*

---------------------08:25:48

-*-*-*-*-*-*-*-*-*

---------------------08:25:50
https://grusshoppen.dk/
-*-*-*-*-*-*-*-*-*

---------------------08:25:50

-*-*-*-*-*-*-*-*-*

---------------------08:25:59
https://grusshoppen.dk/
-*-*-*-*-*-*-*-*-*

---------------------08:25:59

-*-*-*-*-*-*-*-*-*

---------------------08:26:07
https://grusshoppen.dk/
-*-*-*-*-*-*-*-*-*

---------------------08:26:07

-*-*-*-*-*-*-*-*-*

---------------------08:26:16
https://grusshoppen.dk/
-*-*-*-*-*-*-*-*-*

---------------------08:26:16

-*-*-*-*-*-*-*-*-*

---------------------08:26:20
https://grusshoppen.dk/
-*-*-*-*-*-*-*-*-*

---------------------08:26:20

-*-*-*-*-*-*-*-*-*

---------------------08:26:25
https://grusshoppen.dk/
-*-*-*-*-*-*-*-*-*

---------------------08:26:25

-*-*-*-*-*-*-*-*-*

---------------------08:46:30
https://grusshoppen.dk/
-*-*-*-*-*-*-*-*-*

---------------------08:46:30

-*-*-*-*-*-*-*-*-*

---------------------08:53:27
https://grusshoppen.dk/
-*-*-*-*-*-*-*-*-*

---------------------08:53:27

-*-*-*-*-*-*-*-*-*

---------------------09:30:53
https://grusshoppen.dk/
-*-*-*-*-*-*-*-*-*

---------------------09:30:53

-*-*-*-*-*-*-*-*-*

---------------------09:31:27
https://grusshoppen.dk/
-*-*-*-*-*-*-*-*-*

---------------------09:31:27

-*-*-*-*-*-*-*-*-*

---------------------09:31:31
https://grusshoppen.dk/
-*-*-*-*-*-*-*-*-*

---------------------09:31:31

-*-*-*-*-*-*-*-*-*

---------------------09:45:33
https://grusshoppen.dk/
-*-*-*-*-*-*-*-*-*

---------------------09:45:33

-*-*-*-*-*-*-*-*-*

---------------------09:45:38
https://grusshoppen.dk/
-*-*-*-*-*-*-*-*-*

---------------------09:45:38

-*-*-*-*-*-*-*-*-*

---------------------09:45:42
https://grusshoppen.dk/
-*-*-*-*-*-*-*-*-*

---------------------09:45:42

-*-*-*-*-*-*-*-*-*

---------------------09:45:43
https://grusshoppen.dk/
-*-*-*-*-*-*-*-*-*

---------------------09:45:43

-*-*-*-*-*-*-*-*-*

---------------------09:45:46
https://grusshoppen.dk/
-*-*-*-*-*-*-*-*-*

---------------------09:45:46

-*-*-*-*-*-*-*-*-*

---------------------09:45:56
https://grusshoppen.dk/
-*-*-*-*-*-*-*-*-*

---------------------09:45:56

-*-*-*-*-*-*-*-*-*

---------------------09:46:00
https://grusshoppen.dk/
-*-*-*-*-*-*-*-*-*

---------------------09:46:00

-*-*-*-*-*-*-*-*-*

---------------------09:46:02
https://grusshoppen.dk/
-*-*-*-*-*-*-*-*-*

---------------------09:46:02

-*-*-*-*-*-*-*-*-*

---------------------09:46:14
https://grusshoppen.dk/
-*-*-*-*-*-*-*-*-*

---------------------09:46:14

-*-*-*-*-*-*-*-*-*

---------------------09:46:16
https://grusshoppen.dk/
-*-*-*-*-*-*-*-*-*

---------------------09:46:16

-*-*-*-*-*-*-*-*-*

---------------------09:46:18
https://grusshoppen.dk/
-*-*-*-*-*-*-*-*-*

---------------------09:46:18

-*-*-*-*-*-*-*-*-*

---------------------09:46:19
https://grusshoppen.dk/
-*-*-*-*-*-*-*-*-*

---------------------09:46:19

-*-*-*-*-*-*-*-*-*

---------------------10:02:11
https://grusshoppen.dk/
-*-*-*-*-*-*-*-*-*

---------------------10:02:11

-*-*-*-*-*-*-*-*-*

---------------------10:02:18
https://grusshoppen.dk/
-*-*-*-*-*-*-*-*-*

---------------------10:02:18

-*-*-*-*-*-*-*-*-*

---------------------10:02:21
https://grusshoppen.dk/
-*-*-*-*-*-*-*-*-*

---------------------10:02:21

-*-*-*-*-*-*-*-*-*

---------------------10:02:36
https://grusshoppen.dk/
-*-*-*-*-*-*-*-*-*

---------------------10:02:36

-*-*-*-*-*-*-*-*-*

---------------------10:02:42
https://grusshoppen.dk/
-*-*-*-*-*-*-*-*-*

---------------------10:02:42

-*-*-*-*-*-*-*-*-*

---------------------10:02:46
https://grusshoppen.dk/
-*-*-*-*-*-*-*-*-*

---------------------10:02:46

-*-*-*-*-*-*-*-*-*

---------------------10:02:52
https://grusshoppen.dk/
-*-*-*-*-*-*-*-*-*

---------------------10:02:52

-*-*-*-*-*-*-*-*-*

---------------------10:02:58
https://grusshoppen.dk/
-*-*-*-*-*-*-*-*-*

---------------------10:02:58

-*-*-*-*-*-*-*-*-*

---------------------10:03:34
https://grusshoppen.dk/
-*-*-*-*-*-*-*-*-*

---------------------10:03:34

-*-*-*-*-*-*-*-*-*

---------------------10:03:42
https://grusshoppen.dk/
-*-*-*-*-*-*-*-*-*

---------------------10:03:42

-*-*-*-*-*-*-*-*-*

---------------------10:03:44
https://grusshoppen.dk/
-*-*-*-*-*-*-*-*-*

---------------------10:03:44

-*-*-*-*-*-*-*-*-*

---------------------10:03:53
https://grusshoppen.dk/
-*-*-*-*-*-*-*-*-*

---------------------10:03:53

-*-*-*-*-*-*-*-*-*

---------------------10:04:00
https://grusshoppen.dk/
-*-*-*-*-*-*-*-*-*

---------------------10:04:00

-*-*-*-*-*-*-*-*-*

---------------------10:04:04
https://grusshoppen.dk/
-*-*-*-*-*-*-*-*-*

---------------------10:04:04

-*-*-*-*-*-*-*-*-*

---------------------10:04:28
https://grusshoppen.dk/
-*-*-*-*-*-*-*-*-*

---------------------10:04:28

-*-*-*-*-*-*-*-*-*

---------------------10:04:35
https://grusshoppen.dk/
-*-*-*-*-*-*-*-*-*

---------------------10:04:35

-*-*-*-*-*-*-*-*-*

---------------------10:04:44
https://grusshoppen.dk/
-*-*-*-*-*-*-*-*-*

---------------------10:04:44

-*-*-*-*-*-*-*-*-*

---------------------10:04:59
https://grusshoppen.dk/
-*-*-*-*-*-*-*-*-*

---------------------10:04:59

-*-*-*-*-*-*-*-*-*

---------------------10:05:06
https://grusshoppen.dk/
-*-*-*-*-*-*-*-*-*

---------------------10:05:06

-*-*-*-*-*-*-*-*-*

---------------------10:05:15
https://grusshoppen.dk/
-*-*-*-*-*-*-*-*-*

---------------------10:05:15

-*-*-*-*-*-*-*-*-*

---------------------10:05:18
https://grusshoppen.dk/
-*-*-*-*-*-*-*-*-*

---------------------10:05:18

-*-*-*-*-*-*-*-*-*

---------------------10:05:21
https://grusshoppen.dk/
-*-*-*-*-*-*-*-*-*

---------------------10:05:21

-*-*-*-*-*-*-*-*-*

---------------------10:05:25
https://grusshoppen.dk/
-*-*-*-*-*-*-*-*-*

---------------------10:05:25

-*-*-*-*-*-*-*-*-*

---------------------10:05:49
https://grusshoppen.dk/
-*-*-*-*-*-*-*-*-*

---------------------10:05:49

-*-*-*-*-*-*-*-*-*

---------------------10:06:04
https://grusshoppen.dk/
-*-*-*-*-*-*-*-*-*

---------------------10:06:04

-*-*-*-*-*-*-*-*-*

---------------------10:06:26
https://grusshoppen.dk/
-*-*-*-*-*-*-*-*-*

---------------------10:06:26

-*-*-*-*-*-*-*-*-*

---------------------10:06:32
https://grusshoppen.dk/
-*-*-*-*-*-*-*-*-*

---------------------10:06:32

-*-*-*-*-*-*-*-*-*

---------------------10:06:38
https://grusshoppen.dk/
-*-*-*-*-*-*-*-*-*

---------------------10:06:38

-*-*-*-*-*-*-*-*-*

---------------------10:06:48
https://grusshoppen.dk/
-*-*-*-*-*-*-*-*-*

---------------------10:06:48

-*-*-*-*-*-*-*-*-*

---------------------10:07:08
https://grusshoppen.dk/
-*-*-*-*-*-*-*-*-*

---------------------10:07:08

-*-*-*-*-*-*-*-*-*

---------------------10:07:19
https://grusshoppen.dk/
-*-*-*-*-*-*-*-*-*

---------------------10:07:19

-*-*-*-*-*-*-*-*-*

---------------------10:12:53
https://grusshoppen.dk/
-*-*-*-*-*-*-*-*-*

---------------------10:12:53

-*-*-*-*-*-*-*-*-*

---------------------10:13:24
https://grusshoppen.dk/
-*-*-*-*-*-*-*-*-*

---------------------10:13:24

-*-*-*-*-*-*-*-*-*

---------------------10:13:30
https://grusshoppen.dk/
-*-*-*-*-*-*-*-*-*

---------------------10:13:30

-*-*-*-*-*-*-*-*-*

---------------------10:13:34
https://grusshoppen.dk/
-*-*-*-*-*-*-*-*-*

---------------------10:13:34

-*-*-*-*-*-*-*-*-*

---------------------10:13:37
https://grusshoppen.dk/
-*-*-*-*-*-*-*-*-*

---------------------10:13:37

-*-*-*-*-*-*-*-*-*

---------------------10:15:06
https://grusshoppen.dk/
-*-*-*-*-*-*-*-*-*

---------------------10:15:06

-*-*-*-*-*-*-*-*-*

---------------------10:15:12
https://grusshoppen.dk/
-*-*-*-*-*-*-*-*-*

---------------------10:15:12

-*-*-*-*-*-*-*-*-*

---------------------10:15:30
https://grusshoppen.dk/
-*-*-*-*-*-*-*-*-*

---------------------10:15:30

-*-*-*-*-*-*-*-*-*

---------------------10:21:50
https://grusshoppen.dk/
-*-*-*-*-*-*-*-*-*

---------------------10:21:50

-*-*-*-*-*-*-*-*-*

---------------------10:50:47
https://grusshoppen.dk/
-*-*-*-*-*-*-*-*-*

---------------------10:50:47

-*-*-*-*-*-*-*-*-*

---------------------12:55:51
https://grusshoppen.dk/
-*-*-*-*-*-*-*-*-*

---------------------12:55:51

-*-*-*-*-*-*-*-*-*

---------------------12:56:00
https://grusshoppen.dk/
-*-*-*-*-*-*-*-*-*

---------------------12:56:00

-*-*-*-*-*-*-*-*-*

---------------------12:57:22
https://grusshoppen.dk/
-*-*-*-*-*-*-*-*-*

---------------------12:57:22

-*-*-*-*-*-*-*-*-*

---------------------12:57:23
https://grusshoppen.dk/
-*-*-*-*-*-*-*-*-*

---------------------12:57:23

-*-*-*-*-*-*-*-*-*

---------------------16:41:14
https://grusshoppen.dk/
-*-*-*-*-*-*-*-*-*

---------------------16:41:14

-*-*-*-*-*-*-*-*-*

---------------------18:48:28
https://grusshoppen.dk/
-*-*-*-*-*-*-*-*-*

---------------------18:48:28

-*-*-*-*-*-*-*-*-*

---------------------18:48:37
https://grusshoppen.dk/
-*-*-*-*-*-*-*-*-*

---------------------18:48:37

-*-*-*-*-*-*-*-*-*

---------------------18:51:44
https://grusshoppen.dk/
-*-*-*-*-*-*-*-*-*

---------------------18:51:44

-*-*-*-*-*-*-*-*-*

---------------------18:51:52
https://grusshoppen.dk/
-*-*-*-*-*-*-*-*-*

---------------------18:51:52

-*-*-*-*-*-*-*-*-*

---------------------18:52:04
https://grusshoppen.dk/
-*-*-*-*-*-*-*-*-*

---------------------18:52:04

-*-*-*-*-*-*-*-*-*

---------------------18:53:21
https://grusshoppen.dk/
-*-*-*-*-*-*-*-*-*

---------------------18:53:21

-*-*-*-*-*-*-*-*-*

---------------------18:53:22
https://grusshoppen.dk/
-*-*-*-*-*-*-*-*-*

---------------------18:53:22

-*-*-*-*-*-*-*-*-*

---------------------18:54:51
https://grusshoppen.dk/
-*-*-*-*-*-*-*-*-*

---------------------18:54:51

-*-*-*-*-*-*-*-*-*

---------------------18:55:16
https://grusshoppen.dk/
-*-*-*-*-*-*-*-*-*

---------------------18:55:16

-*-*-*-*-*-*-*-*-*

---------------------18:55:27
https://grusshoppen.dk/
-*-*-*-*-*-*-*-*-*

---------------------18:55:27

-*-*-*-*-*-*-*-*-*

---------------------18:56:32
https://grusshoppen.dk/
-*-*-*-*-*-*-*-*-*

---------------------18:56:32

-*-*-*-*-*-*-*-*-*

---------------------18:56:34
https://grusshoppen.dk/
-*-*-*-*-*-*-*-*-*

---------------------18:56:34

-*-*-*-*-*-*-*-*-*

---------------------19:09:14
https://grusshoppen.dk/
-*-*-*-*-*-*-*-*-*

---------------------19:09:14

-*-*-*-*-*-*-*-*-*

---------------------19:09:17
https://grusshoppen.dk/
-*-*-*-*-*-*-*-*-*

---------------------19:09:17

-*-*-*-*-*-*-*-*-*

---------------------19:11:34
https://grusshoppen.dk/
-*-*-*-*-*-*-*-*-*

---------------------19:11:34

-*-*-*-*-*-*-*-*-*

---------------------19:12:04
https://grusshoppen.dk/
-*-*-*-*-*-*-*-*-*

---------------------19:12:04

-*-*-*-*-*-*-*-*-*

---------------------21:37:16
https://grusshoppen.dk/
-*-*-*-*-*-*-*-*-*

---------------------21:37:16

-*-*-*-*-*-*-*-*-*

---------------------21:37:16

-*-*-*-*-*-*-*-*-*

---------------------21:37:16

-*-*-*-*-*-*-*-*-*

---------------------22:07:48
https://grusshoppen.dk/
-*-*-*-*-*-*-*-*-*

---------------------22:07:48

-*-*-*-*-*-*-*-*-*