

---------------------07:08:06
https://grusshoppen.dk/
-*-*-*-*-*-*-*-*-*

---------------------07:08:06

-*-*-*-*-*-*-*-*-*

---------------------07:08:21
https://grusshoppen.dk/
-*-*-*-*-*-*-*-*-*

---------------------07:08:21

-*-*-*-*-*-*-*-*-*

---------------------07:09:55
https://grusshoppen.dk/
-*-*-*-*-*-*-*-*-*

---------------------07:09:55

-*-*-*-*-*-*-*-*-*

---------------------07:10:35
https://grusshoppen.dk/
-*-*-*-*-*-*-*-*-*

---------------------07:10:35

-*-*-*-*-*-*-*-*-*

---------------------07:10:51
https://grusshoppen.dk/
-*-*-*-*-*-*-*-*-*

---------------------07:10:51

-*-*-*-*-*-*-*-*-*

---------------------12:45:37

-*-*-*-*-*-*-*-*-*

---------------------12:45:37

-*-*-*-*-*-*-*-*-*

---------------------12:46:38
https://grusshoppen.dk/
-*-*-*-*-*-*-*-*-*

---------------------12:46:38

-*-*-*-*-*-*-*-*-*

---------------------12:49:17
https://grusshoppen.dk/
-*-*-*-*-*-*-*-*-*

---------------------12:49:17

-*-*-*-*-*-*-*-*-*

---------------------12:49:17
https://grusshoppen.dk/
-*-*-*-*-*-*-*-*-*

---------------------12:49:17

-*-*-*-*-*-*-*-*-*

---------------------12:49:18
https://grusshoppen.dk/
-*-*-*-*-*-*-*-*-*

---------------------12:49:18

-*-*-*-*-*-*-*-*-*

---------------------15:36:12
https://grusshoppen.dk/
-*-*-*-*-*-*-*-*-*

---------------------15:36:12

-*-*-*-*-*-*-*-*-*

---------------------15:36:28
https://grusshoppen.dk/
-*-*-*-*-*-*-*-*-*

---------------------15:36:28

-*-*-*-*-*-*-*-*-*

---------------------15:36:31
https://grusshoppen.dk/
-*-*-*-*-*-*-*-*-*

---------------------15:36:31

-*-*-*-*-*-*-*-*-*

---------------------15:36:35
https://grusshoppen.dk/
-*-*-*-*-*-*-*-*-*

---------------------15:36:35

-*-*-*-*-*-*-*-*-*

---------------------15:36:48
https://grusshoppen.dk/
-*-*-*-*-*-*-*-*-*

---------------------15:36:48

-*-*-*-*-*-*-*-*-*

---------------------15:37:01
https://grusshoppen.dk/
-*-*-*-*-*-*-*-*-*

---------------------15:37:01

-*-*-*-*-*-*-*-*-*