

---------------------05:29:54
https://grusshoppen.dk/
-*-*-*-*-*-*-*-*-*

---------------------05:29:54

-*-*-*-*-*-*-*-*-*

---------------------05:30:16
https://grusshoppen.dk/
-*-*-*-*-*-*-*-*-*

---------------------05:30:16

-*-*-*-*-*-*-*-*-*

---------------------08:34:31
https://grusshoppen.dk/
-*-*-*-*-*-*-*-*-*

---------------------08:34:31

-*-*-*-*-*-*-*-*-*

---------------------08:34:55
https://grusshoppen.dk/
-*-*-*-*-*-*-*-*-*

---------------------08:34:55

-*-*-*-*-*-*-*-*-*

---------------------08:35:12
https://grusshoppen.dk/
-*-*-*-*-*-*-*-*-*

---------------------08:35:12

-*-*-*-*-*-*-*-*-*

---------------------08:35:18
https://grusshoppen.dk/
-*-*-*-*-*-*-*-*-*

---------------------08:35:18

-*-*-*-*-*-*-*-*-*

---------------------08:35:21
https://grusshoppen.dk/
-*-*-*-*-*-*-*-*-*

---------------------08:35:21

-*-*-*-*-*-*-*-*-*

---------------------08:35:31
https://grusshoppen.dk/
-*-*-*-*-*-*-*-*-*

---------------------08:35:31

-*-*-*-*-*-*-*-*-*

---------------------08:35:47
https://grusshoppen.dk/
-*-*-*-*-*-*-*-*-*

---------------------08:35:47

-*-*-*-*-*-*-*-*-*

---------------------10:21:54
https://grusshoppen.dk/
-*-*-*-*-*-*-*-*-*

---------------------10:21:54

-*-*-*-*-*-*-*-*-*

---------------------10:22:59
https://grusshoppen.dk/
-*-*-*-*-*-*-*-*-*

---------------------10:22:59

-*-*-*-*-*-*-*-*-*

---------------------10:23:10
https://grusshoppen.dk/
-*-*-*-*-*-*-*-*-*

---------------------10:23:10

-*-*-*-*-*-*-*-*-*

---------------------10:23:49
https://grusshoppen.dk/
-*-*-*-*-*-*-*-*-*

---------------------10:23:49

-*-*-*-*-*-*-*-*-*

---------------------10:35:54
https://grusshoppen.dk/
-*-*-*-*-*-*-*-*-*

---------------------10:35:54

-*-*-*-*-*-*-*-*-*

---------------------10:35:58
https://grusshoppen.dk/
-*-*-*-*-*-*-*-*-*

---------------------10:35:58

-*-*-*-*-*-*-*-*-*

---------------------10:36:02
https://grusshoppen.dk/
-*-*-*-*-*-*-*-*-*

---------------------10:36:02

-*-*-*-*-*-*-*-*-*

---------------------10:36:05
https://grusshoppen.dk/
-*-*-*-*-*-*-*-*-*

---------------------10:36:05

-*-*-*-*-*-*-*-*-*

---------------------10:39:16
https://grusshoppen.dk/
-*-*-*-*-*-*-*-*-*

---------------------10:39:16

-*-*-*-*-*-*-*-*-*

---------------------10:41:45
https://grusshoppen.dk/
-*-*-*-*-*-*-*-*-*

---------------------10:41:45

-*-*-*-*-*-*-*-*-*

---------------------10:41:52
https://grusshoppen.dk/
-*-*-*-*-*-*-*-*-*

---------------------10:41:52

-*-*-*-*-*-*-*-*-*

---------------------10:41:59
https://grusshoppen.dk/
-*-*-*-*-*-*-*-*-*

---------------------10:41:59

-*-*-*-*-*-*-*-*-*

---------------------10:42:11
https://grusshoppen.dk/
-*-*-*-*-*-*-*-*-*

---------------------10:42:11

-*-*-*-*-*-*-*-*-*

---------------------10:42:20
https://grusshoppen.dk/
-*-*-*-*-*-*-*-*-*

---------------------10:42:20

-*-*-*-*-*-*-*-*-*

---------------------10:42:28
https://grusshoppen.dk/
-*-*-*-*-*-*-*-*-*

---------------------10:42:28

-*-*-*-*-*-*-*-*-*

---------------------10:42:31
https://grusshoppen.dk/
-*-*-*-*-*-*-*-*-*

---------------------10:42:31

-*-*-*-*-*-*-*-*-*

---------------------10:42:35
https://grusshoppen.dk/
-*-*-*-*-*-*-*-*-*

---------------------10:42:35

-*-*-*-*-*-*-*-*-*

---------------------10:42:56
https://grusshoppen.dk/
-*-*-*-*-*-*-*-*-*

---------------------10:42:56

-*-*-*-*-*-*-*-*-*

---------------------10:46:50
https://grusshoppen.dk/
-*-*-*-*-*-*-*-*-*

---------------------10:46:50

-*-*-*-*-*-*-*-*-*

---------------------14:25:49
https://grusshoppen.dk/
-*-*-*-*-*-*-*-*-*

---------------------14:25:49

-*-*-*-*-*-*-*-*-*

---------------------14:25:49

-*-*-*-*-*-*-*-*-*

---------------------14:25:49

-*-*-*-*-*-*-*-*-*

---------------------15:45:50
https://grusshoppen.dk/
-*-*-*-*-*-*-*-*-*

---------------------15:45:50

-*-*-*-*-*-*-*-*-*