

---------------------13:29:46
https://grusshoppen.dk/
-*-*-*-*-*-*-*-*-*

---------------------13:29:46

-*-*-*-*-*-*-*-*-*

---------------------13:29:46
https://grusshoppen.dk/
-*-*-*-*-*-*-*-*-*

---------------------13:29:46

-*-*-*-*-*-*-*-*-*

---------------------13:29:47
https://grusshoppen.dk/
-*-*-*-*-*-*-*-*-*

---------------------13:29:47

-*-*-*-*-*-*-*-*-*

---------------------20:55:17
https://grusshoppen.dk/
-*-*-*-*-*-*-*-*-*

---------------------20:55:17

-*-*-*-*-*-*-*-*-*