

---------------------02:18:22
https://grusshoppen.dk/
-*-*-*-*-*-*-*-*-*

---------------------02:18:22

-*-*-*-*-*-*-*-*-*

---------------------02:18:22
https://grusshoppen.dk/
-*-*-*-*-*-*-*-*-*

---------------------02:18:22

-*-*-*-*-*-*-*-*-*

---------------------02:18:23
https://grusshoppen.dk/
-*-*-*-*-*-*-*-*-*

---------------------02:18:23

-*-*-*-*-*-*-*-*-*

---------------------04:34:25
https://grusshoppen.dk/
-*-*-*-*-*-*-*-*-*

---------------------04:34:25

-*-*-*-*-*-*-*-*-*

---------------------04:35:46
https://grusshoppen.dk/
-*-*-*-*-*-*-*-*-*

---------------------04:35:46

-*-*-*-*-*-*-*-*-*

---------------------08:04:48
https://grusshoppen.dk/
-*-*-*-*-*-*-*-*-*

---------------------08:04:48

-*-*-*-*-*-*-*-*-*

---------------------08:04:49
https://grusshoppen.dk/
-*-*-*-*-*-*-*-*-*

---------------------08:04:49

-*-*-*-*-*-*-*-*-*

---------------------08:04:49
https://grusshoppen.dk/
-*-*-*-*-*-*-*-*-*

---------------------08:04:49

-*-*-*-*-*-*-*-*-*

---------------------10:11:19
https://grusshoppen.dk/
-*-*-*-*-*-*-*-*-*

---------------------10:11:19

-*-*-*-*-*-*-*-*-*

---------------------10:11:45
https://grusshoppen.dk/
-*-*-*-*-*-*-*-*-*

---------------------10:11:45

-*-*-*-*-*-*-*-*-*

---------------------10:12:22
https://grusshoppen.dk/
-*-*-*-*-*-*-*-*-*

---------------------10:12:22

-*-*-*-*-*-*-*-*-*

---------------------10:12:27
https://grusshoppen.dk/
-*-*-*-*-*-*-*-*-*

---------------------10:12:27

-*-*-*-*-*-*-*-*-*

---------------------10:12:34
https://grusshoppen.dk/
-*-*-*-*-*-*-*-*-*

---------------------10:12:34

-*-*-*-*-*-*-*-*-*

---------------------10:12:42
https://grusshoppen.dk/
-*-*-*-*-*-*-*-*-*

---------------------10:12:42

-*-*-*-*-*-*-*-*-*

---------------------10:12:49
https://grusshoppen.dk/
-*-*-*-*-*-*-*-*-*

---------------------10:12:49

-*-*-*-*-*-*-*-*-*

---------------------10:12:56
https://grusshoppen.dk/
-*-*-*-*-*-*-*-*-*

---------------------10:12:56

-*-*-*-*-*-*-*-*-*

---------------------10:12:59
https://grusshoppen.dk/
-*-*-*-*-*-*-*-*-*

---------------------10:12:59

-*-*-*-*-*-*-*-*-*

---------------------10:13:01
https://grusshoppen.dk/
-*-*-*-*-*-*-*-*-*

---------------------10:13:01

-*-*-*-*-*-*-*-*-*

---------------------10:13:03
https://grusshoppen.dk/
-*-*-*-*-*-*-*-*-*

---------------------10:13:03

-*-*-*-*-*-*-*-*-*

---------------------10:13:07
https://grusshoppen.dk/
-*-*-*-*-*-*-*-*-*

---------------------10:13:07

-*-*-*-*-*-*-*-*-*

---------------------22:37:21
https://grusshoppen.dk/
-*-*-*-*-*-*-*-*-*

---------------------22:37:21

-*-*-*-*-*-*-*-*-*