

---------------------03:36:41

-*-*-*-*-*-*-*-*-*

---------------------03:36:41

-*-*-*-*-*-*-*-*-*

---------------------03:36:44
https://grusshoppen.dk/
-*-*-*-*-*-*-*-*-*

---------------------03:36:44

-*-*-*-*-*-*-*-*-*

---------------------03:47:09
https://dashboardmanage.myshopify.com/
-*-*-*-*-*-*-*-*-*

---------------------03:47:09

-*-*-*-*-*-*-*-*-*

---------------------03:47:24
https://dashboardmanage.myshopify.com/
-*-*-*-*-*-*-*-*-*

---------------------03:47:24

-*-*-*-*-*-*-*-*-*

---------------------06:15:37
https://grusshoppen.dk/
-*-*-*-*-*-*-*-*-*

---------------------06:15:37

-*-*-*-*-*-*-*-*-*

---------------------07:10:48
https://grusshoppen.dk/
-*-*-*-*-*-*-*-*-*

---------------------07:10:48

-*-*-*-*-*-*-*-*-*

---------------------07:11:40
https://grusshoppen.dk/
-*-*-*-*-*-*-*-*-*

---------------------07:11:40

-*-*-*-*-*-*-*-*-*

---------------------08:00:45
https://grusshoppen.dk/
-*-*-*-*-*-*-*-*-*

---------------------08:00:45

-*-*-*-*-*-*-*-*-*

---------------------08:01:09
https://grusshoppen.dk/
-*-*-*-*-*-*-*-*-*

---------------------08:01:09

-*-*-*-*-*-*-*-*-*

---------------------08:01:41
https://grusshoppen.dk/
-*-*-*-*-*-*-*-*-*

---------------------08:01:41

-*-*-*-*-*-*-*-*-*

---------------------08:02:09
https://grusshoppen.dk/
-*-*-*-*-*-*-*-*-*

---------------------08:02:09

-*-*-*-*-*-*-*-*-*

---------------------08:02:15
https://grusshoppen.dk/
-*-*-*-*-*-*-*-*-*

---------------------08:02:15

-*-*-*-*-*-*-*-*-*

---------------------08:02:59
https://grusshoppen.dk/
-*-*-*-*-*-*-*-*-*

---------------------08:02:59

-*-*-*-*-*-*-*-*-*

---------------------08:03:06
https://grusshoppen.dk/
-*-*-*-*-*-*-*-*-*

---------------------08:03:06

-*-*-*-*-*-*-*-*-*

---------------------08:03:42
https://grusshoppen.dk/
-*-*-*-*-*-*-*-*-*

---------------------08:03:42

-*-*-*-*-*-*-*-*-*

---------------------08:03:47
https://grusshoppen.dk/
-*-*-*-*-*-*-*-*-*

---------------------08:03:47

-*-*-*-*-*-*-*-*-*

---------------------08:03:48
https://grusshoppen.dk/
-*-*-*-*-*-*-*-*-*

---------------------08:03:48

-*-*-*-*-*-*-*-*-*

---------------------08:08:05
https://grusshoppen.dk/
-*-*-*-*-*-*-*-*-*

---------------------08:08:05

-*-*-*-*-*-*-*-*-*

---------------------08:08:07
https://grusshoppen.dk/
-*-*-*-*-*-*-*-*-*

---------------------08:08:07

-*-*-*-*-*-*-*-*-*

---------------------08:08:41
https://grusshoppen.dk/
-*-*-*-*-*-*-*-*-*

---------------------08:08:41

-*-*-*-*-*-*-*-*-*

---------------------08:08:51
https://grusshoppen.dk/
-*-*-*-*-*-*-*-*-*

---------------------08:08:51

-*-*-*-*-*-*-*-*-*

---------------------08:10:36
https://grusshoppen.dk/
-*-*-*-*-*-*-*-*-*

---------------------08:10:36

-*-*-*-*-*-*-*-*-*

---------------------08:10:51
https://grusshoppen.dk/
-*-*-*-*-*-*-*-*-*

---------------------08:10:51

-*-*-*-*-*-*-*-*-*

---------------------08:10:59
https://grusshoppen.dk/
-*-*-*-*-*-*-*-*-*

---------------------08:10:59

-*-*-*-*-*-*-*-*-*

---------------------08:11:04
https://grusshoppen.dk/
-*-*-*-*-*-*-*-*-*

---------------------08:11:04

-*-*-*-*-*-*-*-*-*

---------------------08:11:17
https://grusshoppen.dk/
-*-*-*-*-*-*-*-*-*

---------------------08:11:17

-*-*-*-*-*-*-*-*-*

---------------------08:11:38
https://grusshoppen.dk/
-*-*-*-*-*-*-*-*-*

---------------------08:11:38

-*-*-*-*-*-*-*-*-*

---------------------10:31:12
https://grusshoppen.dk/
-*-*-*-*-*-*-*-*-*

---------------------10:31:12

-*-*-*-*-*-*-*-*-*

---------------------10:31:17
https://grusshoppen.dk/
-*-*-*-*-*-*-*-*-*

---------------------10:31:17

-*-*-*-*-*-*-*-*-*

---------------------10:31:19
https://grusshoppen.dk/
-*-*-*-*-*-*-*-*-*

---------------------10:31:19

-*-*-*-*-*-*-*-*-*

---------------------10:31:29
https://grusshoppen.dk/
-*-*-*-*-*-*-*-*-*

---------------------10:31:29

-*-*-*-*-*-*-*-*-*

---------------------10:32:18
https://grusshoppen.dk/
-*-*-*-*-*-*-*-*-*

---------------------10:32:18

-*-*-*-*-*-*-*-*-*

---------------------10:32:31
https://grusshoppen.dk/
-*-*-*-*-*-*-*-*-*

---------------------10:32:31

-*-*-*-*-*-*-*-*-*

---------------------10:32:41
https://grusshoppen.dk/
-*-*-*-*-*-*-*-*-*

---------------------10:32:41

-*-*-*-*-*-*-*-*-*

---------------------12:15:57
https://grusshoppen.dk/
-*-*-*-*-*-*-*-*-*

---------------------12:15:57

-*-*-*-*-*-*-*-*-*

---------------------12:16:03
https://grusshoppen.dk/
-*-*-*-*-*-*-*-*-*

---------------------12:16:03

-*-*-*-*-*-*-*-*-*

---------------------12:16:27

-*-*-*-*-*-*-*-*-*

---------------------12:16:27

-*-*-*-*-*-*-*-*-*

---------------------12:16:29
https://www.happyeventsurat.com/postcode/user/?shop=grusshoppen-dk.myshopify.com
-*-*-*-*-*-*-*-*-*

---------------------12:16:29

-*-*-*-*-*-*-*-*-*

---------------------12:16:29
https://www.happyeventsurat.com/postcode/user/?shop=grusshoppen-dk.myshopify.com
-*-*-*-*-*-*-*-*-*

---------------------12:16:29

-*-*-*-*-*-*-*-*-*

---------------------12:16:31
https://www.happyeventsurat.com/postcode/user/?shop=grusshoppen-dk.myshopify.com
-*-*-*-*-*-*-*-*-*

---------------------12:16:31

-*-*-*-*-*-*-*-*-*

---------------------12:16:32
https://www.happyeventsurat.com/postcode/user/zonesettings.php?store=grusshoppen-dk.myshopify.com
-*-*-*-*-*-*-*-*-*

---------------------12:16:32
grusshoppen-dk.myshopify.com
-*-*-*-*-*-*-*-*-*

---------------------12:16:40
https://grusshoppen.dk/
-*-*-*-*-*-*-*-*-*

---------------------12:16:40

-*-*-*-*-*-*-*-*-*

---------------------18:16:12
https://grusshoppen.dk/
-*-*-*-*-*-*-*-*-*

---------------------18:16:12

-*-*-*-*-*-*-*-*-*

---------------------18:17:06
https://grusshoppen.dk/
-*-*-*-*-*-*-*-*-*

---------------------18:17:06

-*-*-*-*-*-*-*-*-*

---------------------18:17:27
https://grusshoppen.dk/
-*-*-*-*-*-*-*-*-*

---------------------18:17:27

-*-*-*-*-*-*-*-*-*

---------------------18:18:04
https://grusshoppen.dk/
-*-*-*-*-*-*-*-*-*

---------------------18:18:04

-*-*-*-*-*-*-*-*-*

---------------------18:18:31
https://grusshoppen.dk/
-*-*-*-*-*-*-*-*-*

---------------------18:18:31

-*-*-*-*-*-*-*-*-*

---------------------18:18:34
https://grusshoppen.dk/
-*-*-*-*-*-*-*-*-*

---------------------18:18:34

-*-*-*-*-*-*-*-*-*

---------------------18:19:00
https://grusshoppen.dk/
-*-*-*-*-*-*-*-*-*

---------------------18:19:00

-*-*-*-*-*-*-*-*-*

---------------------18:19:03
https://grusshoppen.dk/
-*-*-*-*-*-*-*-*-*

---------------------18:19:03

-*-*-*-*-*-*-*-*-*

---------------------18:19:08
https://grusshoppen.dk/
-*-*-*-*-*-*-*-*-*

---------------------18:19:08

-*-*-*-*-*-*-*-*-*

---------------------18:19:17
https://grusshoppen.dk/
-*-*-*-*-*-*-*-*-*

---------------------18:19:17

-*-*-*-*-*-*-*-*-*

---------------------19:28:50
https://grusshoppen.dk/
-*-*-*-*-*-*-*-*-*

---------------------19:28:50

-*-*-*-*-*-*-*-*-*