

---------------------00:10:29
https://grusshoppen.dk/
-*-*-*-*-*-*-*-*-*

---------------------00:10:29

-*-*-*-*-*-*-*-*-*

---------------------00:10:48
https://grusshoppen.dk/
-*-*-*-*-*-*-*-*-*

---------------------00:10:48

-*-*-*-*-*-*-*-*-*

---------------------00:13:52
https://grusshoppen.dk/
-*-*-*-*-*-*-*-*-*

---------------------00:13:52

-*-*-*-*-*-*-*-*-*

---------------------03:07:33
https://grusshoppen.dk/
-*-*-*-*-*-*-*-*-*

---------------------03:07:33

-*-*-*-*-*-*-*-*-*

---------------------04:58:00

-*-*-*-*-*-*-*-*-*

---------------------04:58:00

-*-*-*-*-*-*-*-*-*

---------------------07:52:10
https://grusshoppen.dk/
-*-*-*-*-*-*-*-*-*

---------------------07:52:10

-*-*-*-*-*-*-*-*-*

---------------------09:23:16
https://grusshoppen.dk/
-*-*-*-*-*-*-*-*-*

---------------------09:23:16

-*-*-*-*-*-*-*-*-*

---------------------09:23:51
https://grusshoppen.dk/
-*-*-*-*-*-*-*-*-*

---------------------09:23:51

-*-*-*-*-*-*-*-*-*

---------------------09:24:10
https://grusshoppen.dk/
-*-*-*-*-*-*-*-*-*

---------------------09:24:10

-*-*-*-*-*-*-*-*-*

---------------------09:24:16
https://grusshoppen.dk/
-*-*-*-*-*-*-*-*-*

---------------------09:24:16

-*-*-*-*-*-*-*-*-*

---------------------09:24:24
https://grusshoppen.dk/
-*-*-*-*-*-*-*-*-*

---------------------09:24:24

-*-*-*-*-*-*-*-*-*

---------------------09:24:35
https://grusshoppen.dk/
-*-*-*-*-*-*-*-*-*

---------------------09:24:35

-*-*-*-*-*-*-*-*-*

---------------------09:24:51
https://grusshoppen.dk/
-*-*-*-*-*-*-*-*-*

---------------------09:24:51

-*-*-*-*-*-*-*-*-*

---------------------09:25:03
https://grusshoppen.dk/
-*-*-*-*-*-*-*-*-*

---------------------09:25:03

-*-*-*-*-*-*-*-*-*

---------------------10:19:11
https://grusshoppen.dk/
-*-*-*-*-*-*-*-*-*

---------------------10:19:11

-*-*-*-*-*-*-*-*-*

---------------------10:19:43
https://grusshoppen.dk/
-*-*-*-*-*-*-*-*-*

---------------------10:19:43

-*-*-*-*-*-*-*-*-*

---------------------10:20:46

-*-*-*-*-*-*-*-*-*

---------------------10:20:46

-*-*-*-*-*-*-*-*-*

---------------------10:20:48
https://www.happyeventsurat.com/postcode/user/index.php
-*-*-*-*-*-*-*-*-*

---------------------10:20:48

-*-*-*-*-*-*-*-*-*

---------------------10:20:48
https://www.happyeventsurat.com/postcode/user/index.php
-*-*-*-*-*-*-*-*-*

---------------------10:20:48

-*-*-*-*-*-*-*-*-*

---------------------14:03:12
https://grusshoppen.dk/
-*-*-*-*-*-*-*-*-*

---------------------14:03:12

-*-*-*-*-*-*-*-*-*

---------------------14:03:15
https://grusshoppen.dk/
-*-*-*-*-*-*-*-*-*

---------------------14:03:15

-*-*-*-*-*-*-*-*-*

---------------------14:03:18
https://grusshoppen.dk/
-*-*-*-*-*-*-*-*-*

---------------------14:03:18

-*-*-*-*-*-*-*-*-*

---------------------14:03:20
https://grusshoppen.dk/
-*-*-*-*-*-*-*-*-*

---------------------14:03:20

-*-*-*-*-*-*-*-*-*

---------------------14:04:04
https://grusshoppen.dk/
-*-*-*-*-*-*-*-*-*

---------------------14:04:04

-*-*-*-*-*-*-*-*-*

---------------------14:04:06
https://grusshoppen.dk/
-*-*-*-*-*-*-*-*-*

---------------------14:04:06

-*-*-*-*-*-*-*-*-*

---------------------14:04:20
https://grusshoppen.dk/
-*-*-*-*-*-*-*-*-*

---------------------14:04:20

-*-*-*-*-*-*-*-*-*

---------------------14:33:06

-*-*-*-*-*-*-*-*-*

---------------------14:33:06

-*-*-*-*-*-*-*-*-*

---------------------18:28:47
https://grusshoppen.dk/
-*-*-*-*-*-*-*-*-*

---------------------18:28:47

-*-*-*-*-*-*-*-*-*