

---------------------01:28:01
https://grusshoppen.dk/
-*-*-*-*-*-*-*-*-*

---------------------01:28:01

-*-*-*-*-*-*-*-*-*

---------------------02:38:06
https://grusshoppen.dk/
-*-*-*-*-*-*-*-*-*

---------------------02:38:06

-*-*-*-*-*-*-*-*-*

---------------------03:26:41
https://grusshoppen.dk/
-*-*-*-*-*-*-*-*-*

---------------------03:26:41

-*-*-*-*-*-*-*-*-*

---------------------07:46:22
https://grusshoppen.dk/
-*-*-*-*-*-*-*-*-*

---------------------07:46:22

-*-*-*-*-*-*-*-*-*

---------------------07:46:45
https://grusshoppen.dk/
-*-*-*-*-*-*-*-*-*

---------------------07:46:45

-*-*-*-*-*-*-*-*-*

---------------------07:47:05
https://grusshoppen.dk/
-*-*-*-*-*-*-*-*-*

---------------------07:47:05

-*-*-*-*-*-*-*-*-*

---------------------13:59:52
https://grusshoppen.dk/
-*-*-*-*-*-*-*-*-*

---------------------13:59:52

-*-*-*-*-*-*-*-*-*

---------------------15:13:53
https://grusshoppen.dk/
-*-*-*-*-*-*-*-*-*

---------------------15:13:53

-*-*-*-*-*-*-*-*-*

---------------------15:29:06
https://grusshoppen.dk/
-*-*-*-*-*-*-*-*-*

---------------------15:29:06

-*-*-*-*-*-*-*-*-*

---------------------17:22:01
https://grusshoppen.dk/
-*-*-*-*-*-*-*-*-*

---------------------17:22:01

-*-*-*-*-*-*-*-*-*

---------------------17:23:05
https://grusshoppen.dk/
-*-*-*-*-*-*-*-*-*

---------------------17:23:05

-*-*-*-*-*-*-*-*-*

---------------------17:27:28
https://grusshoppen.dk/
-*-*-*-*-*-*-*-*-*

---------------------17:27:28

-*-*-*-*-*-*-*-*-*

---------------------17:34:53

-*-*-*-*-*-*-*-*-*

---------------------17:34:53

-*-*-*-*-*-*-*-*-*

---------------------17:40:49
https://grusshoppen.dk/
-*-*-*-*-*-*-*-*-*

---------------------17:40:49

-*-*-*-*-*-*-*-*-*

---------------------17:40:58
https://grusshoppen.dk/
-*-*-*-*-*-*-*-*-*

---------------------17:40:58

-*-*-*-*-*-*-*-*-*

---------------------17:41:15
https://grusshoppen.dk/
-*-*-*-*-*-*-*-*-*

---------------------17:41:15

-*-*-*-*-*-*-*-*-*

---------------------17:42:23
https://grusshoppen.dk/
-*-*-*-*-*-*-*-*-*

---------------------17:42:23

-*-*-*-*-*-*-*-*-*

---------------------18:21:34
https://grusshoppen.dk/
-*-*-*-*-*-*-*-*-*

---------------------18:21:34

-*-*-*-*-*-*-*-*-*

---------------------18:22:46
https://grusshoppen.dk/
-*-*-*-*-*-*-*-*-*

---------------------18:22:46

-*-*-*-*-*-*-*-*-*

---------------------18:23:34
https://grusshoppen.dk/
-*-*-*-*-*-*-*-*-*

---------------------18:23:34

-*-*-*-*-*-*-*-*-*

---------------------18:23:56
https://grusshoppen.dk/
-*-*-*-*-*-*-*-*-*

---------------------18:23:56

-*-*-*-*-*-*-*-*-*

---------------------18:30:42
https://grusshoppen.dk/
-*-*-*-*-*-*-*-*-*

---------------------18:30:42

-*-*-*-*-*-*-*-*-*

---------------------18:30:52
https://grusshoppen.dk/
-*-*-*-*-*-*-*-*-*

---------------------18:30:52

-*-*-*-*-*-*-*-*-*

---------------------18:31:38
https://grusshoppen.dk/
-*-*-*-*-*-*-*-*-*

---------------------18:31:38

-*-*-*-*-*-*-*-*-*

---------------------21:36:12
https://grusshoppen.dk/
-*-*-*-*-*-*-*-*-*

---------------------21:36:12

-*-*-*-*-*-*-*-*-*