

---------------------00:30:39
https://grusshoppen.dk/
-*-*-*-*-*-*-*-*-*

---------------------00:30:39

-*-*-*-*-*-*-*-*-*

---------------------00:30:39
https://grusshoppen.dk/
-*-*-*-*-*-*-*-*-*

---------------------00:30:39

-*-*-*-*-*-*-*-*-*

---------------------00:30:39
https://grusshoppen.dk/
-*-*-*-*-*-*-*-*-*

---------------------00:30:39

-*-*-*-*-*-*-*-*-*

---------------------01:02:42
https://grusshoppen.dk/
-*-*-*-*-*-*-*-*-*

---------------------01:02:42

-*-*-*-*-*-*-*-*-*

---------------------04:11:37
https://grusshoppen.dk/
-*-*-*-*-*-*-*-*-*

---------------------04:11:37

-*-*-*-*-*-*-*-*-*

---------------------06:24:38
https://grusshoppen.dk/
-*-*-*-*-*-*-*-*-*

---------------------06:24:38

-*-*-*-*-*-*-*-*-*

---------------------06:24:38
https://grusshoppen.dk/
-*-*-*-*-*-*-*-*-*

---------------------06:24:38

-*-*-*-*-*-*-*-*-*

---------------------06:24:39
https://grusshoppen.dk/
-*-*-*-*-*-*-*-*-*

---------------------06:24:39

-*-*-*-*-*-*-*-*-*

---------------------07:40:42

-*-*-*-*-*-*-*-*-*

---------------------07:40:42

-*-*-*-*-*-*-*-*-*

---------------------07:40:43
https://www.happyeventsurat.com/postcode/user/?shop=grusshoppen-dk.myshopify.com
-*-*-*-*-*-*-*-*-*

---------------------07:40:43

-*-*-*-*-*-*-*-*-*

---------------------07:40:43
https://www.happyeventsurat.com/postcode/user/?shop=grusshoppen-dk.myshopify.com
-*-*-*-*-*-*-*-*-*

---------------------07:40:43

-*-*-*-*-*-*-*-*-*

---------------------08:22:59
https://grusshoppen.dk/
-*-*-*-*-*-*-*-*-*

---------------------08:22:59

-*-*-*-*-*-*-*-*-*

---------------------09:30:03

-*-*-*-*-*-*-*-*-*

---------------------09:30:03

-*-*-*-*-*-*-*-*-*

---------------------09:30:03
https://www.happyeventsurat.com/postcode/user/?shop=grusshoppen-dk.myshopify.com
-*-*-*-*-*-*-*-*-*

---------------------09:30:03

-*-*-*-*-*-*-*-*-*

---------------------09:30:03
https://www.happyeventsurat.com/postcode/user/?shop=grusshoppen-dk.myshopify.com
-*-*-*-*-*-*-*-*-*

---------------------09:30:03

-*-*-*-*-*-*-*-*-*

---------------------10:32:37
https://grusshoppen.dk/
-*-*-*-*-*-*-*-*-*

---------------------10:32:37

-*-*-*-*-*-*-*-*-*

---------------------10:32:50
https://grusshoppen.dk/
-*-*-*-*-*-*-*-*-*

---------------------10:32:50

-*-*-*-*-*-*-*-*-*

---------------------10:33:25
https://grusshoppen.dk/
-*-*-*-*-*-*-*-*-*

---------------------10:33:25

-*-*-*-*-*-*-*-*-*

---------------------10:33:52
https://grusshoppen.dk/
-*-*-*-*-*-*-*-*-*

---------------------10:33:52

-*-*-*-*-*-*-*-*-*

---------------------10:34:08
https://grusshoppen.dk/
-*-*-*-*-*-*-*-*-*

---------------------10:34:08

-*-*-*-*-*-*-*-*-*

---------------------10:34:20
https://grusshoppen.dk/
-*-*-*-*-*-*-*-*-*

---------------------10:34:20

-*-*-*-*-*-*-*-*-*

---------------------11:15:20

-*-*-*-*-*-*-*-*-*

---------------------11:15:20

-*-*-*-*-*-*-*-*-*

---------------------11:15:25
https://www.happyeventsurat.com/postcode/user/?shop=grusshoppen-dk.myshopify.com
-*-*-*-*-*-*-*-*-*

---------------------11:15:25

-*-*-*-*-*-*-*-*-*

---------------------11:15:25
https://www.happyeventsurat.com/postcode/user/?shop=grusshoppen-dk.myshopify.com
-*-*-*-*-*-*-*-*-*

---------------------11:15:25

-*-*-*-*-*-*-*-*-*

---------------------12:35:59
https://grusshoppen.dk/
-*-*-*-*-*-*-*-*-*

---------------------12:35:59

-*-*-*-*-*-*-*-*-*

---------------------13:57:40
https://grusshoppen.dk/
-*-*-*-*-*-*-*-*-*

---------------------13:57:40

-*-*-*-*-*-*-*-*-*

---------------------13:58:06
https://grusshoppen.dk/
-*-*-*-*-*-*-*-*-*

---------------------13:58:06

-*-*-*-*-*-*-*-*-*

---------------------14:10:23
https://grusshoppen.dk/
-*-*-*-*-*-*-*-*-*

---------------------14:10:23

-*-*-*-*-*-*-*-*-*

---------------------19:59:36
https://grusshoppen.dk/
-*-*-*-*-*-*-*-*-*

---------------------19:59:36

-*-*-*-*-*-*-*-*-*

---------------------19:59:49
https://grusshoppen.dk/
-*-*-*-*-*-*-*-*-*

---------------------19:59:49

-*-*-*-*-*-*-*-*-*

---------------------19:59:54
https://grusshoppen.dk/
-*-*-*-*-*-*-*-*-*

---------------------19:59:54

-*-*-*-*-*-*-*-*-*

---------------------19:59:56
https://grusshoppen.dk/
-*-*-*-*-*-*-*-*-*

---------------------19:59:56

-*-*-*-*-*-*-*-*-*

---------------------20:00:00
https://grusshoppen.dk/
-*-*-*-*-*-*-*-*-*

---------------------20:00:00

-*-*-*-*-*-*-*-*-*

---------------------20:00:15
https://grusshoppen.dk/
-*-*-*-*-*-*-*-*-*

---------------------20:00:15

-*-*-*-*-*-*-*-*-*

---------------------20:00:19
https://grusshoppen.dk/
-*-*-*-*-*-*-*-*-*

---------------------20:00:19

-*-*-*-*-*-*-*-*-*

---------------------20:00:24
https://grusshoppen.dk/
-*-*-*-*-*-*-*-*-*

---------------------20:00:24

-*-*-*-*-*-*-*-*-*

---------------------20:00:31
https://grusshoppen.dk/
-*-*-*-*-*-*-*-*-*

---------------------20:00:31

-*-*-*-*-*-*-*-*-*

---------------------20:00:33
https://grusshoppen.dk/
-*-*-*-*-*-*-*-*-*

---------------------20:00:33

-*-*-*-*-*-*-*-*-*

---------------------20:00:41
https://grusshoppen.dk/
-*-*-*-*-*-*-*-*-*

---------------------20:00:41

-*-*-*-*-*-*-*-*-*

---------------------20:01:30
https://grusshoppen.dk/
-*-*-*-*-*-*-*-*-*

---------------------20:01:30

-*-*-*-*-*-*-*-*-*

---------------------20:01:45
https://grusshoppen.dk/
-*-*-*-*-*-*-*-*-*

---------------------20:01:45

-*-*-*-*-*-*-*-*-*

---------------------20:02:13
https://grusshoppen.dk/
-*-*-*-*-*-*-*-*-*

---------------------20:02:13

-*-*-*-*-*-*-*-*-*

---------------------20:02:19
https://grusshoppen.dk/
-*-*-*-*-*-*-*-*-*

---------------------20:02:19

-*-*-*-*-*-*-*-*-*

---------------------20:02:51
https://grusshoppen.dk/
-*-*-*-*-*-*-*-*-*

---------------------20:02:51

-*-*-*-*-*-*-*-*-*

---------------------20:02:53
https://grusshoppen.dk/
-*-*-*-*-*-*-*-*-*

---------------------20:02:53

-*-*-*-*-*-*-*-*-*

---------------------20:03:00
https://grusshoppen.dk/
-*-*-*-*-*-*-*-*-*

---------------------20:03:00

-*-*-*-*-*-*-*-*-*

---------------------20:03:09
https://grusshoppen.dk/
-*-*-*-*-*-*-*-*-*

---------------------20:03:09

-*-*-*-*-*-*-*-*-*

---------------------20:03:15
https://grusshoppen.dk/
-*-*-*-*-*-*-*-*-*

---------------------20:03:15

-*-*-*-*-*-*-*-*-*

---------------------20:03:20
https://grusshoppen.dk/
-*-*-*-*-*-*-*-*-*

---------------------20:03:20

-*-*-*-*-*-*-*-*-*

---------------------20:03:24
https://grusshoppen.dk/
-*-*-*-*-*-*-*-*-*

---------------------20:03:24

-*-*-*-*-*-*-*-*-*

---------------------20:03:26
https://grusshoppen.dk/
-*-*-*-*-*-*-*-*-*

---------------------20:03:26

-*-*-*-*-*-*-*-*-*

---------------------20:03:30
https://grusshoppen.dk/
-*-*-*-*-*-*-*-*-*

---------------------20:03:30

-*-*-*-*-*-*-*-*-*

---------------------20:03:40
https://grusshoppen.dk/
-*-*-*-*-*-*-*-*-*

---------------------20:03:40

-*-*-*-*-*-*-*-*-*

---------------------20:03:44
https://grusshoppen.dk/
-*-*-*-*-*-*-*-*-*

---------------------20:03:44

-*-*-*-*-*-*-*-*-*

---------------------20:03:48
https://grusshoppen.dk/
-*-*-*-*-*-*-*-*-*

---------------------20:03:48

-*-*-*-*-*-*-*-*-*

---------------------20:03:56
https://grusshoppen.dk/
-*-*-*-*-*-*-*-*-*

---------------------20:03:56

-*-*-*-*-*-*-*-*-*

---------------------20:05:23
https://grusshoppen.dk/
-*-*-*-*-*-*-*-*-*

---------------------20:05:23

-*-*-*-*-*-*-*-*-*

---------------------20:05:31
https://grusshoppen.dk/
-*-*-*-*-*-*-*-*-*

---------------------20:05:31

-*-*-*-*-*-*-*-*-*

---------------------20:05:36
https://grusshoppen.dk/
-*-*-*-*-*-*-*-*-*

---------------------20:05:36

-*-*-*-*-*-*-*-*-*

---------------------20:05:38
https://grusshoppen.dk/
-*-*-*-*-*-*-*-*-*

---------------------20:05:38

-*-*-*-*-*-*-*-*-*

---------------------20:05:42
https://grusshoppen.dk/
-*-*-*-*-*-*-*-*-*

---------------------20:05:42

-*-*-*-*-*-*-*-*-*

---------------------20:05:45
https://grusshoppen.dk/
-*-*-*-*-*-*-*-*-*

---------------------20:05:45

-*-*-*-*-*-*-*-*-*