

---------------------04:14:18
https://grusshoppen.dk/
-*-*-*-*-*-*-*-*-*

---------------------04:14:18

-*-*-*-*-*-*-*-*-*

---------------------04:14:40
https://grusshoppen.dk/
-*-*-*-*-*-*-*-*-*

---------------------04:14:40

-*-*-*-*-*-*-*-*-*

---------------------08:13:17
https://grusshoppen.dk/
-*-*-*-*-*-*-*-*-*

---------------------08:13:17

-*-*-*-*-*-*-*-*-*

---------------------08:18:01
https://grusshoppen.dk/
-*-*-*-*-*-*-*-*-*

---------------------08:18:01

-*-*-*-*-*-*-*-*-*

---------------------08:18:01
https://grusshoppen.dk/
-*-*-*-*-*-*-*-*-*

---------------------08:18:01

-*-*-*-*-*-*-*-*-*

---------------------08:21:06
https://grusshoppen.dk/
-*-*-*-*-*-*-*-*-*

---------------------08:21:06

-*-*-*-*-*-*-*-*-*

---------------------08:22:05
https://grusshoppen.dk/
-*-*-*-*-*-*-*-*-*

---------------------08:22:05

-*-*-*-*-*-*-*-*-*

---------------------08:25:37
https://grusshoppen.dk/
-*-*-*-*-*-*-*-*-*

---------------------08:25:37

-*-*-*-*-*-*-*-*-*

---------------------08:26:03
https://grusshoppen.dk/
-*-*-*-*-*-*-*-*-*

---------------------08:26:03

-*-*-*-*-*-*-*-*-*

---------------------10:32:18
https://grusshoppen.dk/
-*-*-*-*-*-*-*-*-*

---------------------10:32:18

-*-*-*-*-*-*-*-*-*

---------------------13:35:52

-*-*-*-*-*-*-*-*-*

---------------------13:35:52

-*-*-*-*-*-*-*-*-*

---------------------15:02:01
https://grusshoppen.dk/
-*-*-*-*-*-*-*-*-*

---------------------15:02:01

-*-*-*-*-*-*-*-*-*

---------------------15:40:26
https://grusshoppen.dk/
-*-*-*-*-*-*-*-*-*

---------------------15:40:26

-*-*-*-*-*-*-*-*-*

---------------------15:46:21
https://grusshoppen.dk/
-*-*-*-*-*-*-*-*-*

---------------------15:46:21

-*-*-*-*-*-*-*-*-*

---------------------15:55:53
https://grusshoppen.dk/
-*-*-*-*-*-*-*-*-*

---------------------15:55:53

-*-*-*-*-*-*-*-*-*

---------------------18:57:39
https://grusshoppen.dk/
-*-*-*-*-*-*-*-*-*

---------------------18:57:39

-*-*-*-*-*-*-*-*-*

---------------------18:57:56
https://grusshoppen.dk/
-*-*-*-*-*-*-*-*-*

---------------------18:57:56

-*-*-*-*-*-*-*-*-*

---------------------18:58:00
https://grusshoppen.dk/
-*-*-*-*-*-*-*-*-*

---------------------18:58:00

-*-*-*-*-*-*-*-*-*

---------------------18:58:03
https://grusshoppen.dk/
-*-*-*-*-*-*-*-*-*

---------------------18:58:03

-*-*-*-*-*-*-*-*-*

---------------------18:58:05
https://grusshoppen.dk/
-*-*-*-*-*-*-*-*-*

---------------------18:58:05

-*-*-*-*-*-*-*-*-*

---------------------18:58:08
https://grusshoppen.dk/
-*-*-*-*-*-*-*-*-*

---------------------18:58:08

-*-*-*-*-*-*-*-*-*

---------------------18:58:10
https://grusshoppen.dk/
-*-*-*-*-*-*-*-*-*

---------------------18:58:10

-*-*-*-*-*-*-*-*-*

---------------------20:57:38
https://grusshoppen.dk/
-*-*-*-*-*-*-*-*-*

---------------------20:57:38

-*-*-*-*-*-*-*-*-*