

---------------------02:49:40
https://grusshoppen.dk/
-*-*-*-*-*-*-*-*-*

---------------------02:49:40

-*-*-*-*-*-*-*-*-*

---------------------02:50:35
https://grusshoppen.dk/
-*-*-*-*-*-*-*-*-*

---------------------02:50:35

-*-*-*-*-*-*-*-*-*

---------------------02:50:53
https://grusshoppen.dk/
-*-*-*-*-*-*-*-*-*

---------------------02:50:53

-*-*-*-*-*-*-*-*-*

---------------------02:51:43
https://grusshoppen.dk/
-*-*-*-*-*-*-*-*-*

---------------------02:51:43

-*-*-*-*-*-*-*-*-*

---------------------06:13:24
https://grusshoppen.dk/
-*-*-*-*-*-*-*-*-*

---------------------06:13:24

-*-*-*-*-*-*-*-*-*

---------------------06:13:52
https://grusshoppen.dk/
-*-*-*-*-*-*-*-*-*

---------------------06:13:52

-*-*-*-*-*-*-*-*-*

---------------------08:00:21
https://grusshoppen.dk/
-*-*-*-*-*-*-*-*-*

---------------------08:00:21

-*-*-*-*-*-*-*-*-*

---------------------08:00:27
https://grusshoppen.dk/
-*-*-*-*-*-*-*-*-*

---------------------08:00:27

-*-*-*-*-*-*-*-*-*

---------------------17:38:51
https://grusshoppen.dk/
-*-*-*-*-*-*-*-*-*

---------------------17:38:51

-*-*-*-*-*-*-*-*-*

---------------------17:41:42
https://grusshoppen.dk/
-*-*-*-*-*-*-*-*-*

---------------------17:41:42

-*-*-*-*-*-*-*-*-*

---------------------17:41:47
https://grusshoppen.dk/
-*-*-*-*-*-*-*-*-*

---------------------17:41:47

-*-*-*-*-*-*-*-*-*

---------------------17:41:50
https://grusshoppen.dk/
-*-*-*-*-*-*-*-*-*

---------------------17:41:50

-*-*-*-*-*-*-*-*-*

---------------------17:42:22
https://grusshoppen.dk/
-*-*-*-*-*-*-*-*-*

---------------------17:42:22

-*-*-*-*-*-*-*-*-*

---------------------17:42:45
https://grusshoppen.dk/
-*-*-*-*-*-*-*-*-*

---------------------17:42:45

-*-*-*-*-*-*-*-*-*

---------------------17:43:10
https://grusshoppen.dk/
-*-*-*-*-*-*-*-*-*

---------------------17:43:10

-*-*-*-*-*-*-*-*-*

---------------------18:25:39
https://grusshoppen.dk/
-*-*-*-*-*-*-*-*-*

---------------------18:25:39

-*-*-*-*-*-*-*-*-*

---------------------18:25:46
https://grusshoppen.dk/
-*-*-*-*-*-*-*-*-*

---------------------18:25:46

-*-*-*-*-*-*-*-*-*

---------------------18:25:55
https://grusshoppen.dk/
-*-*-*-*-*-*-*-*-*

---------------------18:25:55

-*-*-*-*-*-*-*-*-*

---------------------18:25:59
https://grusshoppen.dk/
-*-*-*-*-*-*-*-*-*

---------------------18:25:59

-*-*-*-*-*-*-*-*-*

---------------------18:26:03
https://grusshoppen.dk/
-*-*-*-*-*-*-*-*-*

---------------------18:26:03

-*-*-*-*-*-*-*-*-*

---------------------19:14:06
https://grusshoppen.dk/
-*-*-*-*-*-*-*-*-*

---------------------19:14:06

-*-*-*-*-*-*-*-*-*