

---------------------05:09:58
https://grusshoppen.dk/
-*-*-*-*-*-*-*-*-*

---------------------05:09:58

-*-*-*-*-*-*-*-*-*

---------------------05:25:04
https://grusshoppen.dk/
-*-*-*-*-*-*-*-*-*

---------------------05:25:04

-*-*-*-*-*-*-*-*-*

---------------------05:25:20
https://grusshoppen.dk/
-*-*-*-*-*-*-*-*-*

---------------------05:25:20

-*-*-*-*-*-*-*-*-*

---------------------05:25:32
https://grusshoppen.dk/
-*-*-*-*-*-*-*-*-*

---------------------05:25:32

-*-*-*-*-*-*-*-*-*

---------------------05:25:41
https://grusshoppen.dk/
-*-*-*-*-*-*-*-*-*

---------------------05:25:41

-*-*-*-*-*-*-*-*-*

---------------------05:25:45
https://grusshoppen.dk/
-*-*-*-*-*-*-*-*-*

---------------------05:25:45

-*-*-*-*-*-*-*-*-*

---------------------05:25:50
https://grusshoppen.dk/
-*-*-*-*-*-*-*-*-*

---------------------05:25:50

-*-*-*-*-*-*-*-*-*

---------------------05:25:57
https://grusshoppen.dk/
-*-*-*-*-*-*-*-*-*

---------------------05:25:57

-*-*-*-*-*-*-*-*-*

---------------------05:26:00
https://grusshoppen.dk/
-*-*-*-*-*-*-*-*-*

---------------------05:26:00

-*-*-*-*-*-*-*-*-*

---------------------05:26:06
https://grusshoppen.dk/
-*-*-*-*-*-*-*-*-*

---------------------05:26:06

-*-*-*-*-*-*-*-*-*

---------------------05:26:08
https://grusshoppen.dk/
-*-*-*-*-*-*-*-*-*

---------------------05:26:08

-*-*-*-*-*-*-*-*-*

---------------------05:26:10
https://grusshoppen.dk/
-*-*-*-*-*-*-*-*-*

---------------------05:26:10

-*-*-*-*-*-*-*-*-*

---------------------05:26:25
https://grusshoppen.dk/
-*-*-*-*-*-*-*-*-*

---------------------05:26:25

-*-*-*-*-*-*-*-*-*

---------------------07:00:21

-*-*-*-*-*-*-*-*-*

---------------------07:00:21

-*-*-*-*-*-*-*-*-*

---------------------08:34:33
https://grusshoppen.dk/
-*-*-*-*-*-*-*-*-*

---------------------08:34:33

-*-*-*-*-*-*-*-*-*

---------------------10:45:56
https://grusshoppen.dk/
-*-*-*-*-*-*-*-*-*

---------------------10:45:56

-*-*-*-*-*-*-*-*-*

---------------------10:45:56
https://grusshoppen.dk/
-*-*-*-*-*-*-*-*-*

---------------------10:45:56

-*-*-*-*-*-*-*-*-*

---------------------10:45:56
https://grusshoppen.dk/
-*-*-*-*-*-*-*-*-*

---------------------10:45:56

-*-*-*-*-*-*-*-*-*

---------------------11:27:56
https://grusshoppen.dk/
-*-*-*-*-*-*-*-*-*

---------------------11:27:56

-*-*-*-*-*-*-*-*-*

---------------------14:21:33
https://grusshoppen.dk/
-*-*-*-*-*-*-*-*-*

---------------------14:21:33

-*-*-*-*-*-*-*-*-*

---------------------14:23:27
https://grusshoppen.dk/
-*-*-*-*-*-*-*-*-*

---------------------14:23:27

-*-*-*-*-*-*-*-*-*

---------------------14:24:16
https://grusshoppen.dk/
-*-*-*-*-*-*-*-*-*

---------------------14:24:16

-*-*-*-*-*-*-*-*-*

---------------------14:24:21
https://grusshoppen.dk/
-*-*-*-*-*-*-*-*-*

---------------------14:24:21

-*-*-*-*-*-*-*-*-*

---------------------14:24:25
https://grusshoppen.dk/
-*-*-*-*-*-*-*-*-*

---------------------14:24:25

-*-*-*-*-*-*-*-*-*

---------------------15:03:26

-*-*-*-*-*-*-*-*-*

---------------------15:03:26

-*-*-*-*-*-*-*-*-*

---------------------15:03:29

-*-*-*-*-*-*-*-*-*

---------------------15:03:29

-*-*-*-*-*-*-*-*-*

---------------------19:44:48
https://grusshoppen.dk/
-*-*-*-*-*-*-*-*-*

---------------------19:44:48

-*-*-*-*-*-*-*-*-*

---------------------19:44:52
https://grusshoppen.dk/
-*-*-*-*-*-*-*-*-*

---------------------19:44:52

-*-*-*-*-*-*-*-*-*

---------------------19:44:56
https://grusshoppen.dk/
-*-*-*-*-*-*-*-*-*

---------------------19:44:56

-*-*-*-*-*-*-*-*-*

---------------------19:45:27
https://grusshoppen.dk/
-*-*-*-*-*-*-*-*-*

---------------------19:45:27

-*-*-*-*-*-*-*-*-*