

---------------------14:43:24
{"store_user_id":"6","email":"","status":"1","application_status":"1","application_language":"en","shop_name":"dashboardmanage.myshopify.com","password":"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","is_demand_accept":"0","charge":"0","price_id":null,"invoice_on":null,"operated_on":null,"test_finals_on":null,"removed_on":null,"store_name":"dashboardmanage.myshopify.com","api_key":"","store_idea":"","price_pattern":"","cash":"","store_holder":"","address11":"","address22":"","city":"","country_name":"","mobile_no":"","division":"","zip":"","timezone":"","america_timezone":"","domain":"","feedback_status":"0","block_status":"0","created_at":"2022-07-18 06:48:13","updated_at":"2022-07-18 06:48:13","uninstall_on":null,"install_date":null}
-*-*-*-*-*-*-*-*-*

---------------------14:46:35
{"store_user_id":"6","email":"","status":"1","application_status":"1","application_language":"en","shop_name":"dashboardmanage.myshopify.com","password":"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","is_demand_accept":"0","charge":"0","price_id":null,"invoice_on":null,"operated_on":null,"test_finals_on":null,"removed_on":null,"store_name":"dashboardmanage.myshopify.com","api_key":"","store_idea":"","price_pattern":"","cash":"","store_holder":"","address11":"","address22":"","city":"","country_name":"","mobile_no":"","division":"","zip":"","timezone":"","america_timezone":"","domain":"","feedback_status":"0","block_status":"0","created_at":"2022-07-18 06:48:13","updated_at":"2022-07-18 06:48:13","uninstall_on":null,"install_date":null}
-*-*-*-*-*-*-*-*-*

---------------------14:47:15
{"store_user_id":"6","email":"","status":"1","application_status":"1","application_language":"en","shop_name":"dashboardmanage.myshopify.com","password":"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","is_demand_accept":"0","charge":"0","price_id":null,"invoice_on":null,"operated_on":null,"test_finals_on":null,"removed_on":null,"store_name":"dashboardmanage.myshopify.com","api_key":"","store_idea":"","price_pattern":"","cash":"","store_holder":"","address11":"","address22":"","city":"","country_name":"","mobile_no":"","division":"","zip":"","timezone":"","america_timezone":"","domain":"","feedback_status":"0","block_status":"0","created_at":"2022-07-18 06:48:13","updated_at":"2022-07-18 06:48:13","uninstall_on":null,"install_date":null}
-*-*-*-*-*-*-*-*-*

---------------------14:47:52
{"store_user_id":"6","email":"","status":"1","application_status":"1","application_language":"en","shop_name":"dashboardmanage.myshopify.com","password":"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","is_demand_accept":"0","charge":"0","price_id":null,"invoice_on":null,"operated_on":null,"test_finals_on":null,"removed_on":null,"store_name":"dashboardmanage.myshopify.com","api_key":"","store_idea":"","price_pattern":"","cash":"","store_holder":"","address11":"","address22":"","city":"","country_name":"","mobile_no":"","division":"","zip":"","timezone":"","america_timezone":"","domain":"","feedback_status":"0","block_status":"0","created_at":"2022-07-18 06:48:13","updated_at":"2022-07-18 06:48:13","uninstall_on":null,"install_date":null}
-*-*-*-*-*-*-*-*-*