

---------------------04:11:31
{"store_user_id":"6","email":"","status":"1","application_status":"1","application_language":"en","shop_name":"dashboardmanage.myshopify.com","password":"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","is_demand_accept":"0","charge":"0","price_id":null,"invoice_on":null,"operated_on":null,"test_finals_on":null,"removed_on":null,"store_name":"dashboardmanage.myshopify.com","api_key":"","store_idea":"","price_pattern":"","cash":"","store_holder":"","address11":"","address22":"","city":"","country_name":"","mobile_no":"","division":"","zip":"","timezone":"","america_timezone":"","domain":"","feedback_status":"0","block_status":"0","created_at":"2022-07-18 06:48:13","updated_at":"2022-07-18 06:48:13","uninstall_on":null,"install_date":null}
-*-*-*-*-*-*-*-*-*

---------------------04:11:37
{"store_user_id":"6","email":"","status":"1","application_status":"1","application_language":"en","shop_name":"dashboardmanage.myshopify.com","password":"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","is_demand_accept":"0","charge":"0","price_id":null,"invoice_on":null,"operated_on":null,"test_finals_on":null,"removed_on":null,"store_name":"dashboardmanage.myshopify.com","api_key":"","store_idea":"","price_pattern":"","cash":"","store_holder":"","address11":"","address22":"","city":"","country_name":"","mobile_no":"","division":"","zip":"","timezone":"","america_timezone":"","domain":"","feedback_status":"0","block_status":"0","created_at":"2022-07-18 06:48:13","updated_at":"2022-07-18 06:48:13","uninstall_on":null,"install_date":null}
-*-*-*-*-*-*-*-*-*

---------------------04:13:38
{"store_user_id":"6","email":"","status":"1","application_status":"1","application_language":"en","shop_name":"dashboardmanage.myshopify.com","password":"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","is_demand_accept":"0","charge":"0","price_id":null,"invoice_on":null,"operated_on":null,"test_finals_on":null,"removed_on":null,"store_name":"dashboardmanage.myshopify.com","api_key":"","store_idea":"","price_pattern":"","cash":"","store_holder":"","address11":"","address22":"","city":"","country_name":"","mobile_no":"","division":"","zip":"","timezone":"","america_timezone":"","domain":"","feedback_status":"0","block_status":"0","created_at":"2022-07-18 06:48:13","updated_at":"2022-07-18 06:48:13","uninstall_on":null,"install_date":null}
-*-*-*-*-*-*-*-*-*

---------------------04:13:38
{"store_user_id":"6","email":"","status":"1","application_status":"1","application_language":"en","shop_name":"dashboardmanage.myshopify.com","password":"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","is_demand_accept":"0","charge":"0","price_id":null,"invoice_on":null,"operated_on":null,"test_finals_on":null,"removed_on":null,"store_name":"dashboardmanage.myshopify.com","api_key":"","store_idea":"","price_pattern":"","cash":"","store_holder":"","address11":"","address22":"","city":"","country_name":"","mobile_no":"","division":"","zip":"","timezone":"","america_timezone":"","domain":"","feedback_status":"0","block_status":"0","created_at":"2022-07-18 06:48:13","updated_at":"2022-07-18 06:48:13","uninstall_on":null,"install_date":null}
-*-*-*-*-*-*-*-*-*

---------------------04:13:39
{"store_user_id":"6","email":"","status":"1","application_status":"1","application_language":"en","shop_name":"dashboardmanage.myshopify.com","password":"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","is_demand_accept":"0","charge":"0","price_id":null,"invoice_on":null,"operated_on":null,"test_finals_on":null,"removed_on":null,"store_name":"dashboardmanage.myshopify.com","api_key":"","store_idea":"","price_pattern":"","cash":"","store_holder":"","address11":"","address22":"","city":"","country_name":"","mobile_no":"","division":"","zip":"","timezone":"","america_timezone":"","domain":"","feedback_status":"0","block_status":"0","created_at":"2022-07-18 06:48:13","updated_at":"2022-07-18 06:48:13","uninstall_on":null,"install_date":null}
-*-*-*-*-*-*-*-*-*

---------------------04:13:40
{"store_user_id":"6","email":"","status":"1","application_status":"1","application_language":"en","shop_name":"dashboardmanage.myshopify.com","password":"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","is_demand_accept":"0","charge":"0","price_id":null,"invoice_on":null,"operated_on":null,"test_finals_on":null,"removed_on":null,"store_name":"dashboardmanage.myshopify.com","api_key":"","store_idea":"","price_pattern":"","cash":"","store_holder":"","address11":"","address22":"","city":"","country_name":"","mobile_no":"","division":"","zip":"","timezone":"","america_timezone":"","domain":"","feedback_status":"0","block_status":"0","created_at":"2022-07-18 06:48:13","updated_at":"2022-07-18 06:48:13","uninstall_on":null,"install_date":null}
-*-*-*-*-*-*-*-*-*

---------------------04:13:40
{"store_user_id":"6","email":"","status":"1","application_status":"1","application_language":"en","shop_name":"dashboardmanage.myshopify.com","password":"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","is_demand_accept":"0","charge":"0","price_id":null,"invoice_on":null,"operated_on":null,"test_finals_on":null,"removed_on":null,"store_name":"dashboardmanage.myshopify.com","api_key":"","store_idea":"","price_pattern":"","cash":"","store_holder":"","address11":"","address22":"","city":"","country_name":"","mobile_no":"","division":"","zip":"","timezone":"","america_timezone":"","domain":"","feedback_status":"0","block_status":"0","created_at":"2022-07-18 06:48:13","updated_at":"2022-07-18 06:48:13","uninstall_on":null,"install_date":null}
-*-*-*-*-*-*-*-*-*

---------------------04:13:45
{"store_user_id":"6","email":"","status":"1","application_status":"1","application_language":"en","shop_name":"dashboardmanage.myshopify.com","password":"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","is_demand_accept":"0","charge":"0","price_id":null,"invoice_on":null,"operated_on":null,"test_finals_on":null,"removed_on":null,"store_name":"dashboardmanage.myshopify.com","api_key":"","store_idea":"","price_pattern":"","cash":"","store_holder":"","address11":"","address22":"","city":"","country_name":"","mobile_no":"","division":"","zip":"","timezone":"","america_timezone":"","domain":"","feedback_status":"0","block_status":"0","created_at":"2022-07-18 06:48:13","updated_at":"2022-07-18 06:48:13","uninstall_on":null,"install_date":null}
-*-*-*-*-*-*-*-*-*

---------------------04:13:48
{"store_user_id":"6","email":"","status":"1","application_status":"1","application_language":"en","shop_name":"dashboardmanage.myshopify.com","password":"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","is_demand_accept":"0","charge":"0","price_id":null,"invoice_on":null,"operated_on":null,"test_finals_on":null,"removed_on":null,"store_name":"dashboardmanage.myshopify.com","api_key":"","store_idea":"","price_pattern":"","cash":"","store_holder":"","address11":"","address22":"","city":"","country_name":"","mobile_no":"","division":"","zip":"","timezone":"","america_timezone":"","domain":"","feedback_status":"0","block_status":"0","created_at":"2022-07-18 06:48:13","updated_at":"2022-07-18 06:48:13","uninstall_on":null,"install_date":null}
-*-*-*-*-*-*-*-*-*

---------------------04:13:52
{"store_user_id":"6","email":"","status":"1","application_status":"1","application_language":"en","shop_name":"dashboardmanage.myshopify.com","password":"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","is_demand_accept":"0","charge":"0","price_id":null,"invoice_on":null,"operated_on":null,"test_finals_on":null,"removed_on":null,"store_name":"dashboardmanage.myshopify.com","api_key":"","store_idea":"","price_pattern":"","cash":"","store_holder":"","address11":"","address22":"","city":"","country_name":"","mobile_no":"","division":"","zip":"","timezone":"","america_timezone":"","domain":"","feedback_status":"0","block_status":"0","created_at":"2022-07-18 06:48:13","updated_at":"2022-07-18 06:48:13","uninstall_on":null,"install_date":null}
-*-*-*-*-*-*-*-*-*

---------------------04:14:02
{"store_user_id":"6","email":"","status":"1","application_status":"1","application_language":"en","shop_name":"dashboardmanage.myshopify.com","password":"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","is_demand_accept":"0","charge":"0","price_id":null,"invoice_on":null,"operated_on":null,"test_finals_on":null,"removed_on":null,"store_name":"dashboardmanage.myshopify.com","api_key":"","store_idea":"","price_pattern":"","cash":"","store_holder":"","address11":"","address22":"","city":"","country_name":"","mobile_no":"","division":"","zip":"","timezone":"","america_timezone":"","domain":"","feedback_status":"0","block_status":"0","created_at":"2022-07-18 06:48:13","updated_at":"2022-07-18 06:48:13","uninstall_on":null,"install_date":null}
-*-*-*-*-*-*-*-*-*

---------------------04:14:06
{"store_user_id":"6","email":"","status":"1","application_status":"1","application_language":"en","shop_name":"dashboardmanage.myshopify.com","password":"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","is_demand_accept":"0","charge":"0","price_id":null,"invoice_on":null,"operated_on":null,"test_finals_on":null,"removed_on":null,"store_name":"dashboardmanage.myshopify.com","api_key":"","store_idea":"","price_pattern":"","cash":"","store_holder":"","address11":"","address22":"","city":"","country_name":"","mobile_no":"","division":"","zip":"","timezone":"","america_timezone":"","domain":"","feedback_status":"0","block_status":"0","created_at":"2022-07-18 06:48:13","updated_at":"2022-07-18 06:48:13","uninstall_on":null,"install_date":null}
-*-*-*-*-*-*-*-*-*

---------------------04:14:21
{"store_user_id":"6","email":"","status":"1","application_status":"1","application_language":"en","shop_name":"dashboardmanage.myshopify.com","password":"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","is_demand_accept":"0","charge":"0","price_id":null,"invoice_on":null,"operated_on":null,"test_finals_on":null,"removed_on":null,"store_name":"dashboardmanage.myshopify.com","api_key":"","store_idea":"","price_pattern":"","cash":"","store_holder":"","address11":"","address22":"","city":"","country_name":"","mobile_no":"","division":"","zip":"","timezone":"","america_timezone":"","domain":"","feedback_status":"0","block_status":"0","created_at":"2022-07-18 06:48:13","updated_at":"2022-07-18 06:48:13","uninstall_on":null,"install_date":null}
-*-*-*-*-*-*-*-*-*

---------------------04:14:33
{"store_user_id":"6","email":"","status":"1","application_status":"1","application_language":"en","shop_name":"dashboardmanage.myshopify.com","password":"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","is_demand_accept":"0","charge":"0","price_id":null,"invoice_on":null,"operated_on":null,"test_finals_on":null,"removed_on":null,"store_name":"dashboardmanage.myshopify.com","api_key":"","store_idea":"","price_pattern":"","cash":"","store_holder":"","address11":"","address22":"","city":"","country_name":"","mobile_no":"","division":"","zip":"","timezone":"","america_timezone":"","domain":"","feedback_status":"0","block_status":"0","created_at":"2022-07-18 06:48:13","updated_at":"2022-07-18 06:48:13","uninstall_on":null,"install_date":null}
-*-*-*-*-*-*-*-*-*

---------------------04:14:48
{"store_user_id":"6","email":"","status":"1","application_status":"1","application_language":"en","shop_name":"dashboardmanage.myshopify.com","password":"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","is_demand_accept":"0","charge":"0","price_id":null,"invoice_on":null,"operated_on":null,"test_finals_on":null,"removed_on":null,"store_name":"dashboardmanage.myshopify.com","api_key":"","store_idea":"","price_pattern":"","cash":"","store_holder":"","address11":"","address22":"","city":"","country_name":"","mobile_no":"","division":"","zip":"","timezone":"","america_timezone":"","domain":"","feedback_status":"0","block_status":"0","created_at":"2022-07-18 06:48:13","updated_at":"2022-07-18 06:48:13","uninstall_on":null,"install_date":null}
-*-*-*-*-*-*-*-*-*

---------------------04:15:30
{"store_user_id":"6","email":"","status":"1","application_status":"1","application_language":"en","shop_name":"dashboardmanage.myshopify.com","password":"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","is_demand_accept":"0","charge":"0","price_id":null,"invoice_on":null,"operated_on":null,"test_finals_on":null,"removed_on":null,"store_name":"dashboardmanage.myshopify.com","api_key":"","store_idea":"","price_pattern":"","cash":"","store_holder":"","address11":"","address22":"","city":"","country_name":"","mobile_no":"","division":"","zip":"","timezone":"","america_timezone":"","domain":"","feedback_status":"0","block_status":"0","created_at":"2022-07-18 06:48:13","updated_at":"2022-07-18 06:48:13","uninstall_on":null,"install_date":null}
-*-*-*-*-*-*-*-*-*

---------------------04:16:01
{"store_user_id":"6","email":"","status":"1","application_status":"1","application_language":"en","shop_name":"dashboardmanage.myshopify.com","password":"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","is_demand_accept":"0","charge":"0","price_id":null,"invoice_on":null,"operated_on":null,"test_finals_on":null,"removed_on":null,"store_name":"dashboardmanage.myshopify.com","api_key":"","store_idea":"","price_pattern":"","cash":"","store_holder":"","address11":"","address22":"","city":"","country_name":"","mobile_no":"","division":"","zip":"","timezone":"","america_timezone":"","domain":"","feedback_status":"0","block_status":"0","created_at":"2022-07-18 06:48:13","updated_at":"2022-07-18 06:48:13","uninstall_on":null,"install_date":null}
-*-*-*-*-*-*-*-*-*

---------------------04:16:05
{"store_user_id":"6","email":"","status":"1","application_status":"1","application_language":"en","shop_name":"dashboardmanage.myshopify.com","password":"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","is_demand_accept":"0","charge":"0","price_id":null,"invoice_on":null,"operated_on":null,"test_finals_on":null,"removed_on":null,"store_name":"dashboardmanage.myshopify.com","api_key":"","store_idea":"","price_pattern":"","cash":"","store_holder":"","address11":"","address22":"","city":"","country_name":"","mobile_no":"","division":"","zip":"","timezone":"","america_timezone":"","domain":"","feedback_status":"0","block_status":"0","created_at":"2022-07-18 06:48:13","updated_at":"2022-07-18 06:48:13","uninstall_on":null,"install_date":null}
-*-*-*-*-*-*-*-*-*

---------------------04:16:07
{"store_user_id":"6","email":"","status":"1","application_status":"1","application_language":"en","shop_name":"dashboardmanage.myshopify.com","password":"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","is_demand_accept":"0","charge":"0","price_id":null,"invoice_on":null,"operated_on":null,"test_finals_on":null,"removed_on":null,"store_name":"dashboardmanage.myshopify.com","api_key":"","store_idea":"","price_pattern":"","cash":"","store_holder":"","address11":"","address22":"","city":"","country_name":"","mobile_no":"","division":"","zip":"","timezone":"","america_timezone":"","domain":"","feedback_status":"0","block_status":"0","created_at":"2022-07-18 06:48:13","updated_at":"2022-07-18 06:48:13","uninstall_on":null,"install_date":null}
-*-*-*-*-*-*-*-*-*

---------------------04:23:54
{"store_user_id":"6","email":"","status":"1","application_status":"1","application_language":"en","shop_name":"dashboardmanage.myshopify.com","password":"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","is_demand_accept":"0","charge":"0","price_id":null,"invoice_on":null,"operated_on":null,"test_finals_on":null,"removed_on":null,"store_name":"dashboardmanage.myshopify.com","api_key":"","store_idea":"","price_pattern":"","cash":"","store_holder":"","address11":"","address22":"","city":"","country_name":"","mobile_no":"","division":"","zip":"","timezone":"","america_timezone":"","domain":"","feedback_status":"0","block_status":"0","created_at":"2022-07-18 06:48:13","updated_at":"2022-07-18 06:48:13","uninstall_on":null,"install_date":null}
-*-*-*-*-*-*-*-*-*

---------------------04:24:06
{"store_user_id":"6","email":"","status":"1","application_status":"1","application_language":"en","shop_name":"dashboardmanage.myshopify.com","password":"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","is_demand_accept":"0","charge":"0","price_id":null,"invoice_on":null,"operated_on":null,"test_finals_on":null,"removed_on":null,"store_name":"dashboardmanage.myshopify.com","api_key":"","store_idea":"","price_pattern":"","cash":"","store_holder":"","address11":"","address22":"","city":"","country_name":"","mobile_no":"","division":"","zip":"","timezone":"","america_timezone":"","domain":"","feedback_status":"0","block_status":"0","created_at":"2022-07-18 06:48:13","updated_at":"2022-07-18 06:48:13","uninstall_on":null,"install_date":null}
-*-*-*-*-*-*-*-*-*

---------------------04:24:18
{"store_user_id":"6","email":"","status":"1","application_status":"1","application_language":"en","shop_name":"dashboardmanage.myshopify.com","password":"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","is_demand_accept":"0","charge":"0","price_id":null,"invoice_on":null,"operated_on":null,"test_finals_on":null,"removed_on":null,"store_name":"dashboardmanage.myshopify.com","api_key":"","store_idea":"","price_pattern":"","cash":"","store_holder":"","address11":"","address22":"","city":"","country_name":"","mobile_no":"","division":"","zip":"","timezone":"","america_timezone":"","domain":"","feedback_status":"0","block_status":"0","created_at":"2022-07-18 06:48:13","updated_at":"2022-07-18 06:48:13","uninstall_on":null,"install_date":null}
-*-*-*-*-*-*-*-*-*

---------------------04:27:15
{"store_user_id":"6","email":"","status":"1","application_status":"1","application_language":"en","shop_name":"dashboardmanage.myshopify.com","password":"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","is_demand_accept":"0","charge":"0","price_id":null,"invoice_on":null,"operated_on":null,"test_finals_on":null,"removed_on":null,"store_name":"dashboardmanage.myshopify.com","api_key":"","store_idea":"","price_pattern":"","cash":"","store_holder":"","address11":"","address22":"","city":"","country_name":"","mobile_no":"","division":"","zip":"","timezone":"","america_timezone":"","domain":"","feedback_status":"0","block_status":"0","created_at":"2022-07-18 06:48:13","updated_at":"2022-07-18 06:48:13","uninstall_on":null,"install_date":null}
-*-*-*-*-*-*-*-*-*

---------------------05:06:44
{"store_user_id":"6","email":"","status":"1","application_status":"1","application_language":"en","shop_name":"dashboardmanage.myshopify.com","password":"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","is_demand_accept":"0","charge":"0","price_id":null,"invoice_on":null,"operated_on":null,"test_finals_on":null,"removed_on":null,"store_name":"dashboardmanage.myshopify.com","api_key":"","store_idea":"","price_pattern":"","cash":"","store_holder":"","address11":"","address22":"","city":"","country_name":"","mobile_no":"","division":"","zip":"","timezone":"","america_timezone":"","domain":"","feedback_status":"0","block_status":"0","created_at":"2022-07-18 06:48:13","updated_at":"2022-07-18 06:48:13","uninstall_on":null,"install_date":null}
-*-*-*-*-*-*-*-*-*

---------------------05:06:46
{"store_user_id":"6","email":"","status":"1","application_status":"1","application_language":"en","shop_name":"dashboardmanage.myshopify.com","password":"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","is_demand_accept":"0","charge":"0","price_id":null,"invoice_on":null,"operated_on":null,"test_finals_on":null,"removed_on":null,"store_name":"dashboardmanage.myshopify.com","api_key":"","store_idea":"","price_pattern":"","cash":"","store_holder":"","address11":"","address22":"","city":"","country_name":"","mobile_no":"","division":"","zip":"","timezone":"","america_timezone":"","domain":"","feedback_status":"0","block_status":"0","created_at":"2022-07-18 06:48:13","updated_at":"2022-07-18 06:48:13","uninstall_on":null,"install_date":null}
-*-*-*-*-*-*-*-*-*

---------------------05:06:49
{"store_user_id":"6","email":"","status":"1","application_status":"1","application_language":"en","shop_name":"dashboardmanage.myshopify.com","password":"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","is_demand_accept":"0","charge":"0","price_id":null,"invoice_on":null,"operated_on":null,"test_finals_on":null,"removed_on":null,"store_name":"dashboardmanage.myshopify.com","api_key":"","store_idea":"","price_pattern":"","cash":"","store_holder":"","address11":"","address22":"","city":"","country_name":"","mobile_no":"","division":"","zip":"","timezone":"","america_timezone":"","domain":"","feedback_status":"0","block_status":"0","created_at":"2022-07-18 06:48:13","updated_at":"2022-07-18 06:48:13","uninstall_on":null,"install_date":null}
-*-*-*-*-*-*-*-*-*

---------------------05:10:25
{"store_user_id":"6","email":"","status":"1","application_status":"1","application_language":"en","shop_name":"dashboardmanage.myshopify.com","password":"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","is_demand_accept":"0","charge":"0","price_id":null,"invoice_on":null,"operated_on":null,"test_finals_on":null,"removed_on":null,"store_name":"dashboardmanage.myshopify.com","api_key":"","store_idea":"","price_pattern":"","cash":"","store_holder":"","address11":"","address22":"","city":"","country_name":"","mobile_no":"","division":"","zip":"","timezone":"","america_timezone":"","domain":"","feedback_status":"0","block_status":"0","created_at":"2022-07-18 06:48:13","updated_at":"2022-07-18 06:48:13","uninstall_on":null,"install_date":null}
-*-*-*-*-*-*-*-*-*

---------------------07:43:47
{"store_user_id":"6","email":"","status":"1","application_status":"1","application_language":"en","shop_name":"dashboardmanage.myshopify.com","password":"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","is_demand_accept":"0","charge":"0","price_id":null,"invoice_on":null,"operated_on":null,"test_finals_on":null,"removed_on":null,"store_name":"dashboardmanage.myshopify.com","api_key":"","store_idea":"","price_pattern":"","cash":"","store_holder":"","address11":"","address22":"","city":"","country_name":"","mobile_no":"","division":"","zip":"","timezone":"","america_timezone":"","domain":"","feedback_status":"0","block_status":"0","created_at":"2022-07-18 06:48:13","updated_at":"2022-07-18 06:48:13","uninstall_on":null,"install_date":null}
-*-*-*-*-*-*-*-*-*