

---------------------03:49:24
{"store_user_id":"6","email":"","status":"1","application_status":"1","application_language":"en","shop_name":"dashboardmanage.myshopify.com","password":"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","is_demand_accept":"0","charge":"0","price_id":null,"invoice_on":null,"operated_on":null,"test_finals_on":null,"removed_on":null,"store_name":"dashboardmanage.myshopify.com","api_key":"","store_idea":"","price_pattern":"","cash":"","store_holder":"","address11":"","address22":"","city":"","country_name":"","mobile_no":"","division":"","zip":"","timezone":"","america_timezone":"","domain":"","feedback_status":"0","block_status":"0","created_at":"2022-07-18 06:48:13","updated_at":"2022-07-18 06:48:13","uninstall_on":null,"install_date":null}
-*-*-*-*-*-*-*-*-*

---------------------03:49:27
{"store_user_id":"6","email":"","status":"1","application_status":"1","application_language":"en","shop_name":"dashboardmanage.myshopify.com","password":"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","is_demand_accept":"0","charge":"0","price_id":null,"invoice_on":null,"operated_on":null,"test_finals_on":null,"removed_on":null,"store_name":"dashboardmanage.myshopify.com","api_key":"","store_idea":"","price_pattern":"","cash":"","store_holder":"","address11":"","address22":"","city":"","country_name":"","mobile_no":"","division":"","zip":"","timezone":"","america_timezone":"","domain":"","feedback_status":"0","block_status":"0","created_at":"2022-07-18 06:48:13","updated_at":"2022-07-18 06:48:13","uninstall_on":null,"install_date":null}
-*-*-*-*-*-*-*-*-*

---------------------03:49:38
{"store_user_id":"6","email":"","status":"1","application_status":"1","application_language":"en","shop_name":"dashboardmanage.myshopify.com","password":"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","is_demand_accept":"0","charge":"0","price_id":null,"invoice_on":null,"operated_on":null,"test_finals_on":null,"removed_on":null,"store_name":"dashboardmanage.myshopify.com","api_key":"","store_idea":"","price_pattern":"","cash":"","store_holder":"","address11":"","address22":"","city":"","country_name":"","mobile_no":"","division":"","zip":"","timezone":"","america_timezone":"","domain":"","feedback_status":"0","block_status":"0","created_at":"2022-07-18 06:48:13","updated_at":"2022-07-18 06:48:13","uninstall_on":null,"install_date":null}
-*-*-*-*-*-*-*-*-*

---------------------03:49:51
{"store_user_id":"6","email":"","status":"1","application_status":"1","application_language":"en","shop_name":"dashboardmanage.myshopify.com","password":"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","is_demand_accept":"0","charge":"0","price_id":null,"invoice_on":null,"operated_on":null,"test_finals_on":null,"removed_on":null,"store_name":"dashboardmanage.myshopify.com","api_key":"","store_idea":"","price_pattern":"","cash":"","store_holder":"","address11":"","address22":"","city":"","country_name":"","mobile_no":"","division":"","zip":"","timezone":"","america_timezone":"","domain":"","feedback_status":"0","block_status":"0","created_at":"2022-07-18 06:48:13","updated_at":"2022-07-18 06:48:13","uninstall_on":null,"install_date":null}
-*-*-*-*-*-*-*-*-*

---------------------03:49:54
{"store_user_id":"6","email":"","status":"1","application_status":"1","application_language":"en","shop_name":"dashboardmanage.myshopify.com","password":"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","is_demand_accept":"0","charge":"0","price_id":null,"invoice_on":null,"operated_on":null,"test_finals_on":null,"removed_on":null,"store_name":"dashboardmanage.myshopify.com","api_key":"","store_idea":"","price_pattern":"","cash":"","store_holder":"","address11":"","address22":"","city":"","country_name":"","mobile_no":"","division":"","zip":"","timezone":"","america_timezone":"","domain":"","feedback_status":"0","block_status":"0","created_at":"2022-07-18 06:48:13","updated_at":"2022-07-18 06:48:13","uninstall_on":null,"install_date":null}
-*-*-*-*-*-*-*-*-*

---------------------04:01:57
{"store_user_id":"6","email":"","status":"1","application_status":"1","application_language":"en","shop_name":"dashboardmanage.myshopify.com","password":"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","is_demand_accept":"0","charge":"0","price_id":null,"invoice_on":null,"operated_on":null,"test_finals_on":null,"removed_on":null,"store_name":"dashboardmanage.myshopify.com","api_key":"","store_idea":"","price_pattern":"","cash":"","store_holder":"","address11":"","address22":"","city":"","country_name":"","mobile_no":"","division":"","zip":"","timezone":"","america_timezone":"","domain":"","feedback_status":"0","block_status":"0","created_at":"2022-07-18 06:48:13","updated_at":"2022-07-18 06:48:13","uninstall_on":null,"install_date":null}
-*-*-*-*-*-*-*-*-*

---------------------04:09:15
{"store_user_id":"6","email":"","status":"1","application_status":"1","application_language":"en","shop_name":"dashboardmanage.myshopify.com","password":"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","is_demand_accept":"0","charge":"0","price_id":null,"invoice_on":null,"operated_on":null,"test_finals_on":null,"removed_on":null,"store_name":"dashboardmanage.myshopify.com","api_key":"","store_idea":"","price_pattern":"","cash":"","store_holder":"","address11":"","address22":"","city":"","country_name":"","mobile_no":"","division":"","zip":"","timezone":"","america_timezone":"","domain":"","feedback_status":"0","block_status":"0","created_at":"2022-07-18 06:48:13","updated_at":"2022-07-18 06:48:13","uninstall_on":null,"install_date":null}
-*-*-*-*-*-*-*-*-*

---------------------04:09:46
{"store_user_id":"6","email":"","status":"1","application_status":"1","application_language":"en","shop_name":"dashboardmanage.myshopify.com","password":"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","is_demand_accept":"0","charge":"0","price_id":null,"invoice_on":null,"operated_on":null,"test_finals_on":null,"removed_on":null,"store_name":"dashboardmanage.myshopify.com","api_key":"","store_idea":"","price_pattern":"","cash":"","store_holder":"","address11":"","address22":"","city":"","country_name":"","mobile_no":"","division":"","zip":"","timezone":"","america_timezone":"","domain":"","feedback_status":"0","block_status":"0","created_at":"2022-07-18 06:48:13","updated_at":"2022-07-18 06:48:13","uninstall_on":null,"install_date":null}
-*-*-*-*-*-*-*-*-*

---------------------04:09:52
{"store_user_id":"6","email":"","status":"1","application_status":"1","application_language":"en","shop_name":"dashboardmanage.myshopify.com","password":"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","is_demand_accept":"0","charge":"0","price_id":null,"invoice_on":null,"operated_on":null,"test_finals_on":null,"removed_on":null,"store_name":"dashboardmanage.myshopify.com","api_key":"","store_idea":"","price_pattern":"","cash":"","store_holder":"","address11":"","address22":"","city":"","country_name":"","mobile_no":"","division":"","zip":"","timezone":"","america_timezone":"","domain":"","feedback_status":"0","block_status":"0","created_at":"2022-07-18 06:48:13","updated_at":"2022-07-18 06:48:13","uninstall_on":null,"install_date":null}
-*-*-*-*-*-*-*-*-*

---------------------04:11:13
{"store_user_id":"6","email":"","status":"1","application_status":"1","application_language":"en","shop_name":"dashboardmanage.myshopify.com","password":"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","is_demand_accept":"0","charge":"0","price_id":null,"invoice_on":null,"operated_on":null,"test_finals_on":null,"removed_on":null,"store_name":"dashboardmanage.myshopify.com","api_key":"","store_idea":"","price_pattern":"","cash":"","store_holder":"","address11":"","address22":"","city":"","country_name":"","mobile_no":"","division":"","zip":"","timezone":"","america_timezone":"","domain":"","feedback_status":"0","block_status":"0","created_at":"2022-07-18 06:48:13","updated_at":"2022-07-18 06:48:13","uninstall_on":null,"install_date":null}
-*-*-*-*-*-*-*-*-*

---------------------04:11:19
{"store_user_id":"6","email":"","status":"1","application_status":"1","application_language":"en","shop_name":"dashboardmanage.myshopify.com","password":"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","is_demand_accept":"0","charge":"0","price_id":null,"invoice_on":null,"operated_on":null,"test_finals_on":null,"removed_on":null,"store_name":"dashboardmanage.myshopify.com","api_key":"","store_idea":"","price_pattern":"","cash":"","store_holder":"","address11":"","address22":"","city":"","country_name":"","mobile_no":"","division":"","zip":"","timezone":"","america_timezone":"","domain":"","feedback_status":"0","block_status":"0","created_at":"2022-07-18 06:48:13","updated_at":"2022-07-18 06:48:13","uninstall_on":null,"install_date":null}
-*-*-*-*-*-*-*-*-*

---------------------04:19:24
{"store_user_id":"6","email":"","status":"1","application_status":"1","application_language":"en","shop_name":"dashboardmanage.myshopify.com","password":"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","is_demand_accept":"0","charge":"0","price_id":null,"invoice_on":null,"operated_on":null,"test_finals_on":null,"removed_on":null,"store_name":"dashboardmanage.myshopify.com","api_key":"","store_idea":"","price_pattern":"","cash":"","store_holder":"","address11":"","address22":"","city":"","country_name":"","mobile_no":"","division":"","zip":"","timezone":"","america_timezone":"","domain":"","feedback_status":"0","block_status":"0","created_at":"2022-07-18 06:48:13","updated_at":"2022-07-18 06:48:13","uninstall_on":null,"install_date":null}
-*-*-*-*-*-*-*-*-*

---------------------04:20:16
{"store_user_id":"6","email":"","status":"1","application_status":"1","application_language":"en","shop_name":"dashboardmanage.myshopify.com","password":"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","is_demand_accept":"0","charge":"0","price_id":null,"invoice_on":null,"operated_on":null,"test_finals_on":null,"removed_on":null,"store_name":"dashboardmanage.myshopify.com","api_key":"","store_idea":"","price_pattern":"","cash":"","store_holder":"","address11":"","address22":"","city":"","country_name":"","mobile_no":"","division":"","zip":"","timezone":"","america_timezone":"","domain":"","feedback_status":"0","block_status":"0","created_at":"2022-07-18 06:48:13","updated_at":"2022-07-18 06:48:13","uninstall_on":null,"install_date":null}
-*-*-*-*-*-*-*-*-*

---------------------04:20:19
{"store_user_id":"6","email":"","status":"1","application_status":"1","application_language":"en","shop_name":"dashboardmanage.myshopify.com","password":"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","is_demand_accept":"0","charge":"0","price_id":null,"invoice_on":null,"operated_on":null,"test_finals_on":null,"removed_on":null,"store_name":"dashboardmanage.myshopify.com","api_key":"","store_idea":"","price_pattern":"","cash":"","store_holder":"","address11":"","address22":"","city":"","country_name":"","mobile_no":"","division":"","zip":"","timezone":"","america_timezone":"","domain":"","feedback_status":"0","block_status":"0","created_at":"2022-07-18 06:48:13","updated_at":"2022-07-18 06:48:13","uninstall_on":null,"install_date":null}
-*-*-*-*-*-*-*-*-*

---------------------04:20:47
{"store_user_id":"6","email":"","status":"1","application_status":"1","application_language":"en","shop_name":"dashboardmanage.myshopify.com","password":"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","is_demand_accept":"0","charge":"0","price_id":null,"invoice_on":null,"operated_on":null,"test_finals_on":null,"removed_on":null,"store_name":"dashboardmanage.myshopify.com","api_key":"","store_idea":"","price_pattern":"","cash":"","store_holder":"","address11":"","address22":"","city":"","country_name":"","mobile_no":"","division":"","zip":"","timezone":"","america_timezone":"","domain":"","feedback_status":"0","block_status":"0","created_at":"2022-07-18 06:48:13","updated_at":"2022-07-18 06:48:13","uninstall_on":null,"install_date":null}
-*-*-*-*-*-*-*-*-*

---------------------04:21:58
{"store_user_id":"6","email":"","status":"1","application_status":"1","application_language":"en","shop_name":"dashboardmanage.myshopify.com","password":"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","is_demand_accept":"0","charge":"0","price_id":null,"invoice_on":null,"operated_on":null,"test_finals_on":null,"removed_on":null,"store_name":"dashboardmanage.myshopify.com","api_key":"","store_idea":"","price_pattern":"","cash":"","store_holder":"","address11":"","address22":"","city":"","country_name":"","mobile_no":"","division":"","zip":"","timezone":"","america_timezone":"","domain":"","feedback_status":"0","block_status":"0","created_at":"2022-07-18 06:48:13","updated_at":"2022-07-18 06:48:13","uninstall_on":null,"install_date":null}
-*-*-*-*-*-*-*-*-*

---------------------04:22:05
{"store_user_id":"6","email":"","status":"1","application_status":"1","application_language":"en","shop_name":"dashboardmanage.myshopify.com","password":"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","is_demand_accept":"0","charge":"0","price_id":null,"invoice_on":null,"operated_on":null,"test_finals_on":null,"removed_on":null,"store_name":"dashboardmanage.myshopify.com","api_key":"","store_idea":"","price_pattern":"","cash":"","store_holder":"","address11":"","address22":"","city":"","country_name":"","mobile_no":"","division":"","zip":"","timezone":"","america_timezone":"","domain":"","feedback_status":"0","block_status":"0","created_at":"2022-07-18 06:48:13","updated_at":"2022-07-18 06:48:13","uninstall_on":null,"install_date":null}
-*-*-*-*-*-*-*-*-*

---------------------04:22:22
{"store_user_id":"6","email":"","status":"1","application_status":"1","application_language":"en","shop_name":"dashboardmanage.myshopify.com","password":"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","is_demand_accept":"0","charge":"0","price_id":null,"invoice_on":null,"operated_on":null,"test_finals_on":null,"removed_on":null,"store_name":"dashboardmanage.myshopify.com","api_key":"","store_idea":"","price_pattern":"","cash":"","store_holder":"","address11":"","address22":"","city":"","country_name":"","mobile_no":"","division":"","zip":"","timezone":"","america_timezone":"","domain":"","feedback_status":"0","block_status":"0","created_at":"2022-07-18 06:48:13","updated_at":"2022-07-18 06:48:13","uninstall_on":null,"install_date":null}
-*-*-*-*-*-*-*-*-*

---------------------04:22:29
{"store_user_id":"6","email":"","status":"1","application_status":"1","application_language":"en","shop_name":"dashboardmanage.myshopify.com","password":"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","is_demand_accept":"0","charge":"0","price_id":null,"invoice_on":null,"operated_on":null,"test_finals_on":null,"removed_on":null,"store_name":"dashboardmanage.myshopify.com","api_key":"","store_idea":"","price_pattern":"","cash":"","store_holder":"","address11":"","address22":"","city":"","country_name":"","mobile_no":"","division":"","zip":"","timezone":"","america_timezone":"","domain":"","feedback_status":"0","block_status":"0","created_at":"2022-07-18 06:48:13","updated_at":"2022-07-18 06:48:13","uninstall_on":null,"install_date":null}
-*-*-*-*-*-*-*-*-*

---------------------04:22:36
{"store_user_id":"6","email":"","status":"1","application_status":"1","application_language":"en","shop_name":"dashboardmanage.myshopify.com","password":"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","is_demand_accept":"0","charge":"0","price_id":null,"invoice_on":null,"operated_on":null,"test_finals_on":null,"removed_on":null,"store_name":"dashboardmanage.myshopify.com","api_key":"","store_idea":"","price_pattern":"","cash":"","store_holder":"","address11":"","address22":"","city":"","country_name":"","mobile_no":"","division":"","zip":"","timezone":"","america_timezone":"","domain":"","feedback_status":"0","block_status":"0","created_at":"2022-07-18 06:48:13","updated_at":"2022-07-18 06:48:13","uninstall_on":null,"install_date":null}
-*-*-*-*-*-*-*-*-*

---------------------04:22:41
{"store_user_id":"6","email":"","status":"1","application_status":"1","application_language":"en","shop_name":"dashboardmanage.myshopify.com","password":"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","is_demand_accept":"0","charge":"0","price_id":null,"invoice_on":null,"operated_on":null,"test_finals_on":null,"removed_on":null,"store_name":"dashboardmanage.myshopify.com","api_key":"","store_idea":"","price_pattern":"","cash":"","store_holder":"","address11":"","address22":"","city":"","country_name":"","mobile_no":"","division":"","zip":"","timezone":"","america_timezone":"","domain":"","feedback_status":"0","block_status":"0","created_at":"2022-07-18 06:48:13","updated_at":"2022-07-18 06:48:13","uninstall_on":null,"install_date":null}
-*-*-*-*-*-*-*-*-*

---------------------04:23:17
{"store_user_id":"6","email":"","status":"1","application_status":"1","application_language":"en","shop_name":"dashboardmanage.myshopify.com","password":"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","is_demand_accept":"0","charge":"0","price_id":null,"invoice_on":null,"operated_on":null,"test_finals_on":null,"removed_on":null,"store_name":"dashboardmanage.myshopify.com","api_key":"","store_idea":"","price_pattern":"","cash":"","store_holder":"","address11":"","address22":"","city":"","country_name":"","mobile_no":"","division":"","zip":"","timezone":"","america_timezone":"","domain":"","feedback_status":"0","block_status":"0","created_at":"2022-07-18 06:48:13","updated_at":"2022-07-18 06:48:13","uninstall_on":null,"install_date":null}
-*-*-*-*-*-*-*-*-*

---------------------04:23:24
{"store_user_id":"6","email":"","status":"1","application_status":"1","application_language":"en","shop_name":"dashboardmanage.myshopify.com","password":"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","is_demand_accept":"0","charge":"0","price_id":null,"invoice_on":null,"operated_on":null,"test_finals_on":null,"removed_on":null,"store_name":"dashboardmanage.myshopify.com","api_key":"","store_idea":"","price_pattern":"","cash":"","store_holder":"","address11":"","address22":"","city":"","country_name":"","mobile_no":"","division":"","zip":"","timezone":"","america_timezone":"","domain":"","feedback_status":"0","block_status":"0","created_at":"2022-07-18 06:48:13","updated_at":"2022-07-18 06:48:13","uninstall_on":null,"install_date":null}
-*-*-*-*-*-*-*-*-*

---------------------04:23:32
{"store_user_id":"6","email":"","status":"1","application_status":"1","application_language":"en","shop_name":"dashboardmanage.myshopify.com","password":"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","is_demand_accept":"0","charge":"0","price_id":null,"invoice_on":null,"operated_on":null,"test_finals_on":null,"removed_on":null,"store_name":"dashboardmanage.myshopify.com","api_key":"","store_idea":"","price_pattern":"","cash":"","store_holder":"","address11":"","address22":"","city":"","country_name":"","mobile_no":"","division":"","zip":"","timezone":"","america_timezone":"","domain":"","feedback_status":"0","block_status":"0","created_at":"2022-07-18 06:48:13","updated_at":"2022-07-18 06:48:13","uninstall_on":null,"install_date":null}
-*-*-*-*-*-*-*-*-*

---------------------04:23:49
{"store_user_id":"6","email":"","status":"1","application_status":"1","application_language":"en","shop_name":"dashboardmanage.myshopify.com","password":"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","is_demand_accept":"0","charge":"0","price_id":null,"invoice_on":null,"operated_on":null,"test_finals_on":null,"removed_on":null,"store_name":"dashboardmanage.myshopify.com","api_key":"","store_idea":"","price_pattern":"","cash":"","store_holder":"","address11":"","address22":"","city":"","country_name":"","mobile_no":"","division":"","zip":"","timezone":"","america_timezone":"","domain":"","feedback_status":"0","block_status":"0","created_at":"2022-07-18 06:48:13","updated_at":"2022-07-18 06:48:13","uninstall_on":null,"install_date":null}
-*-*-*-*-*-*-*-*-*

---------------------04:24:26
{"store_user_id":"6","email":"","status":"1","application_status":"1","application_language":"en","shop_name":"dashboardmanage.myshopify.com","password":"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","is_demand_accept":"0","charge":"0","price_id":null,"invoice_on":null,"operated_on":null,"test_finals_on":null,"removed_on":null,"store_name":"dashboardmanage.myshopify.com","api_key":"","store_idea":"","price_pattern":"","cash":"","store_holder":"","address11":"","address22":"","city":"","country_name":"","mobile_no":"","division":"","zip":"","timezone":"","america_timezone":"","domain":"","feedback_status":"0","block_status":"0","created_at":"2022-07-18 06:48:13","updated_at":"2022-07-18 06:48:13","uninstall_on":null,"install_date":null}
-*-*-*-*-*-*-*-*-*

---------------------04:24:31
{"store_user_id":"6","email":"","status":"1","application_status":"1","application_language":"en","shop_name":"dashboardmanage.myshopify.com","password":"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","is_demand_accept":"0","charge":"0","price_id":null,"invoice_on":null,"operated_on":null,"test_finals_on":null,"removed_on":null,"store_name":"dashboardmanage.myshopify.com","api_key":"","store_idea":"","price_pattern":"","cash":"","store_holder":"","address11":"","address22":"","city":"","country_name":"","mobile_no":"","division":"","zip":"","timezone":"","america_timezone":"","domain":"","feedback_status":"0","block_status":"0","created_at":"2022-07-18 06:48:13","updated_at":"2022-07-18 06:48:13","uninstall_on":null,"install_date":null}
-*-*-*-*-*-*-*-*-*

---------------------04:26:11
{"store_user_id":"6","email":"","status":"1","application_status":"1","application_language":"en","shop_name":"dashboardmanage.myshopify.com","password":"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","is_demand_accept":"0","charge":"0","price_id":null,"invoice_on":null,"operated_on":null,"test_finals_on":null,"removed_on":null,"store_name":"dashboardmanage.myshopify.com","api_key":"","store_idea":"","price_pattern":"","cash":"","store_holder":"","address11":"","address22":"","city":"","country_name":"","mobile_no":"","division":"","zip":"","timezone":"","america_timezone":"","domain":"","feedback_status":"0","block_status":"0","created_at":"2022-07-18 06:48:13","updated_at":"2022-07-18 06:48:13","uninstall_on":null,"install_date":null}
-*-*-*-*-*-*-*-*-*

---------------------04:26:45
{"store_user_id":"6","email":"","status":"1","application_status":"1","application_language":"en","shop_name":"dashboardmanage.myshopify.com","password":"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","is_demand_accept":"0","charge":"0","price_id":null,"invoice_on":null,"operated_on":null,"test_finals_on":null,"removed_on":null,"store_name":"dashboardmanage.myshopify.com","api_key":"","store_idea":"","price_pattern":"","cash":"","store_holder":"","address11":"","address22":"","city":"","country_name":"","mobile_no":"","division":"","zip":"","timezone":"","america_timezone":"","domain":"","feedback_status":"0","block_status":"0","created_at":"2022-07-18 06:48:13","updated_at":"2022-07-18 06:48:13","uninstall_on":null,"install_date":null}
-*-*-*-*-*-*-*-*-*

---------------------04:26:52
{"store_user_id":"6","email":"","status":"1","application_status":"1","application_language":"en","shop_name":"dashboardmanage.myshopify.com","password":"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","is_demand_accept":"0","charge":"0","price_id":null,"invoice_on":null,"operated_on":null,"test_finals_on":null,"removed_on":null,"store_name":"dashboardmanage.myshopify.com","api_key":"","store_idea":"","price_pattern":"","cash":"","store_holder":"","address11":"","address22":"","city":"","country_name":"","mobile_no":"","division":"","zip":"","timezone":"","america_timezone":"","domain":"","feedback_status":"0","block_status":"0","created_at":"2022-07-18 06:48:13","updated_at":"2022-07-18 06:48:13","uninstall_on":null,"install_date":null}
-*-*-*-*-*-*-*-*-*

---------------------04:27:32
{"store_user_id":"6","email":"","status":"1","application_status":"1","application_language":"en","shop_name":"dashboardmanage.myshopify.com","password":"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","is_demand_accept":"0","charge":"0","price_id":null,"invoice_on":null,"operated_on":null,"test_finals_on":null,"removed_on":null,"store_name":"dashboardmanage.myshopify.com","api_key":"","store_idea":"","price_pattern":"","cash":"","store_holder":"","address11":"","address22":"","city":"","country_name":"","mobile_no":"","division":"","zip":"","timezone":"","america_timezone":"","domain":"","feedback_status":"0","block_status":"0","created_at":"2022-07-18 06:48:13","updated_at":"2022-07-18 06:48:13","uninstall_on":null,"install_date":null}
-*-*-*-*-*-*-*-*-*

---------------------04:29:07
{"store_user_id":"6","email":"","status":"1","application_status":"1","application_language":"en","shop_name":"dashboardmanage.myshopify.com","password":"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","is_demand_accept":"0","charge":"0","price_id":null,"invoice_on":null,"operated_on":null,"test_finals_on":null,"removed_on":null,"store_name":"dashboardmanage.myshopify.com","api_key":"","store_idea":"","price_pattern":"","cash":"","store_holder":"","address11":"","address22":"","city":"","country_name":"","mobile_no":"","division":"","zip":"","timezone":"","america_timezone":"","domain":"","feedback_status":"0","block_status":"0","created_at":"2022-07-18 06:48:13","updated_at":"2022-07-18 06:48:13","uninstall_on":null,"install_date":null}
-*-*-*-*-*-*-*-*-*

---------------------04:29:31
{"store_user_id":"6","email":"","status":"1","application_status":"1","application_language":"en","shop_name":"dashboardmanage.myshopify.com","password":"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","is_demand_accept":"0","charge":"0","price_id":null,"invoice_on":null,"operated_on":null,"test_finals_on":null,"removed_on":null,"store_name":"dashboardmanage.myshopify.com","api_key":"","store_idea":"","price_pattern":"","cash":"","store_holder":"","address11":"","address22":"","city":"","country_name":"","mobile_no":"","division":"","zip":"","timezone":"","america_timezone":"","domain":"","feedback_status":"0","block_status":"0","created_at":"2022-07-18 06:48:13","updated_at":"2022-07-18 06:48:13","uninstall_on":null,"install_date":null}
-*-*-*-*-*-*-*-*-*

---------------------04:29:34
{"store_user_id":"6","email":"","status":"1","application_status":"1","application_language":"en","shop_name":"dashboardmanage.myshopify.com","password":"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","is_demand_accept":"0","charge":"0","price_id":null,"invoice_on":null,"operated_on":null,"test_finals_on":null,"removed_on":null,"store_name":"dashboardmanage.myshopify.com","api_key":"","store_idea":"","price_pattern":"","cash":"","store_holder":"","address11":"","address22":"","city":"","country_name":"","mobile_no":"","division":"","zip":"","timezone":"","america_timezone":"","domain":"","feedback_status":"0","block_status":"0","created_at":"2022-07-18 06:48:13","updated_at":"2022-07-18 06:48:13","uninstall_on":null,"install_date":null}
-*-*-*-*-*-*-*-*-*

---------------------04:32:02
{"store_user_id":"6","email":"","status":"1","application_status":"1","application_language":"en","shop_name":"dashboardmanage.myshopify.com","password":"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","is_demand_accept":"0","charge":"0","price_id":null,"invoice_on":null,"operated_on":null,"test_finals_on":null,"removed_on":null,"store_name":"dashboardmanage.myshopify.com","api_key":"","store_idea":"","price_pattern":"","cash":"","store_holder":"","address11":"","address22":"","city":"","country_name":"","mobile_no":"","division":"","zip":"","timezone":"","america_timezone":"","domain":"","feedback_status":"0","block_status":"0","created_at":"2022-07-18 06:48:13","updated_at":"2022-07-18 06:48:13","uninstall_on":null,"install_date":null}
-*-*-*-*-*-*-*-*-*

---------------------04:32:09
{"store_user_id":"6","email":"","status":"1","application_status":"1","application_language":"en","shop_name":"dashboardmanage.myshopify.com","password":"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","is_demand_accept":"0","charge":"0","price_id":null,"invoice_on":null,"operated_on":null,"test_finals_on":null,"removed_on":null,"store_name":"dashboardmanage.myshopify.com","api_key":"","store_idea":"","price_pattern":"","cash":"","store_holder":"","address11":"","address22":"","city":"","country_name":"","mobile_no":"","division":"","zip":"","timezone":"","america_timezone":"","domain":"","feedback_status":"0","block_status":"0","created_at":"2022-07-18 06:48:13","updated_at":"2022-07-18 06:48:13","uninstall_on":null,"install_date":null}
-*-*-*-*-*-*-*-*-*

---------------------04:32:26
{"store_user_id":"6","email":"","status":"1","application_status":"1","application_language":"en","shop_name":"dashboardmanage.myshopify.com","password":"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","is_demand_accept":"0","charge":"0","price_id":null,"invoice_on":null,"operated_on":null,"test_finals_on":null,"removed_on":null,"store_name":"dashboardmanage.myshopify.com","api_key":"","store_idea":"","price_pattern":"","cash":"","store_holder":"","address11":"","address22":"","city":"","country_name":"","mobile_no":"","division":"","zip":"","timezone":"","america_timezone":"","domain":"","feedback_status":"0","block_status":"0","created_at":"2022-07-18 06:48:13","updated_at":"2022-07-18 06:48:13","uninstall_on":null,"install_date":null}
-*-*-*-*-*-*-*-*-*

---------------------04:33:14
{"store_user_id":"6","email":"","status":"1","application_status":"1","application_language":"en","shop_name":"dashboardmanage.myshopify.com","password":"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","is_demand_accept":"0","charge":"0","price_id":null,"invoice_on":null,"operated_on":null,"test_finals_on":null,"removed_on":null,"store_name":"dashboardmanage.myshopify.com","api_key":"","store_idea":"","price_pattern":"","cash":"","store_holder":"","address11":"","address22":"","city":"","country_name":"","mobile_no":"","division":"","zip":"","timezone":"","america_timezone":"","domain":"","feedback_status":"0","block_status":"0","created_at":"2022-07-18 06:48:13","updated_at":"2022-07-18 06:48:13","uninstall_on":null,"install_date":null}
-*-*-*-*-*-*-*-*-*

---------------------04:33:20
{"store_user_id":"6","email":"","status":"1","application_status":"1","application_language":"en","shop_name":"dashboardmanage.myshopify.com","password":"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","is_demand_accept":"0","charge":"0","price_id":null,"invoice_on":null,"operated_on":null,"test_finals_on":null,"removed_on":null,"store_name":"dashboardmanage.myshopify.com","api_key":"","store_idea":"","price_pattern":"","cash":"","store_holder":"","address11":"","address22":"","city":"","country_name":"","mobile_no":"","division":"","zip":"","timezone":"","america_timezone":"","domain":"","feedback_status":"0","block_status":"0","created_at":"2022-07-18 06:48:13","updated_at":"2022-07-18 06:48:13","uninstall_on":null,"install_date":null}
-*-*-*-*-*-*-*-*-*

---------------------04:33:59
{"store_user_id":"6","email":"","status":"1","application_status":"1","application_language":"en","shop_name":"dashboardmanage.myshopify.com","password":"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","is_demand_accept":"0","charge":"0","price_id":null,"invoice_on":null,"operated_on":null,"test_finals_on":null,"removed_on":null,"store_name":"dashboardmanage.myshopify.com","api_key":"","store_idea":"","price_pattern":"","cash":"","store_holder":"","address11":"","address22":"","city":"","country_name":"","mobile_no":"","division":"","zip":"","timezone":"","america_timezone":"","domain":"","feedback_status":"0","block_status":"0","created_at":"2022-07-18 06:48:13","updated_at":"2022-07-18 06:48:13","uninstall_on":null,"install_date":null}
-*-*-*-*-*-*-*-*-*

---------------------04:34:07
{"store_user_id":"6","email":"","status":"1","application_status":"1","application_language":"en","shop_name":"dashboardmanage.myshopify.com","password":"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","is_demand_accept":"0","charge":"0","price_id":null,"invoice_on":null,"operated_on":null,"test_finals_on":null,"removed_on":null,"store_name":"dashboardmanage.myshopify.com","api_key":"","store_idea":"","price_pattern":"","cash":"","store_holder":"","address11":"","address22":"","city":"","country_name":"","mobile_no":"","division":"","zip":"","timezone":"","america_timezone":"","domain":"","feedback_status":"0","block_status":"0","created_at":"2022-07-18 06:48:13","updated_at":"2022-07-18 06:48:13","uninstall_on":null,"install_date":null}
-*-*-*-*-*-*-*-*-*

---------------------04:34:13
{"store_user_id":"6","email":"","status":"1","application_status":"1","application_language":"en","shop_name":"dashboardmanage.myshopify.com","password":"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","is_demand_accept":"0","charge":"0","price_id":null,"invoice_on":null,"operated_on":null,"test_finals_on":null,"removed_on":null,"store_name":"dashboardmanage.myshopify.com","api_key":"","store_idea":"","price_pattern":"","cash":"","store_holder":"","address11":"","address22":"","city":"","country_name":"","mobile_no":"","division":"","zip":"","timezone":"","america_timezone":"","domain":"","feedback_status":"0","block_status":"0","created_at":"2022-07-18 06:48:13","updated_at":"2022-07-18 06:48:13","uninstall_on":null,"install_date":null}
-*-*-*-*-*-*-*-*-*

---------------------04:34:19
{"store_user_id":"6","email":"","status":"1","application_status":"1","application_language":"en","shop_name":"dashboardmanage.myshopify.com","password":"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","is_demand_accept":"0","charge":"0","price_id":null,"invoice_on":null,"operated_on":null,"test_finals_on":null,"removed_on":null,"store_name":"dashboardmanage.myshopify.com","api_key":"","store_idea":"","price_pattern":"","cash":"","store_holder":"","address11":"","address22":"","city":"","country_name":"","mobile_no":"","division":"","zip":"","timezone":"","america_timezone":"","domain":"","feedback_status":"0","block_status":"0","created_at":"2022-07-18 06:48:13","updated_at":"2022-07-18 06:48:13","uninstall_on":null,"install_date":null}
-*-*-*-*-*-*-*-*-*

---------------------04:34:23
{"store_user_id":"6","email":"","status":"1","application_status":"1","application_language":"en","shop_name":"dashboardmanage.myshopify.com","password":"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","is_demand_accept":"0","charge":"0","price_id":null,"invoice_on":null,"operated_on":null,"test_finals_on":null,"removed_on":null,"store_name":"dashboardmanage.myshopify.com","api_key":"","store_idea":"","price_pattern":"","cash":"","store_holder":"","address11":"","address22":"","city":"","country_name":"","mobile_no":"","division":"","zip":"","timezone":"","america_timezone":"","domain":"","feedback_status":"0","block_status":"0","created_at":"2022-07-18 06:48:13","updated_at":"2022-07-18 06:48:13","uninstall_on":null,"install_date":null}
-*-*-*-*-*-*-*-*-*

---------------------04:45:01
{"store_user_id":"6","email":"","status":"1","application_status":"1","application_language":"en","shop_name":"dashboardmanage.myshopify.com","password":"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","is_demand_accept":"0","charge":"0","price_id":null,"invoice_on":null,"operated_on":null,"test_finals_on":null,"removed_on":null,"store_name":"dashboardmanage.myshopify.com","api_key":"","store_idea":"","price_pattern":"","cash":"","store_holder":"","address11":"","address22":"","city":"","country_name":"","mobile_no":"","division":"","zip":"","timezone":"","america_timezone":"","domain":"","feedback_status":"0","block_status":"0","created_at":"2022-07-18 06:48:13","updated_at":"2022-07-18 06:48:13","uninstall_on":null,"install_date":null}
-*-*-*-*-*-*-*-*-*

---------------------04:45:02
{"store_user_id":"6","email":"","status":"1","application_status":"1","application_language":"en","shop_name":"dashboardmanage.myshopify.com","password":"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","is_demand_accept":"0","charge":"0","price_id":null,"invoice_on":null,"operated_on":null,"test_finals_on":null,"removed_on":null,"store_name":"dashboardmanage.myshopify.com","api_key":"","store_idea":"","price_pattern":"","cash":"","store_holder":"","address11":"","address22":"","city":"","country_name":"","mobile_no":"","division":"","zip":"","timezone":"","america_timezone":"","domain":"","feedback_status":"0","block_status":"0","created_at":"2022-07-18 06:48:13","updated_at":"2022-07-18 06:48:13","uninstall_on":null,"install_date":null}
-*-*-*-*-*-*-*-*-*

---------------------04:45:43
{"store_user_id":"6","email":"","status":"1","application_status":"1","application_language":"en","shop_name":"dashboardmanage.myshopify.com","password":"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","is_demand_accept":"0","charge":"0","price_id":null,"invoice_on":null,"operated_on":null,"test_finals_on":null,"removed_on":null,"store_name":"dashboardmanage.myshopify.com","api_key":"","store_idea":"","price_pattern":"","cash":"","store_holder":"","address11":"","address22":"","city":"","country_name":"","mobile_no":"","division":"","zip":"","timezone":"","america_timezone":"","domain":"","feedback_status":"0","block_status":"0","created_at":"2022-07-18 06:48:13","updated_at":"2022-07-18 06:48:13","uninstall_on":null,"install_date":null}
-*-*-*-*-*-*-*-*-*

---------------------04:45:44
{"store_user_id":"6","email":"","status":"1","application_status":"1","application_language":"en","shop_name":"dashboardmanage.myshopify.com","password":"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","is_demand_accept":"0","charge":"0","price_id":null,"invoice_on":null,"operated_on":null,"test_finals_on":null,"removed_on":null,"store_name":"dashboardmanage.myshopify.com","api_key":"","store_idea":"","price_pattern":"","cash":"","store_holder":"","address11":"","address22":"","city":"","country_name":"","mobile_no":"","division":"","zip":"","timezone":"","america_timezone":"","domain":"","feedback_status":"0","block_status":"0","created_at":"2022-07-18 06:48:13","updated_at":"2022-07-18 06:48:13","uninstall_on":null,"install_date":null}
-*-*-*-*-*-*-*-*-*

---------------------04:45:49
{"store_user_id":"6","email":"","status":"1","application_status":"1","application_language":"en","shop_name":"dashboardmanage.myshopify.com","password":"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","is_demand_accept":"0","charge":"0","price_id":null,"invoice_on":null,"operated_on":null,"test_finals_on":null,"removed_on":null,"store_name":"dashboardmanage.myshopify.com","api_key":"","store_idea":"","price_pattern":"","cash":"","store_holder":"","address11":"","address22":"","city":"","country_name":"","mobile_no":"","division":"","zip":"","timezone":"","america_timezone":"","domain":"","feedback_status":"0","block_status":"0","created_at":"2022-07-18 06:48:13","updated_at":"2022-07-18 06:48:13","uninstall_on":null,"install_date":null}
-*-*-*-*-*-*-*-*-*

---------------------04:45:53
{"store_user_id":"6","email":"","status":"1","application_status":"1","application_language":"en","shop_name":"dashboardmanage.myshopify.com","password":"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","is_demand_accept":"0","charge":"0","price_id":null,"invoice_on":null,"operated_on":null,"test_finals_on":null,"removed_on":null,"store_name":"dashboardmanage.myshopify.com","api_key":"","store_idea":"","price_pattern":"","cash":"","store_holder":"","address11":"","address22":"","city":"","country_name":"","mobile_no":"","division":"","zip":"","timezone":"","america_timezone":"","domain":"","feedback_status":"0","block_status":"0","created_at":"2022-07-18 06:48:13","updated_at":"2022-07-18 06:48:13","uninstall_on":null,"install_date":null}
-*-*-*-*-*-*-*-*-*

---------------------04:45:58
{"store_user_id":"6","email":"","status":"1","application_status":"1","application_language":"en","shop_name":"dashboardmanage.myshopify.com","password":"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","is_demand_accept":"0","charge":"0","price_id":null,"invoice_on":null,"operated_on":null,"test_finals_on":null,"removed_on":null,"store_name":"dashboardmanage.myshopify.com","api_key":"","store_idea":"","price_pattern":"","cash":"","store_holder":"","address11":"","address22":"","city":"","country_name":"","mobile_no":"","division":"","zip":"","timezone":"","america_timezone":"","domain":"","feedback_status":"0","block_status":"0","created_at":"2022-07-18 06:48:13","updated_at":"2022-07-18 06:48:13","uninstall_on":null,"install_date":null}
-*-*-*-*-*-*-*-*-*

---------------------04:46:04
{"store_user_id":"6","email":"","status":"1","application_status":"1","application_language":"en","shop_name":"dashboardmanage.myshopify.com","password":"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","is_demand_accept":"0","charge":"0","price_id":null,"invoice_on":null,"operated_on":null,"test_finals_on":null,"removed_on":null,"store_name":"dashboardmanage.myshopify.com","api_key":"","store_idea":"","price_pattern":"","cash":"","store_holder":"","address11":"","address22":"","city":"","country_name":"","mobile_no":"","division":"","zip":"","timezone":"","america_timezone":"","domain":"","feedback_status":"0","block_status":"0","created_at":"2022-07-18 06:48:13","updated_at":"2022-07-18 06:48:13","uninstall_on":null,"install_date":null}
-*-*-*-*-*-*-*-*-*

---------------------04:59:45
{"store_user_id":"6","email":"","status":"1","application_status":"1","application_language":"en","shop_name":"dashboardmanage.myshopify.com","password":"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","is_demand_accept":"0","charge":"0","price_id":null,"invoice_on":null,"operated_on":null,"test_finals_on":null,"removed_on":null,"store_name":"dashboardmanage.myshopify.com","api_key":"","store_idea":"","price_pattern":"","cash":"","store_holder":"","address11":"","address22":"","city":"","country_name":"","mobile_no":"","division":"","zip":"","timezone":"","america_timezone":"","domain":"","feedback_status":"0","block_status":"0","created_at":"2022-07-18 06:48:13","updated_at":"2022-07-18 06:48:13","uninstall_on":null,"install_date":null}
-*-*-*-*-*-*-*-*-*

---------------------05:00:03
{"store_user_id":"6","email":"","status":"1","application_status":"1","application_language":"en","shop_name":"dashboardmanage.myshopify.com","password":"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","is_demand_accept":"0","charge":"0","price_id":null,"invoice_on":null,"operated_on":null,"test_finals_on":null,"removed_on":null,"store_name":"dashboardmanage.myshopify.com","api_key":"","store_idea":"","price_pattern":"","cash":"","store_holder":"","address11":"","address22":"","city":"","country_name":"","mobile_no":"","division":"","zip":"","timezone":"","america_timezone":"","domain":"","feedback_status":"0","block_status":"0","created_at":"2022-07-18 06:48:13","updated_at":"2022-07-18 06:48:13","uninstall_on":null,"install_date":null}
-*-*-*-*-*-*-*-*-*

---------------------05:00:09
{"store_user_id":"6","email":"","status":"1","application_status":"1","application_language":"en","shop_name":"dashboardmanage.myshopify.com","password":"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","is_demand_accept":"0","charge":"0","price_id":null,"invoice_on":null,"operated_on":null,"test_finals_on":null,"removed_on":null,"store_name":"dashboardmanage.myshopify.com","api_key":"","store_idea":"","price_pattern":"","cash":"","store_holder":"","address11":"","address22":"","city":"","country_name":"","mobile_no":"","division":"","zip":"","timezone":"","america_timezone":"","domain":"","feedback_status":"0","block_status":"0","created_at":"2022-07-18 06:48:13","updated_at":"2022-07-18 06:48:13","uninstall_on":null,"install_date":null}
-*-*-*-*-*-*-*-*-*

---------------------05:01:28
{"store_user_id":"6","email":"","status":"1","application_status":"1","application_language":"en","shop_name":"dashboardmanage.myshopify.com","password":"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","is_demand_accept":"0","charge":"0","price_id":null,"invoice_on":null,"operated_on":null,"test_finals_on":null,"removed_on":null,"store_name":"dashboardmanage.myshopify.com","api_key":"","store_idea":"","price_pattern":"","cash":"","store_holder":"","address11":"","address22":"","city":"","country_name":"","mobile_no":"","division":"","zip":"","timezone":"","america_timezone":"","domain":"","feedback_status":"0","block_status":"0","created_at":"2022-07-18 06:48:13","updated_at":"2022-07-18 06:48:13","uninstall_on":null,"install_date":null}
-*-*-*-*-*-*-*-*-*

---------------------05:02:11
{"store_user_id":"6","email":"","status":"1","application_status":"1","application_language":"en","shop_name":"dashboardmanage.myshopify.com","password":"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","is_demand_accept":"0","charge":"0","price_id":null,"invoice_on":null,"operated_on":null,"test_finals_on":null,"removed_on":null,"store_name":"dashboardmanage.myshopify.com","api_key":"","store_idea":"","price_pattern":"","cash":"","store_holder":"","address11":"","address22":"","city":"","country_name":"","mobile_no":"","division":"","zip":"","timezone":"","america_timezone":"","domain":"","feedback_status":"0","block_status":"0","created_at":"2022-07-18 06:48:13","updated_at":"2022-07-18 06:48:13","uninstall_on":null,"install_date":null}
-*-*-*-*-*-*-*-*-*

---------------------05:02:25
{"store_user_id":"6","email":"","status":"1","application_status":"1","application_language":"en","shop_name":"dashboardmanage.myshopify.com","password":"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","is_demand_accept":"0","charge":"0","price_id":null,"invoice_on":null,"operated_on":null,"test_finals_on":null,"removed_on":null,"store_name":"dashboardmanage.myshopify.com","api_key":"","store_idea":"","price_pattern":"","cash":"","store_holder":"","address11":"","address22":"","city":"","country_name":"","mobile_no":"","division":"","zip":"","timezone":"","america_timezone":"","domain":"","feedback_status":"0","block_status":"0","created_at":"2022-07-18 06:48:13","updated_at":"2022-07-18 06:48:13","uninstall_on":null,"install_date":null}
-*-*-*-*-*-*-*-*-*

---------------------05:02:32
{"store_user_id":"6","email":"","status":"1","application_status":"1","application_language":"en","shop_name":"dashboardmanage.myshopify.com","password":"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","is_demand_accept":"0","charge":"0","price_id":null,"invoice_on":null,"operated_on":null,"test_finals_on":null,"removed_on":null,"store_name":"dashboardmanage.myshopify.com","api_key":"","store_idea":"","price_pattern":"","cash":"","store_holder":"","address11":"","address22":"","city":"","country_name":"","mobile_no":"","division":"","zip":"","timezone":"","america_timezone":"","domain":"","feedback_status":"0","block_status":"0","created_at":"2022-07-18 06:48:13","updated_at":"2022-07-18 06:48:13","uninstall_on":null,"install_date":null}
-*-*-*-*-*-*-*-*-*

---------------------05:02:36
{"store_user_id":"6","email":"","status":"1","application_status":"1","application_language":"en","shop_name":"dashboardmanage.myshopify.com","password":"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","is_demand_accept":"0","charge":"0","price_id":null,"invoice_on":null,"operated_on":null,"test_finals_on":null,"removed_on":null,"store_name":"dashboardmanage.myshopify.com","api_key":"","store_idea":"","price_pattern":"","cash":"","store_holder":"","address11":"","address22":"","city":"","country_name":"","mobile_no":"","division":"","zip":"","timezone":"","america_timezone":"","domain":"","feedback_status":"0","block_status":"0","created_at":"2022-07-18 06:48:13","updated_at":"2022-07-18 06:48:13","uninstall_on":null,"install_date":null}
-*-*-*-*-*-*-*-*-*

---------------------05:03:47
{"store_user_id":"6","email":"","status":"1","application_status":"1","application_language":"en","shop_name":"dashboardmanage.myshopify.com","password":"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","is_demand_accept":"0","charge":"0","price_id":null,"invoice_on":null,"operated_on":null,"test_finals_on":null,"removed_on":null,"store_name":"dashboardmanage.myshopify.com","api_key":"","store_idea":"","price_pattern":"","cash":"","store_holder":"","address11":"","address22":"","city":"","country_name":"","mobile_no":"","division":"","zip":"","timezone":"","america_timezone":"","domain":"","feedback_status":"0","block_status":"0","created_at":"2022-07-18 06:48:13","updated_at":"2022-07-18 06:48:13","uninstall_on":null,"install_date":null}
-*-*-*-*-*-*-*-*-*

---------------------05:04:20
{"store_user_id":"6","email":"","status":"1","application_status":"1","application_language":"en","shop_name":"dashboardmanage.myshopify.com","password":"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","is_demand_accept":"0","charge":"0","price_id":null,"invoice_on":null,"operated_on":null,"test_finals_on":null,"removed_on":null,"store_name":"dashboardmanage.myshopify.com","api_key":"","store_idea":"","price_pattern":"","cash":"","store_holder":"","address11":"","address22":"","city":"","country_name":"","mobile_no":"","division":"","zip":"","timezone":"","america_timezone":"","domain":"","feedback_status":"0","block_status":"0","created_at":"2022-07-18 06:48:13","updated_at":"2022-07-18 06:48:13","uninstall_on":null,"install_date":null}
-*-*-*-*-*-*-*-*-*

---------------------05:06:22
{"store_user_id":"6","email":"","status":"1","application_status":"1","application_language":"en","shop_name":"dashboardmanage.myshopify.com","password":"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","is_demand_accept":"0","charge":"0","price_id":null,"invoice_on":null,"operated_on":null,"test_finals_on":null,"removed_on":null,"store_name":"dashboardmanage.myshopify.com","api_key":"","store_idea":"","price_pattern":"","cash":"","store_holder":"","address11":"","address22":"","city":"","country_name":"","mobile_no":"","division":"","zip":"","timezone":"","america_timezone":"","domain":"","feedback_status":"0","block_status":"0","created_at":"2022-07-18 06:48:13","updated_at":"2022-07-18 06:48:13","uninstall_on":null,"install_date":null}
-*-*-*-*-*-*-*-*-*

---------------------05:06:30
{"store_user_id":"6","email":"","status":"1","application_status":"1","application_language":"en","shop_name":"dashboardmanage.myshopify.com","password":"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","is_demand_accept":"0","charge":"0","price_id":null,"invoice_on":null,"operated_on":null,"test_finals_on":null,"removed_on":null,"store_name":"dashboardmanage.myshopify.com","api_key":"","store_idea":"","price_pattern":"","cash":"","store_holder":"","address11":"","address22":"","city":"","country_name":"","mobile_no":"","division":"","zip":"","timezone":"","america_timezone":"","domain":"","feedback_status":"0","block_status":"0","created_at":"2022-07-18 06:48:13","updated_at":"2022-07-18 06:48:13","uninstall_on":null,"install_date":null}
-*-*-*-*-*-*-*-*-*

---------------------05:06:55
{"store_user_id":"6","email":"","status":"1","application_status":"1","application_language":"en","shop_name":"dashboardmanage.myshopify.com","password":"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","is_demand_accept":"0","charge":"0","price_id":null,"invoice_on":null,"operated_on":null,"test_finals_on":null,"removed_on":null,"store_name":"dashboardmanage.myshopify.com","api_key":"","store_idea":"","price_pattern":"","cash":"","store_holder":"","address11":"","address22":"","city":"","country_name":"","mobile_no":"","division":"","zip":"","timezone":"","america_timezone":"","domain":"","feedback_status":"0","block_status":"0","created_at":"2022-07-18 06:48:13","updated_at":"2022-07-18 06:48:13","uninstall_on":null,"install_date":null}
-*-*-*-*-*-*-*-*-*

---------------------05:07:00
{"store_user_id":"6","email":"","status":"1","application_status":"1","application_language":"en","shop_name":"dashboardmanage.myshopify.com","password":"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","is_demand_accept":"0","charge":"0","price_id":null,"invoice_on":null,"operated_on":null,"test_finals_on":null,"removed_on":null,"store_name":"dashboardmanage.myshopify.com","api_key":"","store_idea":"","price_pattern":"","cash":"","store_holder":"","address11":"","address22":"","city":"","country_name":"","mobile_no":"","division":"","zip":"","timezone":"","america_timezone":"","domain":"","feedback_status":"0","block_status":"0","created_at":"2022-07-18 06:48:13","updated_at":"2022-07-18 06:48:13","uninstall_on":null,"install_date":null}
-*-*-*-*-*-*-*-*-*

---------------------05:07:47
{"store_user_id":"6","email":"","status":"1","application_status":"1","application_language":"en","shop_name":"dashboardmanage.myshopify.com","password":"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","is_demand_accept":"0","charge":"0","price_id":null,"invoice_on":null,"operated_on":null,"test_finals_on":null,"removed_on":null,"store_name":"dashboardmanage.myshopify.com","api_key":"","store_idea":"","price_pattern":"","cash":"","store_holder":"","address11":"","address22":"","city":"","country_name":"","mobile_no":"","division":"","zip":"","timezone":"","america_timezone":"","domain":"","feedback_status":"0","block_status":"0","created_at":"2022-07-18 06:48:13","updated_at":"2022-07-18 06:48:13","uninstall_on":null,"install_date":null}
-*-*-*-*-*-*-*-*-*

---------------------05:07:57
{"store_user_id":"6","email":"","status":"1","application_status":"1","application_language":"en","shop_name":"dashboardmanage.myshopify.com","password":"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","is_demand_accept":"0","charge":"0","price_id":null,"invoice_on":null,"operated_on":null,"test_finals_on":null,"removed_on":null,"store_name":"dashboardmanage.myshopify.com","api_key":"","store_idea":"","price_pattern":"","cash":"","store_holder":"","address11":"","address22":"","city":"","country_name":"","mobile_no":"","division":"","zip":"","timezone":"","america_timezone":"","domain":"","feedback_status":"0","block_status":"0","created_at":"2022-07-18 06:48:13","updated_at":"2022-07-18 06:48:13","uninstall_on":null,"install_date":null}
-*-*-*-*-*-*-*-*-*

---------------------05:08:44
{"store_user_id":"6","email":"","status":"1","application_status":"1","application_language":"en","shop_name":"dashboardmanage.myshopify.com","password":"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","is_demand_accept":"0","charge":"0","price_id":null,"invoice_on":null,"operated_on":null,"test_finals_on":null,"removed_on":null,"store_name":"dashboardmanage.myshopify.com","api_key":"","store_idea":"","price_pattern":"","cash":"","store_holder":"","address11":"","address22":"","city":"","country_name":"","mobile_no":"","division":"","zip":"","timezone":"","america_timezone":"","domain":"","feedback_status":"0","block_status":"0","created_at":"2022-07-18 06:48:13","updated_at":"2022-07-18 06:48:13","uninstall_on":null,"install_date":null}
-*-*-*-*-*-*-*-*-*

---------------------05:10:03
{"store_user_id":"6","email":"","status":"1","application_status":"1","application_language":"en","shop_name":"dashboardmanage.myshopify.com","password":"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","is_demand_accept":"0","charge":"0","price_id":null,"invoice_on":null,"operated_on":null,"test_finals_on":null,"removed_on":null,"store_name":"dashboardmanage.myshopify.com","api_key":"","store_idea":"","price_pattern":"","cash":"","store_holder":"","address11":"","address22":"","city":"","country_name":"","mobile_no":"","division":"","zip":"","timezone":"","america_timezone":"","domain":"","feedback_status":"0","block_status":"0","created_at":"2022-07-18 06:48:13","updated_at":"2022-07-18 06:48:13","uninstall_on":null,"install_date":null}
-*-*-*-*-*-*-*-*-*

---------------------05:11:45
{"store_user_id":"6","email":"","status":"1","application_status":"1","application_language":"en","shop_name":"dashboardmanage.myshopify.com","password":"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","is_demand_accept":"0","charge":"0","price_id":null,"invoice_on":null,"operated_on":null,"test_finals_on":null,"removed_on":null,"store_name":"dashboardmanage.myshopify.com","api_key":"","store_idea":"","price_pattern":"","cash":"","store_holder":"","address11":"","address22":"","city":"","country_name":"","mobile_no":"","division":"","zip":"","timezone":"","america_timezone":"","domain":"","feedback_status":"0","block_status":"0","created_at":"2022-07-18 06:48:13","updated_at":"2022-07-18 06:48:13","uninstall_on":null,"install_date":null}
-*-*-*-*-*-*-*-*-*

---------------------05:11:50
{"store_user_id":"6","email":"","status":"1","application_status":"1","application_language":"en","shop_name":"dashboardmanage.myshopify.com","password":"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","is_demand_accept":"0","charge":"0","price_id":null,"invoice_on":null,"operated_on":null,"test_finals_on":null,"removed_on":null,"store_name":"dashboardmanage.myshopify.com","api_key":"","store_idea":"","price_pattern":"","cash":"","store_holder":"","address11":"","address22":"","city":"","country_name":"","mobile_no":"","division":"","zip":"","timezone":"","america_timezone":"","domain":"","feedback_status":"0","block_status":"0","created_at":"2022-07-18 06:48:13","updated_at":"2022-07-18 06:48:13","uninstall_on":null,"install_date":null}
-*-*-*-*-*-*-*-*-*

---------------------05:13:25
{"store_user_id":"6","email":"","status":"1","application_status":"1","application_language":"en","shop_name":"dashboardmanage.myshopify.com","password":"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","is_demand_accept":"0","charge":"0","price_id":null,"invoice_on":null,"operated_on":null,"test_finals_on":null,"removed_on":null,"store_name":"dashboardmanage.myshopify.com","api_key":"","store_idea":"","price_pattern":"","cash":"","store_holder":"","address11":"","address22":"","city":"","country_name":"","mobile_no":"","division":"","zip":"","timezone":"","america_timezone":"","domain":"","feedback_status":"0","block_status":"0","created_at":"2022-07-18 06:48:13","updated_at":"2022-07-18 06:48:13","uninstall_on":null,"install_date":null}
-*-*-*-*-*-*-*-*-*

---------------------05:17:21
{"store_user_id":"6","email":"","status":"1","application_status":"1","application_language":"en","shop_name":"dashboardmanage.myshopify.com","password":"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","is_demand_accept":"0","charge":"0","price_id":null,"invoice_on":null,"operated_on":null,"test_finals_on":null,"removed_on":null,"store_name":"dashboardmanage.myshopify.com","api_key":"","store_idea":"","price_pattern":"","cash":"","store_holder":"","address11":"","address22":"","city":"","country_name":"","mobile_no":"","division":"","zip":"","timezone":"","america_timezone":"","domain":"","feedback_status":"0","block_status":"0","created_at":"2022-07-18 06:48:13","updated_at":"2022-07-18 06:48:13","uninstall_on":null,"install_date":null}
-*-*-*-*-*-*-*-*-*

---------------------05:17:36
{"store_user_id":"6","email":"","status":"1","application_status":"1","application_language":"en","shop_name":"dashboardmanage.myshopify.com","password":"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","is_demand_accept":"0","charge":"0","price_id":null,"invoice_on":null,"operated_on":null,"test_finals_on":null,"removed_on":null,"store_name":"dashboardmanage.myshopify.com","api_key":"","store_idea":"","price_pattern":"","cash":"","store_holder":"","address11":"","address22":"","city":"","country_name":"","mobile_no":"","division":"","zip":"","timezone":"","america_timezone":"","domain":"","feedback_status":"0","block_status":"0","created_at":"2022-07-18 06:48:13","updated_at":"2022-07-18 06:48:13","uninstall_on":null,"install_date":null}
-*-*-*-*-*-*-*-*-*

---------------------05:17:39
{"store_user_id":"6","email":"","status":"1","application_status":"1","application_language":"en","shop_name":"dashboardmanage.myshopify.com","password":"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","is_demand_accept":"0","charge":"0","price_id":null,"invoice_on":null,"operated_on":null,"test_finals_on":null,"removed_on":null,"store_name":"dashboardmanage.myshopify.com","api_key":"","store_idea":"","price_pattern":"","cash":"","store_holder":"","address11":"","address22":"","city":"","country_name":"","mobile_no":"","division":"","zip":"","timezone":"","america_timezone":"","domain":"","feedback_status":"0","block_status":"0","created_at":"2022-07-18 06:48:13","updated_at":"2022-07-18 06:48:13","uninstall_on":null,"install_date":null}
-*-*-*-*-*-*-*-*-*

---------------------07:55:07
{"store_user_id":"6","email":"","status":"1","application_status":"1","application_language":"en","shop_name":"dashboardmanage.myshopify.com","password":"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","is_demand_accept":"0","charge":"0","price_id":null,"invoice_on":null,"operated_on":null,"test_finals_on":null,"removed_on":null,"store_name":"dashboardmanage.myshopify.com","api_key":"","store_idea":"","price_pattern":"","cash":"","store_holder":"","address11":"","address22":"","city":"","country_name":"","mobile_no":"","division":"","zip":"","timezone":"","america_timezone":"","domain":"","feedback_status":"0","block_status":"0","created_at":"2022-07-18 06:48:13","updated_at":"2022-07-18 06:48:13","uninstall_on":null,"install_date":null}
-*-*-*-*-*-*-*-*-*

---------------------07:55:13
{"store_user_id":"6","email":"","status":"1","application_status":"1","application_language":"en","shop_name":"dashboardmanage.myshopify.com","password":"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","is_demand_accept":"0","charge":"0","price_id":null,"invoice_on":null,"operated_on":null,"test_finals_on":null,"removed_on":null,"store_name":"dashboardmanage.myshopify.com","api_key":"","store_idea":"","price_pattern":"","cash":"","store_holder":"","address11":"","address22":"","city":"","country_name":"","mobile_no":"","division":"","zip":"","timezone":"","america_timezone":"","domain":"","feedback_status":"0","block_status":"0","created_at":"2022-07-18 06:48:13","updated_at":"2022-07-18 06:48:13","uninstall_on":null,"install_date":null}
-*-*-*-*-*-*-*-*-*

---------------------07:55:21
{"store_user_id":"6","email":"","status":"1","application_status":"1","application_language":"en","shop_name":"dashboardmanage.myshopify.com","password":"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","is_demand_accept":"0","charge":"0","price_id":null,"invoice_on":null,"operated_on":null,"test_finals_on":null,"removed_on":null,"store_name":"dashboardmanage.myshopify.com","api_key":"","store_idea":"","price_pattern":"","cash":"","store_holder":"","address11":"","address22":"","city":"","country_name":"","mobile_no":"","division":"","zip":"","timezone":"","america_timezone":"","domain":"","feedback_status":"0","block_status":"0","created_at":"2022-07-18 06:48:13","updated_at":"2022-07-18 06:48:13","uninstall_on":null,"install_date":null}
-*-*-*-*-*-*-*-*-*

---------------------08:21:00
{"store_user_id":"6","email":"","status":"1","application_status":"1","application_language":"en","shop_name":"dashboardmanage.myshopify.com","password":"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","is_demand_accept":"0","charge":"0","price_id":null,"invoice_on":null,"operated_on":null,"test_finals_on":null,"removed_on":null,"store_name":"dashboardmanage.myshopify.com","api_key":"","store_idea":"","price_pattern":"","cash":"","store_holder":"","address11":"","address22":"","city":"","country_name":"","mobile_no":"","division":"","zip":"","timezone":"","america_timezone":"","domain":"","feedback_status":"0","block_status":"0","created_at":"2022-07-18 06:48:13","updated_at":"2022-07-18 06:48:13","uninstall_on":null,"install_date":null}
-*-*-*-*-*-*-*-*-*

---------------------08:36:43
{"store_user_id":"6","email":"","status":"1","application_status":"1","application_language":"en","shop_name":"dashboardmanage.myshopify.com","password":"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","is_demand_accept":"0","charge":"0","price_id":null,"invoice_on":null,"operated_on":null,"test_finals_on":null,"removed_on":null,"store_name":"dashboardmanage.myshopify.com","api_key":"","store_idea":"","price_pattern":"","cash":"","store_holder":"","address11":"","address22":"","city":"","country_name":"","mobile_no":"","division":"","zip":"","timezone":"","america_timezone":"","domain":"","feedback_status":"0","block_status":"0","created_at":"2022-07-18 06:48:13","updated_at":"2022-07-18 06:48:13","uninstall_on":null,"install_date":null}
-*-*-*-*-*-*-*-*-*