

---------------------04:39:32
{"store_user_id":"6","email":"","status":"1","application_status":"1","application_language":"en","shop_name":"dashboardmanage.myshopify.com","password":"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","is_demand_accept":"0","charge":"0","price_id":null,"invoice_on":null,"operated_on":null,"test_finals_on":null,"removed_on":null,"store_name":"dashboardmanage.myshopify.com","api_key":"","store_idea":"","price_pattern":"","cash":"","store_holder":"","address11":"","address22":"","city":"","country_name":"","mobile_no":"","division":"","zip":"","timezone":"","america_timezone":"","domain":"","feedback_status":"0","block_status":"0","created_at":"2022-07-18 06:48:13","updated_at":"2022-07-18 06:48:13","uninstall_on":null,"install_date":null}
-*-*-*-*-*-*-*-*-*

---------------------04:39:32
{"store_user_id":"6","email":"","status":"1","application_status":"1","application_language":"en","shop_name":"dashboardmanage.myshopify.com","password":"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","is_demand_accept":"0","charge":"0","price_id":null,"invoice_on":null,"operated_on":null,"test_finals_on":null,"removed_on":null,"store_name":"dashboardmanage.myshopify.com","api_key":"","store_idea":"","price_pattern":"","cash":"","store_holder":"","address11":"","address22":"","city":"","country_name":"","mobile_no":"","division":"","zip":"","timezone":"","america_timezone":"","domain":"","feedback_status":"0","block_status":"0","created_at":"2022-07-18 06:48:13","updated_at":"2022-07-18 06:48:13","uninstall_on":null,"install_date":null}
-*-*-*-*-*-*-*-*-*

---------------------04:39:35
{"store_user_id":"6","email":"","status":"1","application_status":"1","application_language":"en","shop_name":"dashboardmanage.myshopify.com","password":"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","is_demand_accept":"0","charge":"0","price_id":null,"invoice_on":null,"operated_on":null,"test_finals_on":null,"removed_on":null,"store_name":"dashboardmanage.myshopify.com","api_key":"","store_idea":"","price_pattern":"","cash":"","store_holder":"","address11":"","address22":"","city":"","country_name":"","mobile_no":"","division":"","zip":"","timezone":"","america_timezone":"","domain":"","feedback_status":"0","block_status":"0","created_at":"2022-07-18 06:48:13","updated_at":"2022-07-18 06:48:13","uninstall_on":null,"install_date":null}
-*-*-*-*-*-*-*-*-*

---------------------04:39:50
{"store_user_id":"6","email":"","status":"1","application_status":"1","application_language":"en","shop_name":"dashboardmanage.myshopify.com","password":"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","is_demand_accept":"0","charge":"0","price_id":null,"invoice_on":null,"operated_on":null,"test_finals_on":null,"removed_on":null,"store_name":"dashboardmanage.myshopify.com","api_key":"","store_idea":"","price_pattern":"","cash":"","store_holder":"","address11":"","address22":"","city":"","country_name":"","mobile_no":"","division":"","zip":"","timezone":"","america_timezone":"","domain":"","feedback_status":"0","block_status":"0","created_at":"2022-07-18 06:48:13","updated_at":"2022-07-18 06:48:13","uninstall_on":null,"install_date":null}
-*-*-*-*-*-*-*-*-*

---------------------04:39:59
{"store_user_id":"6","email":"","status":"1","application_status":"1","application_language":"en","shop_name":"dashboardmanage.myshopify.com","password":"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","is_demand_accept":"0","charge":"0","price_id":null,"invoice_on":null,"operated_on":null,"test_finals_on":null,"removed_on":null,"store_name":"dashboardmanage.myshopify.com","api_key":"","store_idea":"","price_pattern":"","cash":"","store_holder":"","address11":"","address22":"","city":"","country_name":"","mobile_no":"","division":"","zip":"","timezone":"","america_timezone":"","domain":"","feedback_status":"0","block_status":"0","created_at":"2022-07-18 06:48:13","updated_at":"2022-07-18 06:48:13","uninstall_on":null,"install_date":null}
-*-*-*-*-*-*-*-*-*

---------------------04:40:57
{"store_user_id":"6","email":"","status":"1","application_status":"1","application_language":"en","shop_name":"dashboardmanage.myshopify.com","password":"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","is_demand_accept":"0","charge":"0","price_id":null,"invoice_on":null,"operated_on":null,"test_finals_on":null,"removed_on":null,"store_name":"dashboardmanage.myshopify.com","api_key":"","store_idea":"","price_pattern":"","cash":"","store_holder":"","address11":"","address22":"","city":"","country_name":"","mobile_no":"","division":"","zip":"","timezone":"","america_timezone":"","domain":"","feedback_status":"0","block_status":"0","created_at":"2022-07-18 06:48:13","updated_at":"2022-07-18 06:48:13","uninstall_on":null,"install_date":null}
-*-*-*-*-*-*-*-*-*

---------------------04:41:36
{"store_user_id":"6","email":"","status":"1","application_status":"1","application_language":"en","shop_name":"dashboardmanage.myshopify.com","password":"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","is_demand_accept":"0","charge":"0","price_id":null,"invoice_on":null,"operated_on":null,"test_finals_on":null,"removed_on":null,"store_name":"dashboardmanage.myshopify.com","api_key":"","store_idea":"","price_pattern":"","cash":"","store_holder":"","address11":"","address22":"","city":"","country_name":"","mobile_no":"","division":"","zip":"","timezone":"","america_timezone":"","domain":"","feedback_status":"0","block_status":"0","created_at":"2022-07-18 06:48:13","updated_at":"2022-07-18 06:48:13","uninstall_on":null,"install_date":null}
-*-*-*-*-*-*-*-*-*

---------------------04:41:45
{"store_user_id":"6","email":"","status":"1","application_status":"1","application_language":"en","shop_name":"dashboardmanage.myshopify.com","password":"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","is_demand_accept":"0","charge":"0","price_id":null,"invoice_on":null,"operated_on":null,"test_finals_on":null,"removed_on":null,"store_name":"dashboardmanage.myshopify.com","api_key":"","store_idea":"","price_pattern":"","cash":"","store_holder":"","address11":"","address22":"","city":"","country_name":"","mobile_no":"","division":"","zip":"","timezone":"","america_timezone":"","domain":"","feedback_status":"0","block_status":"0","created_at":"2022-07-18 06:48:13","updated_at":"2022-07-18 06:48:13","uninstall_on":null,"install_date":null}
-*-*-*-*-*-*-*-*-*

---------------------04:41:49
{"store_user_id":"6","email":"","status":"1","application_status":"1","application_language":"en","shop_name":"dashboardmanage.myshopify.com","password":"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","is_demand_accept":"0","charge":"0","price_id":null,"invoice_on":null,"operated_on":null,"test_finals_on":null,"removed_on":null,"store_name":"dashboardmanage.myshopify.com","api_key":"","store_idea":"","price_pattern":"","cash":"","store_holder":"","address11":"","address22":"","city":"","country_name":"","mobile_no":"","division":"","zip":"","timezone":"","america_timezone":"","domain":"","feedback_status":"0","block_status":"0","created_at":"2022-07-18 06:48:13","updated_at":"2022-07-18 06:48:13","uninstall_on":null,"install_date":null}
-*-*-*-*-*-*-*-*-*

---------------------04:41:56
{"store_user_id":"6","email":"","status":"1","application_status":"1","application_language":"en","shop_name":"dashboardmanage.myshopify.com","password":"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","is_demand_accept":"0","charge":"0","price_id":null,"invoice_on":null,"operated_on":null,"test_finals_on":null,"removed_on":null,"store_name":"dashboardmanage.myshopify.com","api_key":"","store_idea":"","price_pattern":"","cash":"","store_holder":"","address11":"","address22":"","city":"","country_name":"","mobile_no":"","division":"","zip":"","timezone":"","america_timezone":"","domain":"","feedback_status":"0","block_status":"0","created_at":"2022-07-18 06:48:13","updated_at":"2022-07-18 06:48:13","uninstall_on":null,"install_date":null}
-*-*-*-*-*-*-*-*-*

---------------------05:02:38
{"store_user_id":"6","email":"","status":"1","application_status":"1","application_language":"en","shop_name":"dashboardmanage.myshopify.com","password":"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","is_demand_accept":"0","charge":"0","price_id":null,"invoice_on":null,"operated_on":null,"test_finals_on":null,"removed_on":null,"store_name":"dashboardmanage.myshopify.com","api_key":"","store_idea":"","price_pattern":"","cash":"","store_holder":"","address11":"","address22":"","city":"","country_name":"","mobile_no":"","division":"","zip":"","timezone":"","america_timezone":"","domain":"","feedback_status":"0","block_status":"0","created_at":"2022-07-18 06:48:13","updated_at":"2022-07-18 06:48:13","uninstall_on":null,"install_date":null}
-*-*-*-*-*-*-*-*-*

---------------------05:08:33
{"store_user_id":"6","email":"","status":"1","application_status":"1","application_language":"en","shop_name":"dashboardmanage.myshopify.com","password":"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","is_demand_accept":"0","charge":"0","price_id":null,"invoice_on":null,"operated_on":null,"test_finals_on":null,"removed_on":null,"store_name":"dashboardmanage.myshopify.com","api_key":"","store_idea":"","price_pattern":"","cash":"","store_holder":"","address11":"","address22":"","city":"","country_name":"","mobile_no":"","division":"","zip":"","timezone":"","america_timezone":"","domain":"","feedback_status":"0","block_status":"0","created_at":"2022-07-18 06:48:13","updated_at":"2022-07-18 06:48:13","uninstall_on":null,"install_date":null}
-*-*-*-*-*-*-*-*-*

---------------------05:09:36
{"store_user_id":"6","email":"","status":"1","application_status":"1","application_language":"en","shop_name":"dashboardmanage.myshopify.com","password":"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","is_demand_accept":"0","charge":"0","price_id":null,"invoice_on":null,"operated_on":null,"test_finals_on":null,"removed_on":null,"store_name":"dashboardmanage.myshopify.com","api_key":"","store_idea":"","price_pattern":"","cash":"","store_holder":"","address11":"","address22":"","city":"","country_name":"","mobile_no":"","division":"","zip":"","timezone":"","america_timezone":"","domain":"","feedback_status":"0","block_status":"0","created_at":"2022-07-18 06:48:13","updated_at":"2022-07-18 06:48:13","uninstall_on":null,"install_date":null}
-*-*-*-*-*-*-*-*-*

---------------------05:11:10
{"store_user_id":"6","email":"","status":"1","application_status":"1","application_language":"en","shop_name":"dashboardmanage.myshopify.com","password":"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","is_demand_accept":"0","charge":"0","price_id":null,"invoice_on":null,"operated_on":null,"test_finals_on":null,"removed_on":null,"store_name":"dashboardmanage.myshopify.com","api_key":"","store_idea":"","price_pattern":"","cash":"","store_holder":"","address11":"","address22":"","city":"","country_name":"","mobile_no":"","division":"","zip":"","timezone":"","america_timezone":"","domain":"","feedback_status":"0","block_status":"0","created_at":"2022-07-18 06:48:13","updated_at":"2022-07-18 06:48:13","uninstall_on":null,"install_date":null}
-*-*-*-*-*-*-*-*-*

---------------------05:11:20
{"store_user_id":"6","email":"","status":"1","application_status":"1","application_language":"en","shop_name":"dashboardmanage.myshopify.com","password":"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","is_demand_accept":"0","charge":"0","price_id":null,"invoice_on":null,"operated_on":null,"test_finals_on":null,"removed_on":null,"store_name":"dashboardmanage.myshopify.com","api_key":"","store_idea":"","price_pattern":"","cash":"","store_holder":"","address11":"","address22":"","city":"","country_name":"","mobile_no":"","division":"","zip":"","timezone":"","america_timezone":"","domain":"","feedback_status":"0","block_status":"0","created_at":"2022-07-18 06:48:13","updated_at":"2022-07-18 06:48:13","uninstall_on":null,"install_date":null}
-*-*-*-*-*-*-*-*-*

---------------------05:11:31
{"store_user_id":"6","email":"","status":"1","application_status":"1","application_language":"en","shop_name":"dashboardmanage.myshopify.com","password":"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","is_demand_accept":"0","charge":"0","price_id":null,"invoice_on":null,"operated_on":null,"test_finals_on":null,"removed_on":null,"store_name":"dashboardmanage.myshopify.com","api_key":"","store_idea":"","price_pattern":"","cash":"","store_holder":"","address11":"","address22":"","city":"","country_name":"","mobile_no":"","division":"","zip":"","timezone":"","america_timezone":"","domain":"","feedback_status":"0","block_status":"0","created_at":"2022-07-18 06:48:13","updated_at":"2022-07-18 06:48:13","uninstall_on":null,"install_date":null}
-*-*-*-*-*-*-*-*-*

---------------------05:11:35
{"store_user_id":"6","email":"","status":"1","application_status":"1","application_language":"en","shop_name":"dashboardmanage.myshopify.com","password":"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","is_demand_accept":"0","charge":"0","price_id":null,"invoice_on":null,"operated_on":null,"test_finals_on":null,"removed_on":null,"store_name":"dashboardmanage.myshopify.com","api_key":"","store_idea":"","price_pattern":"","cash":"","store_holder":"","address11":"","address22":"","city":"","country_name":"","mobile_no":"","division":"","zip":"","timezone":"","america_timezone":"","domain":"","feedback_status":"0","block_status":"0","created_at":"2022-07-18 06:48:13","updated_at":"2022-07-18 06:48:13","uninstall_on":null,"install_date":null}
-*-*-*-*-*-*-*-*-*

---------------------05:15:28
{"store_user_id":"6","email":"","status":"1","application_status":"1","application_language":"en","shop_name":"dashboardmanage.myshopify.com","password":"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","is_demand_accept":"0","charge":"0","price_id":null,"invoice_on":null,"operated_on":null,"test_finals_on":null,"removed_on":null,"store_name":"dashboardmanage.myshopify.com","api_key":"","store_idea":"","price_pattern":"","cash":"","store_holder":"","address11":"","address22":"","city":"","country_name":"","mobile_no":"","division":"","zip":"","timezone":"","america_timezone":"","domain":"","feedback_status":"0","block_status":"0","created_at":"2022-07-18 06:48:13","updated_at":"2022-07-18 06:48:13","uninstall_on":null,"install_date":null}
-*-*-*-*-*-*-*-*-*

---------------------05:17:29
{"store_user_id":"6","email":"","status":"1","application_status":"1","application_language":"en","shop_name":"dashboardmanage.myshopify.com","password":"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","is_demand_accept":"0","charge":"0","price_id":null,"invoice_on":null,"operated_on":null,"test_finals_on":null,"removed_on":null,"store_name":"dashboardmanage.myshopify.com","api_key":"","store_idea":"","price_pattern":"","cash":"","store_holder":"","address11":"","address22":"","city":"","country_name":"","mobile_no":"","division":"","zip":"","timezone":"","america_timezone":"","domain":"","feedback_status":"0","block_status":"0","created_at":"2022-07-18 06:48:13","updated_at":"2022-07-18 06:48:13","uninstall_on":null,"install_date":null}
-*-*-*-*-*-*-*-*-*

---------------------05:25:56
{"store_user_id":"6","email":"","status":"1","application_status":"1","application_language":"en","shop_name":"dashboardmanage.myshopify.com","password":"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","is_demand_accept":"0","charge":"0","price_id":null,"invoice_on":null,"operated_on":null,"test_finals_on":null,"removed_on":null,"store_name":"dashboardmanage.myshopify.com","api_key":"","store_idea":"","price_pattern":"","cash":"","store_holder":"","address11":"","address22":"","city":"","country_name":"","mobile_no":"","division":"","zip":"","timezone":"","america_timezone":"","domain":"","feedback_status":"0","block_status":"0","created_at":"2022-07-18 06:48:13","updated_at":"2022-07-18 06:48:13","uninstall_on":null,"install_date":null}
-*-*-*-*-*-*-*-*-*

---------------------05:27:28
{"store_user_id":"6","email":"","status":"1","application_status":"1","application_language":"en","shop_name":"dashboardmanage.myshopify.com","password":"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","is_demand_accept":"0","charge":"0","price_id":null,"invoice_on":null,"operated_on":null,"test_finals_on":null,"removed_on":null,"store_name":"dashboardmanage.myshopify.com","api_key":"","store_idea":"","price_pattern":"","cash":"","store_holder":"","address11":"","address22":"","city":"","country_name":"","mobile_no":"","division":"","zip":"","timezone":"","america_timezone":"","domain":"","feedback_status":"0","block_status":"0","created_at":"2022-07-18 06:48:13","updated_at":"2022-07-18 06:48:13","uninstall_on":null,"install_date":null}
-*-*-*-*-*-*-*-*-*

---------------------05:27:33
{"store_user_id":"6","email":"","status":"1","application_status":"1","application_language":"en","shop_name":"dashboardmanage.myshopify.com","password":"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","is_demand_accept":"0","charge":"0","price_id":null,"invoice_on":null,"operated_on":null,"test_finals_on":null,"removed_on":null,"store_name":"dashboardmanage.myshopify.com","api_key":"","store_idea":"","price_pattern":"","cash":"","store_holder":"","address11":"","address22":"","city":"","country_name":"","mobile_no":"","division":"","zip":"","timezone":"","america_timezone":"","domain":"","feedback_status":"0","block_status":"0","created_at":"2022-07-18 06:48:13","updated_at":"2022-07-18 06:48:13","uninstall_on":null,"install_date":null}
-*-*-*-*-*-*-*-*-*

---------------------05:31:48
{"store_user_id":"6","email":"","status":"1","application_status":"1","application_language":"en","shop_name":"dashboardmanage.myshopify.com","password":"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","is_demand_accept":"0","charge":"0","price_id":null,"invoice_on":null,"operated_on":null,"test_finals_on":null,"removed_on":null,"store_name":"dashboardmanage.myshopify.com","api_key":"","store_idea":"","price_pattern":"","cash":"","store_holder":"","address11":"","address22":"","city":"","country_name":"","mobile_no":"","division":"","zip":"","timezone":"","america_timezone":"","domain":"","feedback_status":"0","block_status":"0","created_at":"2022-07-18 06:48:13","updated_at":"2022-07-18 06:48:13","uninstall_on":null,"install_date":null}
-*-*-*-*-*-*-*-*-*

---------------------05:32:36
{"store_user_id":"6","email":"","status":"1","application_status":"1","application_language":"en","shop_name":"dashboardmanage.myshopify.com","password":"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","is_demand_accept":"0","charge":"0","price_id":null,"invoice_on":null,"operated_on":null,"test_finals_on":null,"removed_on":null,"store_name":"dashboardmanage.myshopify.com","api_key":"","store_idea":"","price_pattern":"","cash":"","store_holder":"","address11":"","address22":"","city":"","country_name":"","mobile_no":"","division":"","zip":"","timezone":"","america_timezone":"","domain":"","feedback_status":"0","block_status":"0","created_at":"2022-07-18 06:48:13","updated_at":"2022-07-18 06:48:13","uninstall_on":null,"install_date":null}
-*-*-*-*-*-*-*-*-*

---------------------05:33:30
{"store_user_id":"6","email":"","status":"1","application_status":"1","application_language":"en","shop_name":"dashboardmanage.myshopify.com","password":"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","is_demand_accept":"0","charge":"0","price_id":null,"invoice_on":null,"operated_on":null,"test_finals_on":null,"removed_on":null,"store_name":"dashboardmanage.myshopify.com","api_key":"","store_idea":"","price_pattern":"","cash":"","store_holder":"","address11":"","address22":"","city":"","country_name":"","mobile_no":"","division":"","zip":"","timezone":"","america_timezone":"","domain":"","feedback_status":"0","block_status":"0","created_at":"2022-07-18 06:48:13","updated_at":"2022-07-18 06:48:13","uninstall_on":null,"install_date":null}
-*-*-*-*-*-*-*-*-*

---------------------05:33:36
{"store_user_id":"6","email":"","status":"1","application_status":"1","application_language":"en","shop_name":"dashboardmanage.myshopify.com","password":"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","is_demand_accept":"0","charge":"0","price_id":null,"invoice_on":null,"operated_on":null,"test_finals_on":null,"removed_on":null,"store_name":"dashboardmanage.myshopify.com","api_key":"","store_idea":"","price_pattern":"","cash":"","store_holder":"","address11":"","address22":"","city":"","country_name":"","mobile_no":"","division":"","zip":"","timezone":"","america_timezone":"","domain":"","feedback_status":"0","block_status":"0","created_at":"2022-07-18 06:48:13","updated_at":"2022-07-18 06:48:13","uninstall_on":null,"install_date":null}
-*-*-*-*-*-*-*-*-*

---------------------05:34:40
{"store_user_id":"6","email":"","status":"1","application_status":"1","application_language":"en","shop_name":"dashboardmanage.myshopify.com","password":"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","is_demand_accept":"0","charge":"0","price_id":null,"invoice_on":null,"operated_on":null,"test_finals_on":null,"removed_on":null,"store_name":"dashboardmanage.myshopify.com","api_key":"","store_idea":"","price_pattern":"","cash":"","store_holder":"","address11":"","address22":"","city":"","country_name":"","mobile_no":"","division":"","zip":"","timezone":"","america_timezone":"","domain":"","feedback_status":"0","block_status":"0","created_at":"2022-07-18 06:48:13","updated_at":"2022-07-18 06:48:13","uninstall_on":null,"install_date":null}
-*-*-*-*-*-*-*-*-*

---------------------05:36:48
{"store_user_id":"6","email":"","status":"1","application_status":"1","application_language":"en","shop_name":"dashboardmanage.myshopify.com","password":"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","is_demand_accept":"0","charge":"0","price_id":null,"invoice_on":null,"operated_on":null,"test_finals_on":null,"removed_on":null,"store_name":"dashboardmanage.myshopify.com","api_key":"","store_idea":"","price_pattern":"","cash":"","store_holder":"","address11":"","address22":"","city":"","country_name":"","mobile_no":"","division":"","zip":"","timezone":"","america_timezone":"","domain":"","feedback_status":"0","block_status":"0","created_at":"2022-07-18 06:48:13","updated_at":"2022-07-18 06:48:13","uninstall_on":null,"install_date":null}
-*-*-*-*-*-*-*-*-*

---------------------05:40:56
{"store_user_id":"6","email":"","status":"1","application_status":"1","application_language":"en","shop_name":"dashboardmanage.myshopify.com","password":"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","is_demand_accept":"0","charge":"0","price_id":null,"invoice_on":null,"operated_on":null,"test_finals_on":null,"removed_on":null,"store_name":"dashboardmanage.myshopify.com","api_key":"","store_idea":"","price_pattern":"","cash":"","store_holder":"","address11":"","address22":"","city":"","country_name":"","mobile_no":"","division":"","zip":"","timezone":"","america_timezone":"","domain":"","feedback_status":"0","block_status":"0","created_at":"2022-07-18 06:48:13","updated_at":"2022-07-18 06:48:13","uninstall_on":null,"install_date":null}
-*-*-*-*-*-*-*-*-*

---------------------05:41:47
{"store_user_id":"6","email":"","status":"1","application_status":"1","application_language":"en","shop_name":"dashboardmanage.myshopify.com","password":"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","is_demand_accept":"0","charge":"0","price_id":null,"invoice_on":null,"operated_on":null,"test_finals_on":null,"removed_on":null,"store_name":"dashboardmanage.myshopify.com","api_key":"","store_idea":"","price_pattern":"","cash":"","store_holder":"","address11":"","address22":"","city":"","country_name":"","mobile_no":"","division":"","zip":"","timezone":"","america_timezone":"","domain":"","feedback_status":"0","block_status":"0","created_at":"2022-07-18 06:48:13","updated_at":"2022-07-18 06:48:13","uninstall_on":null,"install_date":null}
-*-*-*-*-*-*-*-*-*

---------------------05:42:44
{"store_user_id":"6","email":"","status":"1","application_status":"1","application_language":"en","shop_name":"dashboardmanage.myshopify.com","password":"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","is_demand_accept":"0","charge":"0","price_id":null,"invoice_on":null,"operated_on":null,"test_finals_on":null,"removed_on":null,"store_name":"dashboardmanage.myshopify.com","api_key":"","store_idea":"","price_pattern":"","cash":"","store_holder":"","address11":"","address22":"","city":"","country_name":"","mobile_no":"","division":"","zip":"","timezone":"","america_timezone":"","domain":"","feedback_status":"0","block_status":"0","created_at":"2022-07-18 06:48:13","updated_at":"2022-07-18 06:48:13","uninstall_on":null,"install_date":null}
-*-*-*-*-*-*-*-*-*

---------------------05:43:06
{"store_user_id":"6","email":"","status":"1","application_status":"1","application_language":"en","shop_name":"dashboardmanage.myshopify.com","password":"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","is_demand_accept":"0","charge":"0","price_id":null,"invoice_on":null,"operated_on":null,"test_finals_on":null,"removed_on":null,"store_name":"dashboardmanage.myshopify.com","api_key":"","store_idea":"","price_pattern":"","cash":"","store_holder":"","address11":"","address22":"","city":"","country_name":"","mobile_no":"","division":"","zip":"","timezone":"","america_timezone":"","domain":"","feedback_status":"0","block_status":"0","created_at":"2022-07-18 06:48:13","updated_at":"2022-07-18 06:48:13","uninstall_on":null,"install_date":null}
-*-*-*-*-*-*-*-*-*

---------------------05:43:17
{"store_user_id":"6","email":"","status":"1","application_status":"1","application_language":"en","shop_name":"dashboardmanage.myshopify.com","password":"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","is_demand_accept":"0","charge":"0","price_id":null,"invoice_on":null,"operated_on":null,"test_finals_on":null,"removed_on":null,"store_name":"dashboardmanage.myshopify.com","api_key":"","store_idea":"","price_pattern":"","cash":"","store_holder":"","address11":"","address22":"","city":"","country_name":"","mobile_no":"","division":"","zip":"","timezone":"","america_timezone":"","domain":"","feedback_status":"0","block_status":"0","created_at":"2022-07-18 06:48:13","updated_at":"2022-07-18 06:48:13","uninstall_on":null,"install_date":null}
-*-*-*-*-*-*-*-*-*

---------------------05:46:01
{"store_user_id":"6","email":"","status":"1","application_status":"1","application_language":"en","shop_name":"dashboardmanage.myshopify.com","password":"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","is_demand_accept":"0","charge":"0","price_id":null,"invoice_on":null,"operated_on":null,"test_finals_on":null,"removed_on":null,"store_name":"dashboardmanage.myshopify.com","api_key":"","store_idea":"","price_pattern":"","cash":"","store_holder":"","address11":"","address22":"","city":"","country_name":"","mobile_no":"","division":"","zip":"","timezone":"","america_timezone":"","domain":"","feedback_status":"0","block_status":"0","created_at":"2022-07-18 06:48:13","updated_at":"2022-07-18 06:48:13","uninstall_on":null,"install_date":null}
-*-*-*-*-*-*-*-*-*

---------------------05:47:53
{"store_user_id":"6","email":"","status":"1","application_status":"1","application_language":"en","shop_name":"dashboardmanage.myshopify.com","password":"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","is_demand_accept":"0","charge":"0","price_id":null,"invoice_on":null,"operated_on":null,"test_finals_on":null,"removed_on":null,"store_name":"dashboardmanage.myshopify.com","api_key":"","store_idea":"","price_pattern":"","cash":"","store_holder":"","address11":"","address22":"","city":"","country_name":"","mobile_no":"","division":"","zip":"","timezone":"","america_timezone":"","domain":"","feedback_status":"0","block_status":"0","created_at":"2022-07-18 06:48:13","updated_at":"2022-07-18 06:48:13","uninstall_on":null,"install_date":null}
-*-*-*-*-*-*-*-*-*

---------------------05:48:03
{"store_user_id":"6","email":"","status":"1","application_status":"1","application_language":"en","shop_name":"dashboardmanage.myshopify.com","password":"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","is_demand_accept":"0","charge":"0","price_id":null,"invoice_on":null,"operated_on":null,"test_finals_on":null,"removed_on":null,"store_name":"dashboardmanage.myshopify.com","api_key":"","store_idea":"","price_pattern":"","cash":"","store_holder":"","address11":"","address22":"","city":"","country_name":"","mobile_no":"","division":"","zip":"","timezone":"","america_timezone":"","domain":"","feedback_status":"0","block_status":"0","created_at":"2022-07-18 06:48:13","updated_at":"2022-07-18 06:48:13","uninstall_on":null,"install_date":null}
-*-*-*-*-*-*-*-*-*

---------------------05:48:21
{"store_user_id":"6","email":"","status":"1","application_status":"1","application_language":"en","shop_name":"dashboardmanage.myshopify.com","password":"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","is_demand_accept":"0","charge":"0","price_id":null,"invoice_on":null,"operated_on":null,"test_finals_on":null,"removed_on":null,"store_name":"dashboardmanage.myshopify.com","api_key":"","store_idea":"","price_pattern":"","cash":"","store_holder":"","address11":"","address22":"","city":"","country_name":"","mobile_no":"","division":"","zip":"","timezone":"","america_timezone":"","domain":"","feedback_status":"0","block_status":"0","created_at":"2022-07-18 06:48:13","updated_at":"2022-07-18 06:48:13","uninstall_on":null,"install_date":null}
-*-*-*-*-*-*-*-*-*

---------------------05:48:27
{"store_user_id":"6","email":"","status":"1","application_status":"1","application_language":"en","shop_name":"dashboardmanage.myshopify.com","password":"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","is_demand_accept":"0","charge":"0","price_id":null,"invoice_on":null,"operated_on":null,"test_finals_on":null,"removed_on":null,"store_name":"dashboardmanage.myshopify.com","api_key":"","store_idea":"","price_pattern":"","cash":"","store_holder":"","address11":"","address22":"","city":"","country_name":"","mobile_no":"","division":"","zip":"","timezone":"","america_timezone":"","domain":"","feedback_status":"0","block_status":"0","created_at":"2022-07-18 06:48:13","updated_at":"2022-07-18 06:48:13","uninstall_on":null,"install_date":null}
-*-*-*-*-*-*-*-*-*

---------------------05:49:40
{"store_user_id":"6","email":"","status":"1","application_status":"1","application_language":"en","shop_name":"dashboardmanage.myshopify.com","password":"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","is_demand_accept":"0","charge":"0","price_id":null,"invoice_on":null,"operated_on":null,"test_finals_on":null,"removed_on":null,"store_name":"dashboardmanage.myshopify.com","api_key":"","store_idea":"","price_pattern":"","cash":"","store_holder":"","address11":"","address22":"","city":"","country_name":"","mobile_no":"","division":"","zip":"","timezone":"","america_timezone":"","domain":"","feedback_status":"0","block_status":"0","created_at":"2022-07-18 06:48:13","updated_at":"2022-07-18 06:48:13","uninstall_on":null,"install_date":null}
-*-*-*-*-*-*-*-*-*

---------------------05:49:52
{"store_user_id":"6","email":"","status":"1","application_status":"1","application_language":"en","shop_name":"dashboardmanage.myshopify.com","password":"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","is_demand_accept":"0","charge":"0","price_id":null,"invoice_on":null,"operated_on":null,"test_finals_on":null,"removed_on":null,"store_name":"dashboardmanage.myshopify.com","api_key":"","store_idea":"","price_pattern":"","cash":"","store_holder":"","address11":"","address22":"","city":"","country_name":"","mobile_no":"","division":"","zip":"","timezone":"","america_timezone":"","domain":"","feedback_status":"0","block_status":"0","created_at":"2022-07-18 06:48:13","updated_at":"2022-07-18 06:48:13","uninstall_on":null,"install_date":null}
-*-*-*-*-*-*-*-*-*

---------------------05:50:22
{"store_user_id":"6","email":"","status":"1","application_status":"1","application_language":"en","shop_name":"dashboardmanage.myshopify.com","password":"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","is_demand_accept":"0","charge":"0","price_id":null,"invoice_on":null,"operated_on":null,"test_finals_on":null,"removed_on":null,"store_name":"dashboardmanage.myshopify.com","api_key":"","store_idea":"","price_pattern":"","cash":"","store_holder":"","address11":"","address22":"","city":"","country_name":"","mobile_no":"","division":"","zip":"","timezone":"","america_timezone":"","domain":"","feedback_status":"0","block_status":"0","created_at":"2022-07-18 06:48:13","updated_at":"2022-07-18 06:48:13","uninstall_on":null,"install_date":null}
-*-*-*-*-*-*-*-*-*

---------------------05:52:06
{"store_user_id":"6","email":"","status":"1","application_status":"1","application_language":"en","shop_name":"dashboardmanage.myshopify.com","password":"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","is_demand_accept":"0","charge":"0","price_id":null,"invoice_on":null,"operated_on":null,"test_finals_on":null,"removed_on":null,"store_name":"dashboardmanage.myshopify.com","api_key":"","store_idea":"","price_pattern":"","cash":"","store_holder":"","address11":"","address22":"","city":"","country_name":"","mobile_no":"","division":"","zip":"","timezone":"","america_timezone":"","domain":"","feedback_status":"0","block_status":"0","created_at":"2022-07-18 06:48:13","updated_at":"2022-07-18 06:48:13","uninstall_on":null,"install_date":null}
-*-*-*-*-*-*-*-*-*

---------------------05:52:08
{"store_user_id":"6","email":"","status":"1","application_status":"1","application_language":"en","shop_name":"dashboardmanage.myshopify.com","password":"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","is_demand_accept":"0","charge":"0","price_id":null,"invoice_on":null,"operated_on":null,"test_finals_on":null,"removed_on":null,"store_name":"dashboardmanage.myshopify.com","api_key":"","store_idea":"","price_pattern":"","cash":"","store_holder":"","address11":"","address22":"","city":"","country_name":"","mobile_no":"","division":"","zip":"","timezone":"","america_timezone":"","domain":"","feedback_status":"0","block_status":"0","created_at":"2022-07-18 06:48:13","updated_at":"2022-07-18 06:48:13","uninstall_on":null,"install_date":null}
-*-*-*-*-*-*-*-*-*

---------------------05:52:18
{"store_user_id":"6","email":"","status":"1","application_status":"1","application_language":"en","shop_name":"dashboardmanage.myshopify.com","password":"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","is_demand_accept":"0","charge":"0","price_id":null,"invoice_on":null,"operated_on":null,"test_finals_on":null,"removed_on":null,"store_name":"dashboardmanage.myshopify.com","api_key":"","store_idea":"","price_pattern":"","cash":"","store_holder":"","address11":"","address22":"","city":"","country_name":"","mobile_no":"","division":"","zip":"","timezone":"","america_timezone":"","domain":"","feedback_status":"0","block_status":"0","created_at":"2022-07-18 06:48:13","updated_at":"2022-07-18 06:48:13","uninstall_on":null,"install_date":null}
-*-*-*-*-*-*-*-*-*

---------------------05:53:09
{"store_user_id":"6","email":"","status":"1","application_status":"1","application_language":"en","shop_name":"dashboardmanage.myshopify.com","password":"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","is_demand_accept":"0","charge":"0","price_id":null,"invoice_on":null,"operated_on":null,"test_finals_on":null,"removed_on":null,"store_name":"dashboardmanage.myshopify.com","api_key":"","store_idea":"","price_pattern":"","cash":"","store_holder":"","address11":"","address22":"","city":"","country_name":"","mobile_no":"","division":"","zip":"","timezone":"","america_timezone":"","domain":"","feedback_status":"0","block_status":"0","created_at":"2022-07-18 06:48:13","updated_at":"2022-07-18 06:48:13","uninstall_on":null,"install_date":null}
-*-*-*-*-*-*-*-*-*

---------------------05:53:12
{"store_user_id":"6","email":"","status":"1","application_status":"1","application_language":"en","shop_name":"dashboardmanage.myshopify.com","password":"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","is_demand_accept":"0","charge":"0","price_id":null,"invoice_on":null,"operated_on":null,"test_finals_on":null,"removed_on":null,"store_name":"dashboardmanage.myshopify.com","api_key":"","store_idea":"","price_pattern":"","cash":"","store_holder":"","address11":"","address22":"","city":"","country_name":"","mobile_no":"","division":"","zip":"","timezone":"","america_timezone":"","domain":"","feedback_status":"0","block_status":"0","created_at":"2022-07-18 06:48:13","updated_at":"2022-07-18 06:48:13","uninstall_on":null,"install_date":null}
-*-*-*-*-*-*-*-*-*

---------------------05:53:26
{"store_user_id":"6","email":"","status":"1","application_status":"1","application_language":"en","shop_name":"dashboardmanage.myshopify.com","password":"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","is_demand_accept":"0","charge":"0","price_id":null,"invoice_on":null,"operated_on":null,"test_finals_on":null,"removed_on":null,"store_name":"dashboardmanage.myshopify.com","api_key":"","store_idea":"","price_pattern":"","cash":"","store_holder":"","address11":"","address22":"","city":"","country_name":"","mobile_no":"","division":"","zip":"","timezone":"","america_timezone":"","domain":"","feedback_status":"0","block_status":"0","created_at":"2022-07-18 06:48:13","updated_at":"2022-07-18 06:48:13","uninstall_on":null,"install_date":null}
-*-*-*-*-*-*-*-*-*

---------------------05:55:28
{"store_user_id":"6","email":"","status":"1","application_status":"1","application_language":"en","shop_name":"dashboardmanage.myshopify.com","password":"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","is_demand_accept":"0","charge":"0","price_id":null,"invoice_on":null,"operated_on":null,"test_finals_on":null,"removed_on":null,"store_name":"dashboardmanage.myshopify.com","api_key":"","store_idea":"","price_pattern":"","cash":"","store_holder":"","address11":"","address22":"","city":"","country_name":"","mobile_no":"","division":"","zip":"","timezone":"","america_timezone":"","domain":"","feedback_status":"0","block_status":"0","created_at":"2022-07-18 06:48:13","updated_at":"2022-07-18 06:48:13","uninstall_on":null,"install_date":null}
-*-*-*-*-*-*-*-*-*

---------------------05:55:41
{"store_user_id":"6","email":"","status":"1","application_status":"1","application_language":"en","shop_name":"dashboardmanage.myshopify.com","password":"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","is_demand_accept":"0","charge":"0","price_id":null,"invoice_on":null,"operated_on":null,"test_finals_on":null,"removed_on":null,"store_name":"dashboardmanage.myshopify.com","api_key":"","store_idea":"","price_pattern":"","cash":"","store_holder":"","address11":"","address22":"","city":"","country_name":"","mobile_no":"","division":"","zip":"","timezone":"","america_timezone":"","domain":"","feedback_status":"0","block_status":"0","created_at":"2022-07-18 06:48:13","updated_at":"2022-07-18 06:48:13","uninstall_on":null,"install_date":null}
-*-*-*-*-*-*-*-*-*

---------------------05:56:43
{"store_user_id":"6","email":"","status":"1","application_status":"1","application_language":"en","shop_name":"dashboardmanage.myshopify.com","password":"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","is_demand_accept":"0","charge":"0","price_id":null,"invoice_on":null,"operated_on":null,"test_finals_on":null,"removed_on":null,"store_name":"dashboardmanage.myshopify.com","api_key":"","store_idea":"","price_pattern":"","cash":"","store_holder":"","address11":"","address22":"","city":"","country_name":"","mobile_no":"","division":"","zip":"","timezone":"","america_timezone":"","domain":"","feedback_status":"0","block_status":"0","created_at":"2022-07-18 06:48:13","updated_at":"2022-07-18 06:48:13","uninstall_on":null,"install_date":null}
-*-*-*-*-*-*-*-*-*

---------------------05:58:42
{"store_user_id":"6","email":"","status":"1","application_status":"1","application_language":"en","shop_name":"dashboardmanage.myshopify.com","password":"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","is_demand_accept":"0","charge":"0","price_id":null,"invoice_on":null,"operated_on":null,"test_finals_on":null,"removed_on":null,"store_name":"dashboardmanage.myshopify.com","api_key":"","store_idea":"","price_pattern":"","cash":"","store_holder":"","address11":"","address22":"","city":"","country_name":"","mobile_no":"","division":"","zip":"","timezone":"","america_timezone":"","domain":"","feedback_status":"0","block_status":"0","created_at":"2022-07-18 06:48:13","updated_at":"2022-07-18 06:48:13","uninstall_on":null,"install_date":null}
-*-*-*-*-*-*-*-*-*

---------------------05:59:54
{"store_user_id":"6","email":"","status":"1","application_status":"1","application_language":"en","shop_name":"dashboardmanage.myshopify.com","password":"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","is_demand_accept":"0","charge":"0","price_id":null,"invoice_on":null,"operated_on":null,"test_finals_on":null,"removed_on":null,"store_name":"dashboardmanage.myshopify.com","api_key":"","store_idea":"","price_pattern":"","cash":"","store_holder":"","address11":"","address22":"","city":"","country_name":"","mobile_no":"","division":"","zip":"","timezone":"","america_timezone":"","domain":"","feedback_status":"0","block_status":"0","created_at":"2022-07-18 06:48:13","updated_at":"2022-07-18 06:48:13","uninstall_on":null,"install_date":null}
-*-*-*-*-*-*-*-*-*

---------------------06:02:06
{"store_user_id":"6","email":"","status":"1","application_status":"1","application_language":"en","shop_name":"dashboardmanage.myshopify.com","password":"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","is_demand_accept":"0","charge":"0","price_id":null,"invoice_on":null,"operated_on":null,"test_finals_on":null,"removed_on":null,"store_name":"dashboardmanage.myshopify.com","api_key":"","store_idea":"","price_pattern":"","cash":"","store_holder":"","address11":"","address22":"","city":"","country_name":"","mobile_no":"","division":"","zip":"","timezone":"","america_timezone":"","domain":"","feedback_status":"0","block_status":"0","created_at":"2022-07-18 06:48:13","updated_at":"2022-07-18 06:48:13","uninstall_on":null,"install_date":null}
-*-*-*-*-*-*-*-*-*

---------------------06:02:33
{"store_user_id":"6","email":"","status":"1","application_status":"1","application_language":"en","shop_name":"dashboardmanage.myshopify.com","password":"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","is_demand_accept":"0","charge":"0","price_id":null,"invoice_on":null,"operated_on":null,"test_finals_on":null,"removed_on":null,"store_name":"dashboardmanage.myshopify.com","api_key":"","store_idea":"","price_pattern":"","cash":"","store_holder":"","address11":"","address22":"","city":"","country_name":"","mobile_no":"","division":"","zip":"","timezone":"","america_timezone":"","domain":"","feedback_status":"0","block_status":"0","created_at":"2022-07-18 06:48:13","updated_at":"2022-07-18 06:48:13","uninstall_on":null,"install_date":null}
-*-*-*-*-*-*-*-*-*

---------------------06:04:27
{"store_user_id":"6","email":"","status":"1","application_status":"1","application_language":"en","shop_name":"dashboardmanage.myshopify.com","password":"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","is_demand_accept":"0","charge":"0","price_id":null,"invoice_on":null,"operated_on":null,"test_finals_on":null,"removed_on":null,"store_name":"dashboardmanage.myshopify.com","api_key":"","store_idea":"","price_pattern":"","cash":"","store_holder":"","address11":"","address22":"","city":"","country_name":"","mobile_no":"","division":"","zip":"","timezone":"","america_timezone":"","domain":"","feedback_status":"0","block_status":"0","created_at":"2022-07-18 06:48:13","updated_at":"2022-07-18 06:48:13","uninstall_on":null,"install_date":null}
-*-*-*-*-*-*-*-*-*

---------------------06:04:28
{"store_user_id":"6","email":"","status":"1","application_status":"1","application_language":"en","shop_name":"dashboardmanage.myshopify.com","password":"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","is_demand_accept":"0","charge":"0","price_id":null,"invoice_on":null,"operated_on":null,"test_finals_on":null,"removed_on":null,"store_name":"dashboardmanage.myshopify.com","api_key":"","store_idea":"","price_pattern":"","cash":"","store_holder":"","address11":"","address22":"","city":"","country_name":"","mobile_no":"","division":"","zip":"","timezone":"","america_timezone":"","domain":"","feedback_status":"0","block_status":"0","created_at":"2022-07-18 06:48:13","updated_at":"2022-07-18 06:48:13","uninstall_on":null,"install_date":null}
-*-*-*-*-*-*-*-*-*

---------------------06:05:23
{"store_user_id":"6","email":"","status":"1","application_status":"1","application_language":"en","shop_name":"dashboardmanage.myshopify.com","password":"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","is_demand_accept":"0","charge":"0","price_id":null,"invoice_on":null,"operated_on":null,"test_finals_on":null,"removed_on":null,"store_name":"dashboardmanage.myshopify.com","api_key":"","store_idea":"","price_pattern":"","cash":"","store_holder":"","address11":"","address22":"","city":"","country_name":"","mobile_no":"","division":"","zip":"","timezone":"","america_timezone":"","domain":"","feedback_status":"0","block_status":"0","created_at":"2022-07-18 06:48:13","updated_at":"2022-07-18 06:48:13","uninstall_on":null,"install_date":null}
-*-*-*-*-*-*-*-*-*

---------------------06:05:28
{"store_user_id":"6","email":"","status":"1","application_status":"1","application_language":"en","shop_name":"dashboardmanage.myshopify.com","password":"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","is_demand_accept":"0","charge":"0","price_id":null,"invoice_on":null,"operated_on":null,"test_finals_on":null,"removed_on":null,"store_name":"dashboardmanage.myshopify.com","api_key":"","store_idea":"","price_pattern":"","cash":"","store_holder":"","address11":"","address22":"","city":"","country_name":"","mobile_no":"","division":"","zip":"","timezone":"","america_timezone":"","domain":"","feedback_status":"0","block_status":"0","created_at":"2022-07-18 06:48:13","updated_at":"2022-07-18 06:48:13","uninstall_on":null,"install_date":null}
-*-*-*-*-*-*-*-*-*

---------------------06:11:34
{"store_user_id":"6","email":"","status":"1","application_status":"1","application_language":"en","shop_name":"dashboardmanage.myshopify.com","password":"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","is_demand_accept":"0","charge":"0","price_id":null,"invoice_on":null,"operated_on":null,"test_finals_on":null,"removed_on":null,"store_name":"dashboardmanage.myshopify.com","api_key":"","store_idea":"","price_pattern":"","cash":"","store_holder":"","address11":"","address22":"","city":"","country_name":"","mobile_no":"","division":"","zip":"","timezone":"","america_timezone":"","domain":"","feedback_status":"0","block_status":"0","created_at":"2022-07-18 06:48:13","updated_at":"2022-07-18 06:48:13","uninstall_on":null,"install_date":null}
-*-*-*-*-*-*-*-*-*

---------------------06:13:44
{"store_user_id":"6","email":"","status":"1","application_status":"1","application_language":"en","shop_name":"dashboardmanage.myshopify.com","password":"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","is_demand_accept":"0","charge":"0","price_id":null,"invoice_on":null,"operated_on":null,"test_finals_on":null,"removed_on":null,"store_name":"dashboardmanage.myshopify.com","api_key":"","store_idea":"","price_pattern":"","cash":"","store_holder":"","address11":"","address22":"","city":"","country_name":"","mobile_no":"","division":"","zip":"","timezone":"","america_timezone":"","domain":"","feedback_status":"0","block_status":"0","created_at":"2022-07-18 06:48:13","updated_at":"2022-07-18 06:48:13","uninstall_on":null,"install_date":null}
-*-*-*-*-*-*-*-*-*

---------------------06:38:49
{"store_user_id":"6","email":"","status":"1","application_status":"1","application_language":"en","shop_name":"dashboardmanage.myshopify.com","password":"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","is_demand_accept":"0","charge":"0","price_id":null,"invoice_on":null,"operated_on":null,"test_finals_on":null,"removed_on":null,"store_name":"dashboardmanage.myshopify.com","api_key":"","store_idea":"","price_pattern":"","cash":"","store_holder":"","address11":"","address22":"","city":"","country_name":"","mobile_no":"","division":"","zip":"","timezone":"","america_timezone":"","domain":"","feedback_status":"0","block_status":"0","created_at":"2022-07-18 06:48:13","updated_at":"2022-07-18 06:48:13","uninstall_on":null,"install_date":null}
-*-*-*-*-*-*-*-*-*

---------------------07:15:48
{"store_user_id":"6","email":"","status":"1","application_status":"1","application_language":"en","shop_name":"dashboardmanage.myshopify.com","password":"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","is_demand_accept":"0","charge":"0","price_id":null,"invoice_on":null,"operated_on":null,"test_finals_on":null,"removed_on":null,"store_name":"dashboardmanage.myshopify.com","api_key":"","store_idea":"","price_pattern":"","cash":"","store_holder":"","address11":"","address22":"","city":"","country_name":"","mobile_no":"","division":"","zip":"","timezone":"","america_timezone":"","domain":"","feedback_status":"0","block_status":"0","created_at":"2022-07-18 06:48:13","updated_at":"2022-07-18 06:48:13","uninstall_on":null,"install_date":null}
-*-*-*-*-*-*-*-*-*

---------------------07:15:58
{"store_user_id":"6","email":"","status":"1","application_status":"1","application_language":"en","shop_name":"dashboardmanage.myshopify.com","password":"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","is_demand_accept":"0","charge":"0","price_id":null,"invoice_on":null,"operated_on":null,"test_finals_on":null,"removed_on":null,"store_name":"dashboardmanage.myshopify.com","api_key":"","store_idea":"","price_pattern":"","cash":"","store_holder":"","address11":"","address22":"","city":"","country_name":"","mobile_no":"","division":"","zip":"","timezone":"","america_timezone":"","domain":"","feedback_status":"0","block_status":"0","created_at":"2022-07-18 06:48:13","updated_at":"2022-07-18 06:48:13","uninstall_on":null,"install_date":null}
-*-*-*-*-*-*-*-*-*

---------------------07:17:57
{"store_user_id":"6","email":"","status":"1","application_status":"1","application_language":"en","shop_name":"dashboardmanage.myshopify.com","password":"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","is_demand_accept":"0","charge":"0","price_id":null,"invoice_on":null,"operated_on":null,"test_finals_on":null,"removed_on":null,"store_name":"dashboardmanage.myshopify.com","api_key":"","store_idea":"","price_pattern":"","cash":"","store_holder":"","address11":"","address22":"","city":"","country_name":"","mobile_no":"","division":"","zip":"","timezone":"","america_timezone":"","domain":"","feedback_status":"0","block_status":"0","created_at":"2022-07-18 06:48:13","updated_at":"2022-07-18 06:48:13","uninstall_on":null,"install_date":null}
-*-*-*-*-*-*-*-*-*

---------------------07:18:36
{"store_user_id":"6","email":"","status":"1","application_status":"1","application_language":"en","shop_name":"dashboardmanage.myshopify.com","password":"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","is_demand_accept":"0","charge":"0","price_id":null,"invoice_on":null,"operated_on":null,"test_finals_on":null,"removed_on":null,"store_name":"dashboardmanage.myshopify.com","api_key":"","store_idea":"","price_pattern":"","cash":"","store_holder":"","address11":"","address22":"","city":"","country_name":"","mobile_no":"","division":"","zip":"","timezone":"","america_timezone":"","domain":"","feedback_status":"0","block_status":"0","created_at":"2022-07-18 06:48:13","updated_at":"2022-07-18 06:48:13","uninstall_on":null,"install_date":null}
-*-*-*-*-*-*-*-*-*

---------------------07:19:29
{"store_user_id":"6","email":"","status":"1","application_status":"1","application_language":"en","shop_name":"dashboardmanage.myshopify.com","password":"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","is_demand_accept":"0","charge":"0","price_id":null,"invoice_on":null,"operated_on":null,"test_finals_on":null,"removed_on":null,"store_name":"dashboardmanage.myshopify.com","api_key":"","store_idea":"","price_pattern":"","cash":"","store_holder":"","address11":"","address22":"","city":"","country_name":"","mobile_no":"","division":"","zip":"","timezone":"","america_timezone":"","domain":"","feedback_status":"0","block_status":"0","created_at":"2022-07-18 06:48:13","updated_at":"2022-07-18 06:48:13","uninstall_on":null,"install_date":null}
-*-*-*-*-*-*-*-*-*

---------------------07:20:49
{"store_user_id":"6","email":"","status":"1","application_status":"1","application_language":"en","shop_name":"dashboardmanage.myshopify.com","password":"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","is_demand_accept":"0","charge":"0","price_id":null,"invoice_on":null,"operated_on":null,"test_finals_on":null,"removed_on":null,"store_name":"dashboardmanage.myshopify.com","api_key":"","store_idea":"","price_pattern":"","cash":"","store_holder":"","address11":"","address22":"","city":"","country_name":"","mobile_no":"","division":"","zip":"","timezone":"","america_timezone":"","domain":"","feedback_status":"0","block_status":"0","created_at":"2022-07-18 06:48:13","updated_at":"2022-07-18 06:48:13","uninstall_on":null,"install_date":null}
-*-*-*-*-*-*-*-*-*

---------------------07:21:11
{"store_user_id":"6","email":"","status":"1","application_status":"1","application_language":"en","shop_name":"dashboardmanage.myshopify.com","password":"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","is_demand_accept":"0","charge":"0","price_id":null,"invoice_on":null,"operated_on":null,"test_finals_on":null,"removed_on":null,"store_name":"dashboardmanage.myshopify.com","api_key":"","store_idea":"","price_pattern":"","cash":"","store_holder":"","address11":"","address22":"","city":"","country_name":"","mobile_no":"","division":"","zip":"","timezone":"","america_timezone":"","domain":"","feedback_status":"0","block_status":"0","created_at":"2022-07-18 06:48:13","updated_at":"2022-07-18 06:48:13","uninstall_on":null,"install_date":null}
-*-*-*-*-*-*-*-*-*

---------------------07:21:43
{"store_user_id":"6","email":"","status":"1","application_status":"1","application_language":"en","shop_name":"dashboardmanage.myshopify.com","password":"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","is_demand_accept":"0","charge":"0","price_id":null,"invoice_on":null,"operated_on":null,"test_finals_on":null,"removed_on":null,"store_name":"dashboardmanage.myshopify.com","api_key":"","store_idea":"","price_pattern":"","cash":"","store_holder":"","address11":"","address22":"","city":"","country_name":"","mobile_no":"","division":"","zip":"","timezone":"","america_timezone":"","domain":"","feedback_status":"0","block_status":"0","created_at":"2022-07-18 06:48:13","updated_at":"2022-07-18 06:48:13","uninstall_on":null,"install_date":null}
-*-*-*-*-*-*-*-*-*

---------------------07:22:53
{"store_user_id":"6","email":"","status":"1","application_status":"1","application_language":"en","shop_name":"dashboardmanage.myshopify.com","password":"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","is_demand_accept":"0","charge":"0","price_id":null,"invoice_on":null,"operated_on":null,"test_finals_on":null,"removed_on":null,"store_name":"dashboardmanage.myshopify.com","api_key":"","store_idea":"","price_pattern":"","cash":"","store_holder":"","address11":"","address22":"","city":"","country_name":"","mobile_no":"","division":"","zip":"","timezone":"","america_timezone":"","domain":"","feedback_status":"0","block_status":"0","created_at":"2022-07-18 06:48:13","updated_at":"2022-07-18 06:48:13","uninstall_on":null,"install_date":null}
-*-*-*-*-*-*-*-*-*

---------------------07:23:19
{"store_user_id":"6","email":"","status":"1","application_status":"1","application_language":"en","shop_name":"dashboardmanage.myshopify.com","password":"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","is_demand_accept":"0","charge":"0","price_id":null,"invoice_on":null,"operated_on":null,"test_finals_on":null,"removed_on":null,"store_name":"dashboardmanage.myshopify.com","api_key":"","store_idea":"","price_pattern":"","cash":"","store_holder":"","address11":"","address22":"","city":"","country_name":"","mobile_no":"","division":"","zip":"","timezone":"","america_timezone":"","domain":"","feedback_status":"0","block_status":"0","created_at":"2022-07-18 06:48:13","updated_at":"2022-07-18 06:48:13","uninstall_on":null,"install_date":null}
-*-*-*-*-*-*-*-*-*