

---------------------03:45:41
STEP 1 START
-*-*-*-*-*-*-*-*-*

---------------------03:45:41
GET SHOP
-*-*-*-*-*-*-*-*-*

---------------------04:19:48
STEP 1 START
-*-*-*-*-*-*-*-*-*

---------------------04:19:48
GET SHOP
-*-*-*-*-*-*-*-*-*

---------------------07:29:08
STEP 1 START
-*-*-*-*-*-*-*-*-*

---------------------07:29:08
GET SHOP
-*-*-*-*-*-*-*-*-*

---------------------07:35:36
STEP 1 START
-*-*-*-*-*-*-*-*-*

---------------------07:35:36
GET SHOP
-*-*-*-*-*-*-*-*-*

---------------------13:19:58
STEP 1 START
-*-*-*-*-*-*-*-*-*

---------------------13:19:58
GET SHOP
-*-*-*-*-*-*-*-*-*

---------------------14:24:08
STEP 1 START
-*-*-*-*-*-*-*-*-*

---------------------14:24:08
GET SHOP
-*-*-*-*-*-*-*-*-*