

---------------------03:50:31
STEP 1 START
-*-*-*-*-*-*-*-*-*

---------------------03:50:31
GET SHOP
-*-*-*-*-*-*-*-*-*

---------------------04:25:57
STEP 1 START
-*-*-*-*-*-*-*-*-*

---------------------04:25:57
GET SHOP
-*-*-*-*-*-*-*-*-*

---------------------11:16:53
STEP 1 START
-*-*-*-*-*-*-*-*-*

---------------------11:16:53
GET SHOP
-*-*-*-*-*-*-*-*-*

---------------------11:41:58
STEP 1 START
-*-*-*-*-*-*-*-*-*

---------------------11:41:58
GET SHOP
-*-*-*-*-*-*-*-*-*

---------------------12:04:26
STEP 1 START
-*-*-*-*-*-*-*-*-*

---------------------12:04:26
GET SHOP
-*-*-*-*-*-*-*-*-*