

---------------------02:41:48
STEP 1 START
-*-*-*-*-*-*-*-*-*

---------------------02:41:48
GET SHOP
-*-*-*-*-*-*-*-*-*

---------------------02:52:58
STEP 1 START
-*-*-*-*-*-*-*-*-*

---------------------02:52:58
GET SHOP
-*-*-*-*-*-*-*-*-*

---------------------03:08:10
STEP 1 START
-*-*-*-*-*-*-*-*-*

---------------------03:08:10
GET SHOP
-*-*-*-*-*-*-*-*-*

---------------------03:11:52
STEP 1 START
-*-*-*-*-*-*-*-*-*

---------------------03:11:52
GET SHOP
-*-*-*-*-*-*-*-*-*

---------------------03:33:25
STEP 1 START
-*-*-*-*-*-*-*-*-*

---------------------03:33:25
GET SHOP
-*-*-*-*-*-*-*-*-*

---------------------03:34:46
STEP 1 START
-*-*-*-*-*-*-*-*-*

---------------------03:34:46
GET SHOP
-*-*-*-*-*-*-*-*-*

---------------------03:37:22
STEP 1 START
-*-*-*-*-*-*-*-*-*

---------------------03:37:22
GET SHOP
-*-*-*-*-*-*-*-*-*

---------------------03:37:49
STEP 1 START
-*-*-*-*-*-*-*-*-*

---------------------03:37:49
GET SHOP
-*-*-*-*-*-*-*-*-*

---------------------05:54:48
STEP 1 START
-*-*-*-*-*-*-*-*-*

---------------------05:54:48
GET SHOP
-*-*-*-*-*-*-*-*-*

---------------------07:59:12
STEP 1 START
-*-*-*-*-*-*-*-*-*

---------------------07:59:12
GET SHOP
-*-*-*-*-*-*-*-*-*

---------------------09:08:03
STEP 1 START
-*-*-*-*-*-*-*-*-*

---------------------09:08:03
GET SHOP
-*-*-*-*-*-*-*-*-*

---------------------09:29:08
STEP 1 START
-*-*-*-*-*-*-*-*-*

---------------------09:29:08
GET SHOP
-*-*-*-*-*-*-*-*-*

---------------------09:32:38
STEP 1 START
-*-*-*-*-*-*-*-*-*

---------------------09:32:38
GET SHOP
-*-*-*-*-*-*-*-*-*

---------------------09:36:54
STEP 1 START
-*-*-*-*-*-*-*-*-*

---------------------09:36:54
GET SHOP
-*-*-*-*-*-*-*-*-*

---------------------23:52:18
STEP 1 START
-*-*-*-*-*-*-*-*-*

---------------------23:52:18
GET SHOP
-*-*-*-*-*-*-*-*-*

---------------------23:53:35
STEP 1 START
-*-*-*-*-*-*-*-*-*

---------------------23:53:35
GET SHOP
-*-*-*-*-*-*-*-*-*

---------------------23:53:47
STEP 1 START
-*-*-*-*-*-*-*-*-*

---------------------23:53:47
GET SHOP
-*-*-*-*-*-*-*-*-*