

---------------------04:30:11
STEP 1 START
-*-*-*-*-*-*-*-*-*

---------------------04:30:11
STEP 1
-*-*-*-*-*-*-*-*-*

---------------------04:30:11
NOT GET SHOP
-*-*-*-*-*-*-*-*-*

---------------------04:30:11
POST DATA
-*-*-*-*-*-*-*-*-*

---------------------04:30:11
GET DATA
-*-*-*-*-*-*-*-*-*

---------------------04:35:10
STEP 1 START
-*-*-*-*-*-*-*-*-*

---------------------04:38:18
STEP 1 START
-*-*-*-*-*-*-*-*-*

---------------------04:38:22
STEP 1 START
-*-*-*-*-*-*-*-*-*

---------------------04:41:20
STEP 1 START
-*-*-*-*-*-*-*-*-*

---------------------04:42:28
STEP 1 START
-*-*-*-*-*-*-*-*-*

---------------------04:42:31
STEP 1 START
-*-*-*-*-*-*-*-*-*

---------------------04:43:31
STEP 1 START
-*-*-*-*-*-*-*-*-*

---------------------04:43:33
STEP 1 START
-*-*-*-*-*-*-*-*-*

---------------------04:44:51
STEP 1 START
-*-*-*-*-*-*-*-*-*

---------------------04:44:53
STEP 1 START
-*-*-*-*-*-*-*-*-*

---------------------04:45:14
STEP 1 START
-*-*-*-*-*-*-*-*-*

---------------------04:52:30
STEP 1 START
-*-*-*-*-*-*-*-*-*

---------------------04:53:00
STEP 1 START
-*-*-*-*-*-*-*-*-*

---------------------04:53:15
STEP 1 START
-*-*-*-*-*-*-*-*-*

---------------------04:54:27
STEP 1 START
-*-*-*-*-*-*-*-*-*

---------------------05:11:04
STEP 1 START
-*-*-*-*-*-*-*-*-*

---------------------06:09:07
STEP 1 START
-*-*-*-*-*-*-*-*-*

---------------------06:09:07
STEP 1
-*-*-*-*-*-*-*-*-*

---------------------06:09:07
GET SHOP
-*-*-*-*-*-*-*-*-*

---------------------06:09:14
STEP 1 START
-*-*-*-*-*-*-*-*-*

---------------------06:09:14
STEP 1
-*-*-*-*-*-*-*-*-*

---------------------06:09:14
GET SHOP
-*-*-*-*-*-*-*-*-*

---------------------06:09:15
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GET status 0
-*-*-*-*-*-*-*-*-*

---------------------06:09:15
"{\"shop\":{\"id\":61863887053,\"name\":\"postcodeapp\",\"email\":\"codelock2021@gmail.com\",\"domain\":\"postcodeapp.myshopify.com\",\"province\":\"Gujarat\",\"country\":\"IN\",\"address1\":\"2020, Silver business point\",\"zip\":\"394105\",\"city\":\"Surat\",\"source\":\"microapps\",\"phone\":\"\",\"latitude\":21.2335121,\"longitude\":72.8636064,\"primary_locale\":\"en\",\"address2\":null,\"created_at\":\"2022-05-16T15:05:54+05:30\",\"updated_at\":\"2022-05-28T11:35:27+05:30\",\"country_code\":\"IN\",\"country_name\":\"India\",\"currency\":\"INR\",\"customer_email\":\"codelock2021@gmail.com\",\"timezone\":\"(GMT+05:30) Asia\\\/Calcutta\",\"iana_timezone\":\"Asia\\\/Calcutta\",\"shop_owner\":\"Codelock Solutions\",\"money_format\":\"Rs. {{amount}}\",\"money_with_currency_format\":\"Rs. {{amount}}\",\"weight_unit\":\"kg\",\"province_code\":\"GJ\",\"taxes_included\":false,\"auto_configure_tax_inclusivity\":null,\"tax_shipping\":null,\"county_taxes\":true,\"plan_display_name\":\"Developer Preview\",\"plan_name\":\"partner_test\",\"has_discounts\":false,\"has_gift_cards\":false,\"myshopify_domain\":\"postcodeapp.myshopify.com\",\"google_apps_domain\":null,\"google_apps_login_enabled\":null,\"money_in_emails_format\":\"Rs. {{amount}}\",\"money_with_currency_in_emails_format\":\"Rs. {{amount}}\",\"eligible_for_payments\":false,\"requires_extra_payments_agreement\":false,\"password_enabled\":true,\"has_storefront\":true,\"eligible_for_card_reader_giveaway\":false,\"finances\":true,\"primary_location_id\":66771026125,\"cookie_consent_level\":\"implicit\",\"visitor_tracking_consent_preference\":\"allow_all\",\"checkout_api_supported\":false,\"multi_location_enabled\":true,\"setup_required\":false,\"pre_launch_enabled\":false,\"enabled_presentment_currencies\":[\"INR\"]}}"shopuinfo
-*-*-*-*-*-*-*-*-*

---------------------06:09:15
"{\"shop\":{\"id\":61863887053,\"name\":\"postcodeapp\",\"email\":\"codelock2021@gmail.com\",\"domain\":\"postcodeapp.myshopify.com\",\"province\":\"Gujarat\",\"country\":\"IN\",\"address1\":\"2020, Silver business point\",\"zip\":\"394105\",\"city\":\"Surat\",\"source\":\"microapps\",\"phone\":\"\",\"latitude\":21.2335121,\"longitude\":72.8636064,\"primary_locale\":\"en\",\"address2\":null,\"created_at\":\"2022-05-16T15:05:54+05:30\",\"updated_at\":\"2022-05-28T11:35:27+05:30\",\"country_code\":\"IN\",\"country_name\":\"India\",\"currency\":\"INR\",\"customer_email\":\"codelock2021@gmail.com\",\"timezone\":\"(GMT+05:30) Asia\\\/Calcutta\",\"iana_timezone\":\"Asia\\\/Calcutta\",\"shop_owner\":\"Codelock Solutions\",\"money_format\":\"Rs. {{amount}}\",\"money_with_currency_format\":\"Rs. {{amount}}\",\"weight_unit\":\"kg\",\"province_code\":\"GJ\",\"taxes_included\":false,\"auto_configure_tax_inclusivity\":null,\"tax_shipping\":null,\"county_taxes\":true,\"plan_display_name\":\"Developer Preview\",\"plan_name\":\"partner_test\",\"has_discounts\":false,\"has_gift_cards\":false,\"myshopify_domain\":\"postcodeapp.myshopify.com\",\"google_apps_domain\":null,\"google_apps_login_enabled\":null,\"money_in_emails_format\":\"Rs. {{amount}}\",\"money_with_currency_in_emails_format\":\"Rs. {{amount}}\",\"eligible_for_payments\":false,\"requires_extra_payments_agreement\":false,\"password_enabled\":true,\"has_storefront\":true,\"eligible_for_card_reader_giveaway\":false,\"finances\":true,\"primary_location_id\":66771026125,\"cookie_consent_level\":\"implicit\",\"visitor_tracking_consent_preference\":\"allow_all\",\"checkout_api_supported\":false,\"multi_location_enabled\":true,\"setup_required\":false,\"pre_launch_enabled\":false,\"enabled_presentment_currencies\":[\"INR\"]}}"decode shopuinfo
-*-*-*-*-*-*-*-*-*

---------------------06:09:18
null
-*-*-*-*-*-*-*-*-*

---------------------06:11:07
STEP 1 START
-*-*-*-*-*-*-*-*-*

---------------------06:11:07
STEP 1
-*-*-*-*-*-*-*-*-*

---------------------06:11:07
GET SHOP
-*-*-*-*-*-*-*-*-*

---------------------06:13:34
STEP 1 START
-*-*-*-*-*-*-*-*-*

---------------------06:13:34
STEP 1
-*-*-*-*-*-*-*-*-*

---------------------06:13:34
GET SHOP
-*-*-*-*-*-*-*-*-*

---------------------10:28:35
STEP 1 START
-*-*-*-*-*-*-*-*-*

---------------------10:28:35
STEP 1
-*-*-*-*-*-*-*-*-*

---------------------10:28:35
GET SHOP
-*-*-*-*-*-*-*-*-*