

---------------------07:15:48

-*-*-*-*-*-*-*-*-*

---------------------07:15:48

-*-*-*-*-*-*-*-*-*

---------------------07:15:49
https://www.happyeventsurat.com/postcode_public/user/?shop=clsapps.myshopify.com
-*-*-*-*-*-*-*-*-*

---------------------07:15:49

-*-*-*-*-*-*-*-*-*

---------------------07:15:49
https://www.happyeventsurat.com/postcode_public/user/?shop=clsapps.myshopify.com
-*-*-*-*-*-*-*-*-*

---------------------07:15:49

-*-*-*-*-*-*-*-*-*

---------------------07:19:38

-*-*-*-*-*-*-*-*-*

---------------------07:19:38

-*-*-*-*-*-*-*-*-*

---------------------07:19:39
https://www.happyeventsurat.com/postcode_public/user/?shop=clsapps.myshopify.com
-*-*-*-*-*-*-*-*-*

---------------------07:19:39

-*-*-*-*-*-*-*-*-*

---------------------07:19:39
https://www.happyeventsurat.com/postcode_public/user/?shop=clsapps.myshopify.com
-*-*-*-*-*-*-*-*-*

---------------------07:19:39

-*-*-*-*-*-*-*-*-*

---------------------07:39:46

-*-*-*-*-*-*-*-*-*

---------------------07:39:46

-*-*-*-*-*-*-*-*-*

---------------------07:39:47
https://www.happyeventsurat.com/postcode_public/user/?shop=clsapps.myshopify.com
-*-*-*-*-*-*-*-*-*

---------------------07:39:47

-*-*-*-*-*-*-*-*-*