

---------------------06:09:14
ArrayGET SHOP
-*-*-*-*-*-*-*-*-*

---------------------06:09:18
Location: https://codelocksolutions.in/postcode/user/?store=postcodeapp.myshopify.com
-*-*-*-*-*-*-*-*-*