

---------------------04:53:48
ArrayGET SHOP
-*-*-*-*-*-*-*-*-*

---------------------04:53:50
Location: https://www.happyeventsurat.com/postcode/user/?store=dashboardmanage.myshopify.com
-*-*-*-*-*-*-*-*-*