

---------------------03:49:12
{"status":"1","data":{"id":"8","store_user_id":"10","zonename":"Test","zonearea":"5000","zoneprice":"1000","zonestatus":"1","status":"1","created_at":"2022-06-21 09:40:07","updated_at":"2022-06-21 09:40:07"}}
-*-*-*-*-*-*-*-*-*

---------------------03:59:34
{"status":"1","data":{"id":"8","store_user_id":"10","zonename":"Test","zonearea":"5000","zoneprice":"1000","zonestatus":"1","status":"1","created_at":"2022-06-21 09:40:07","updated_at":"2022-06-21 09:40:07"}}
-*-*-*-*-*-*-*-*-*

---------------------03:59:34
{"status":"1","data":{"id":"8","store_user_id":"10","zonename":"Test","zonearea":"5000","zoneprice":"1000","zonestatus":"1","status":"1","created_at":"2022-06-21 09:40:07","updated_at":"2022-06-21 09:40:07"}}
-*-*-*-*-*-*-*-*-*

---------------------05:21:56
{"status":"1","data":{"id":"8","store_user_id":"10","zonename":"Test","zonearea":"5000","zoneprice":"1000","zonestatus":"1","status":"1","created_at":"2022-06-21 09:40:07","updated_at":"2022-06-21 09:40:07"}}
-*-*-*-*-*-*-*-*-*

---------------------06:29:13
{"status":"1","data":{"id":"8","store_user_id":"10","zonename":"Test","zonearea":"5000","zoneprice":"1000","zonestatus":"1","status":"1","created_at":"2022-06-21 09:40:07","updated_at":"2022-06-21 09:40:07"}}
-*-*-*-*-*-*-*-*-*

---------------------07:09:16
{"status":"1","data":{"id":"8","store_user_id":"10","zonename":"Test","zonearea":"5000","zoneprice":"1000","zonestatus":"1","status":"1","created_at":"2022-06-21 09:40:07","updated_at":"2022-06-21 09:40:07"}}
-*-*-*-*-*-*-*-*-*

---------------------07:17:30
{"status":"1","data":{"id":"8","store_user_id":"10","zonename":"Test","zonearea":"5000","zoneprice":"1000","zonestatus":"1","status":"1","created_at":"2022-06-21 09:40:07","updated_at":"2022-06-21 09:40:07"}}
-*-*-*-*-*-*-*-*-*

---------------------07:17:41
{"status":"1","data":{"id":"8","store_user_id":"10","zonename":"Test","zonearea":"5000","zoneprice":"1000","zonestatus":"1","status":"1","created_at":"2022-06-21 09:40:07","updated_at":"2022-06-21 09:40:07"}}
-*-*-*-*-*-*-*-*-*

---------------------07:18:44
{"status":"1","data":{"id":"8","store_user_id":"10","zonename":"Test","zonearea":"5000","zoneprice":"1000","zonestatus":"1","status":"1","created_at":"2022-06-21 09:40:07","updated_at":"2022-06-21 09:40:07"}}
-*-*-*-*-*-*-*-*-*

---------------------07:27:00
{"status":"1","data":{"id":"8","store_user_id":"10","zonename":"Test","zonearea":"5000","zoneprice":"1000","zonestatus":"1","status":"1","created_at":"2022-06-21 09:40:07","updated_at":"2022-06-21 09:40:07"}}
-*-*-*-*-*-*-*-*-*

---------------------07:27:51
{"status":"1","data":{"id":"8","store_user_id":"10","zonename":"Test","zonearea":"5000","zoneprice":"1000","zonestatus":"1","status":"1","created_at":"2022-06-21 09:40:07","updated_at":"2022-06-21 09:40:07"}}
-*-*-*-*-*-*-*-*-*

---------------------07:27:55
{"status":"1","data":{"id":"8","store_user_id":"10","zonename":"Test","zonearea":"5000","zoneprice":"1000","zonestatus":"1","status":"1","created_at":"2022-06-21 09:40:07","updated_at":"2022-06-21 09:40:07"}}
-*-*-*-*-*-*-*-*-*

---------------------07:30:09
{"status":"1","data":{"id":"8","store_user_id":"10","zonename":"Test","zonearea":"5000","zoneprice":"1000","zonestatus":"1","status":"1","created_at":"2022-06-21 09:40:07","updated_at":"2022-06-21 09:40:07"}}
-*-*-*-*-*-*-*-*-*

---------------------07:30:12
{"status":"1","data":{"id":"9","store_user_id":"10","zonename":"\u00c5lborg","zonearea":"5200","zoneprice":"1000","zonestatus":"1","status":"1","created_at":"2022-06-24 07:29:47","updated_at":"2022-06-24 07:29:47"}}
-*-*-*-*-*-*-*-*-*

---------------------07:35:00
{"status":"1","data":{"id":"8","store_user_id":"10","zonename":"Test","zonearea":"5000","zoneprice":"1000","zonestatus":"1","status":"1","created_at":"2022-06-21 09:40:07","updated_at":"2022-06-21 09:40:07"}}
-*-*-*-*-*-*-*-*-*

---------------------07:35:08
{"status":0,"data":null}
-*-*-*-*-*-*-*-*-*

---------------------07:36:01
{"status":"1","data":{"id":"9","store_user_id":"10","zonename":"\u00c5lborg","zonearea":"5200","zoneprice":"1000000","zonestatus":"1","status":"1","created_at":"2022-06-24 07:29:47","updated_at":"2022-06-24 07:29:47"}}
-*-*-*-*-*-*-*-*-*

---------------------07:36:45
{"status":"1","data":{"id":"8","store_user_id":"10","zonename":"Test","zonearea":"5000","zoneprice":"1000","zonestatus":"1","status":"1","created_at":"2022-06-21 09:40:07","updated_at":"2022-06-21 09:40:07"}}
-*-*-*-*-*-*-*-*-*