

---------------------05:08:31
{"status":"1","data":{"id":"8","store_user_id":"10","zonename":"Test","zonearea":"5000","zoneprice":"1000","zonestatus":"1","status":"1","created_at":"2022-06-21 09:40:07","updated_at":"2022-06-21 09:40:07"}}
-*-*-*-*-*-*-*-*-*

---------------------05:13:33
{"status":"1","data":{"id":"8","store_user_id":"10","zonename":"Test","zonearea":"5000","zoneprice":"1000","zonestatus":"1","status":"1","created_at":"2022-06-21 09:40:07","updated_at":"2022-06-21 09:40:07"}}
-*-*-*-*-*-*-*-*-*

---------------------05:14:57
{"status":"1","data":{"id":"8","store_user_id":"10","zonename":"Test","zonearea":"5000","zoneprice":"1000","zonestatus":"1","status":"1","created_at":"2022-06-21 09:40:07","updated_at":"2022-06-21 09:40:07"}}
-*-*-*-*-*-*-*-*-*

---------------------05:15:26
{"status":"1","data":{"id":"8","store_user_id":"10","zonename":"Test","zonearea":"5000","zoneprice":"1000","zonestatus":"1","status":"1","created_at":"2022-06-21 09:40:07","updated_at":"2022-06-21 09:40:07"}}
-*-*-*-*-*-*-*-*-*

---------------------05:18:22
{"status":"1","data":{"id":"8","store_user_id":"10","zonename":"Test","zonearea":"5000","zoneprice":"1000","zonestatus":"1","status":"1","created_at":"2022-06-21 09:40:07","updated_at":"2022-06-21 09:40:07"}}
-*-*-*-*-*-*-*-*-*

---------------------05:18:39
{"status":0,"data":null}
-*-*-*-*-*-*-*-*-*

---------------------05:18:50
{"status":0,"data":null}
-*-*-*-*-*-*-*-*-*

---------------------05:18:54
{"status":0,"data":null}
-*-*-*-*-*-*-*-*-*

---------------------05:20:49
{"status":"1","data":{"id":"8","store_user_id":"10","zonename":"Test","zonearea":"5000","zoneprice":"1000","zonestatus":"1","status":"1","created_at":"2022-06-21 09:40:07","updated_at":"2022-06-21 09:40:07"}}
-*-*-*-*-*-*-*-*-*

---------------------05:21:36
{"status":"1","data":{"id":"8","store_user_id":"10","zonename":"Test","zonearea":"5000","zoneprice":"1000","zonestatus":"1","status":"1","created_at":"2022-06-21 09:40:07","updated_at":"2022-06-21 09:40:07"}}
-*-*-*-*-*-*-*-*-*

---------------------05:21:53
{"status":0,"data":null}
-*-*-*-*-*-*-*-*-*

---------------------05:21:56
{"status":0,"data":null}
-*-*-*-*-*-*-*-*-*

---------------------05:21:58
{"status":0,"data":null}
-*-*-*-*-*-*-*-*-*

---------------------05:24:02
{"status":"1","data":{"id":"8","store_user_id":"10","zonename":"Test","zonearea":"5000","zoneprice":"1000","zonestatus":"1","status":"1","created_at":"2022-06-21 09:40:07","updated_at":"2022-06-21 09:40:07"}}
-*-*-*-*-*-*-*-*-*

---------------------05:24:09
{"status":0,"data":null}
-*-*-*-*-*-*-*-*-*

---------------------05:24:20
{"status":0,"data":null}
-*-*-*-*-*-*-*-*-*

---------------------05:25:40
{"status":0,"data":null}
-*-*-*-*-*-*-*-*-*

---------------------05:28:22
{"status":0,"data":null}
-*-*-*-*-*-*-*-*-*

---------------------05:28:48
{"status":"1","data":{"id":"8","store_user_id":"10","zonename":"Test","zonearea":"5000","zoneprice":"1000","zonestatus":"1","status":"1","created_at":"2022-06-21 09:40:07","updated_at":"2022-06-21 09:40:07"}}
-*-*-*-*-*-*-*-*-*

---------------------05:28:52
{"status":"1","data":{"id":"8","store_user_id":"10","zonename":"Test","zonearea":"5000","zoneprice":"1000","zonestatus":"1","status":"1","created_at":"2022-06-21 09:40:07","updated_at":"2022-06-21 09:40:07"}}
-*-*-*-*-*-*-*-*-*

---------------------05:28:55
{"status":"1","data":{"id":"8","store_user_id":"10","zonename":"Test","zonearea":"5000","zoneprice":"1000","zonestatus":"1","status":"1","created_at":"2022-06-21 09:40:07","updated_at":"2022-06-21 09:40:07"}}
-*-*-*-*-*-*-*-*-*

---------------------05:28:57
{"status":"1","data":{"id":"8","store_user_id":"10","zonename":"Test","zonearea":"5000","zoneprice":"1000","zonestatus":"1","status":"1","created_at":"2022-06-21 09:40:07","updated_at":"2022-06-21 09:40:07"}}
-*-*-*-*-*-*-*-*-*

---------------------05:28:58
{"status":"1","data":{"id":"8","store_user_id":"10","zonename":"Test","zonearea":"5000","zoneprice":"1000","zonestatus":"1","status":"1","created_at":"2022-06-21 09:40:07","updated_at":"2022-06-21 09:40:07"}}
-*-*-*-*-*-*-*-*-*

---------------------05:29:00
{"status":"1","data":{"id":"8","store_user_id":"10","zonename":"Test","zonearea":"5000","zoneprice":"1000","zonestatus":"1","status":"1","created_at":"2022-06-21 09:40:07","updated_at":"2022-06-21 09:40:07"}}
-*-*-*-*-*-*-*-*-*

---------------------05:30:30
{"status":"1","data":{"id":"8","store_user_id":"10","zonename":"Test","zonearea":"5000","zoneprice":"1000","zonestatus":"1","status":"1","created_at":"2022-06-21 09:40:07","updated_at":"2022-06-21 09:40:07"}}
-*-*-*-*-*-*-*-*-*

---------------------05:31:05
{"status":"1","data":{"id":"8","store_user_id":"10","zonename":"Test","zonearea":"5000","zoneprice":"1000","zonestatus":"1","status":"1","created_at":"2022-06-21 09:40:07","updated_at":"2022-06-21 09:40:07"}}
-*-*-*-*-*-*-*-*-*

---------------------05:31:11
{"status":"1","data":{"id":"8","store_user_id":"10","zonename":"Test","zonearea":"5000","zoneprice":"1000","zonestatus":"1","status":"1","created_at":"2022-06-21 09:40:07","updated_at":"2022-06-21 09:40:07"}}
-*-*-*-*-*-*-*-*-*

---------------------05:31:42
{"status":"1","data":{"id":"8","store_user_id":"10","zonename":"Test","zonearea":"5000","zoneprice":"1000","zonestatus":"1","status":"1","created_at":"2022-06-21 09:40:07","updated_at":"2022-06-21 09:40:07"}}
-*-*-*-*-*-*-*-*-*

---------------------05:31:46
{"status":"1","data":{"id":"8","store_user_id":"10","zonename":"Test","zonearea":"5000","zoneprice":"1000","zonestatus":"1","status":"1","created_at":"2022-06-21 09:40:07","updated_at":"2022-06-21 09:40:07"}}
-*-*-*-*-*-*-*-*-*

---------------------05:34:39
{"status":0,"data":null}
-*-*-*-*-*-*-*-*-*

---------------------05:34:41
{"status":"1","data":{"id":"8","store_user_id":"10","zonename":"Test","zonearea":"5000","zoneprice":"1000","zonestatus":"1","status":"1","created_at":"2022-06-21 09:40:07","updated_at":"2022-06-21 09:40:07"}}
-*-*-*-*-*-*-*-*-*

---------------------05:34:49
{"status":"1","data":{"id":"8","store_user_id":"10","zonename":"Test","zonearea":"5000","zoneprice":"1000","zonestatus":"1","status":"1","created_at":"2022-06-21 09:40:07","updated_at":"2022-06-21 09:40:07"}}
-*-*-*-*-*-*-*-*-*

---------------------05:35:58
{"status":"1","data":{"id":"8","store_user_id":"10","zonename":"Test","zonearea":"5000","zoneprice":"1000","zonestatus":"1","status":"1","created_at":"2022-06-21 09:40:07","updated_at":"2022-06-21 09:40:07"}}
-*-*-*-*-*-*-*-*-*

---------------------05:36:06
{"status":"1","data":{"id":"8","store_user_id":"10","zonename":"Test","zonearea":"5000","zoneprice":"1000","zonestatus":"1","status":"1","created_at":"2022-06-21 09:40:07","updated_at":"2022-06-21 09:40:07"}}
-*-*-*-*-*-*-*-*-*

---------------------05:39:06
{"status":"1","data":{"id":"8","store_user_id":"10","zonename":"Test","zonearea":"5000","zoneprice":"1000","zonestatus":"1","status":"1","created_at":"2022-06-21 09:40:07","updated_at":"2022-06-21 09:40:07"}}
-*-*-*-*-*-*-*-*-*

---------------------05:42:35
{"status":"1","data":{"id":"8","store_user_id":"10","zonename":"Test","zonearea":"5000","zoneprice":"1000","zonestatus":"1","status":"1","created_at":"2022-06-21 09:40:07","updated_at":"2022-06-21 09:40:07"}}
-*-*-*-*-*-*-*-*-*

---------------------05:43:37
{"status":"1","data":{"id":"8","store_user_id":"10","zonename":"Test","zonearea":"5000","zoneprice":"1000","zonestatus":"1","status":"1","created_at":"2022-06-21 09:40:07","updated_at":"2022-06-21 09:40:07"}}
-*-*-*-*-*-*-*-*-*

---------------------05:46:08
{"status":"1","data":{"id":"8","store_user_id":"10","zonename":"Test","zonearea":"5000","zoneprice":"1000","zonestatus":"1","status":"1","created_at":"2022-06-21 09:40:07","updated_at":"2022-06-21 09:40:07"}}
-*-*-*-*-*-*-*-*-*

---------------------05:46:41
{"status":"1","data":{"id":"8","store_user_id":"10","zonename":"Test","zonearea":"5000","zoneprice":"1000","zonestatus":"1","status":"1","created_at":"2022-06-21 09:40:07","updated_at":"2022-06-21 09:40:07"}}
-*-*-*-*-*-*-*-*-*

---------------------05:46:51
{"status":"1","data":{"id":"8","store_user_id":"10","zonename":"Test","zonearea":"5000","zoneprice":"1000","zonestatus":"1","status":"1","created_at":"2022-06-21 09:40:07","updated_at":"2022-06-21 09:40:07"}}
-*-*-*-*-*-*-*-*-*

---------------------05:47:18
{"status":"1","data":{"id":"8","store_user_id":"10","zonename":"Test","zonearea":"5000","zoneprice":"1000","zonestatus":"1","status":"1","created_at":"2022-06-21 09:40:07","updated_at":"2022-06-21 09:40:07"}}
-*-*-*-*-*-*-*-*-*

---------------------05:47:39
{"status":"1","data":{"id":"8","store_user_id":"10","zonename":"Test","zonearea":"5000","zoneprice":"1000","zonestatus":"1","status":"1","created_at":"2022-06-21 09:40:07","updated_at":"2022-06-21 09:40:07"}}
-*-*-*-*-*-*-*-*-*

---------------------05:48:37
{"status":"1","data":{"id":"8","store_user_id":"10","zonename":"Test","zonearea":"5000","zoneprice":"1000","zonestatus":"1","status":"1","created_at":"2022-06-21 09:40:07","updated_at":"2022-06-21 09:40:07"}}
-*-*-*-*-*-*-*-*-*

---------------------05:48:40
{"status":"1","data":{"id":"8","store_user_id":"10","zonename":"Test","zonearea":"5000","zoneprice":"1000","zonestatus":"1","status":"1","created_at":"2022-06-21 09:40:07","updated_at":"2022-06-21 09:40:07"}}
-*-*-*-*-*-*-*-*-*

---------------------05:48:45
{"status":"1","data":{"id":"8","store_user_id":"10","zonename":"Test","zonearea":"5000","zoneprice":"1000","zonestatus":"1","status":"1","created_at":"2022-06-21 09:40:07","updated_at":"2022-06-21 09:40:07"}}
-*-*-*-*-*-*-*-*-*

---------------------05:48:49
{"status":"1","data":{"id":"8","store_user_id":"10","zonename":"Test","zonearea":"5000","zoneprice":"1000","zonestatus":"1","status":"1","created_at":"2022-06-21 09:40:07","updated_at":"2022-06-21 09:40:07"}}
-*-*-*-*-*-*-*-*-*

---------------------05:50:07
{"status":"1","data":{"id":"8","store_user_id":"10","zonename":"Test","zonearea":"5000","zoneprice":"1000","zonestatus":"1","status":"1","created_at":"2022-06-21 09:40:07","updated_at":"2022-06-21 09:40:07"}}
-*-*-*-*-*-*-*-*-*

---------------------05:52:13
{"status":"1","data":{"id":"8","store_user_id":"10","zonename":"Test","zonearea":"5000","zoneprice":"1000","zonestatus":"1","status":"1","created_at":"2022-06-21 09:40:07","updated_at":"2022-06-21 09:40:07"}}
-*-*-*-*-*-*-*-*-*

---------------------05:52:46
{"status":"1","data":{"id":"8","store_user_id":"10","zonename":"Test","zonearea":"5000","zoneprice":"1000","zonestatus":"1","status":"1","created_at":"2022-06-21 09:40:07","updated_at":"2022-06-21 09:40:07"}}
-*-*-*-*-*-*-*-*-*

---------------------05:53:49
{"status":"1","data":{"id":"8","store_user_id":"10","zonename":"Test","zonearea":"5000","zoneprice":"1000","zonestatus":"1","status":"1","created_at":"2022-06-21 09:40:07","updated_at":"2022-06-21 09:40:07"}}
-*-*-*-*-*-*-*-*-*

---------------------05:54:34
{"status":"1","data":{"id":"8","store_user_id":"10","zonename":"Test","zonearea":"5000","zoneprice":"1000","zonestatus":"1","status":"1","created_at":"2022-06-21 09:40:07","updated_at":"2022-06-21 09:40:07"}}
-*-*-*-*-*-*-*-*-*

---------------------05:55:15
{"status":"1","data":{"id":"8","store_user_id":"10","zonename":"Test","zonearea":"5000","zoneprice":"1000","zonestatus":"1","status":"1","created_at":"2022-06-21 09:40:07","updated_at":"2022-06-21 09:40:07"}}
-*-*-*-*-*-*-*-*-*

---------------------05:55:47
{"status":"1","data":{"id":"8","store_user_id":"10","zonename":"Test","zonearea":"5000","zoneprice":"1000","zonestatus":"1","status":"1","created_at":"2022-06-21 09:40:07","updated_at":"2022-06-21 09:40:07"}}
-*-*-*-*-*-*-*-*-*

---------------------05:56:19
{"status":"1","data":{"id":"8","store_user_id":"10","zonename":"Test","zonearea":"5000","zoneprice":"1000","zonestatus":"1","status":"1","created_at":"2022-06-21 09:40:07","updated_at":"2022-06-21 09:40:07"}}
-*-*-*-*-*-*-*-*-*

---------------------05:56:38
{"status":"1","data":{"id":"8","store_user_id":"10","zonename":"Test","zonearea":"5000","zoneprice":"1000","zonestatus":"1","status":"1","created_at":"2022-06-21 09:40:07","updated_at":"2022-06-21 09:40:07"}}
-*-*-*-*-*-*-*-*-*

---------------------05:57:29
{"status":"1","data":{"id":"8","store_user_id":"10","zonename":"Test","zonearea":"5000","zoneprice":"1000","zonestatus":"1","status":"1","created_at":"2022-06-21 09:40:07","updated_at":"2022-06-21 09:40:07"}}
-*-*-*-*-*-*-*-*-*

---------------------05:58:46
{"status":"1","data":{"id":"8","store_user_id":"10","zonename":"Test","zonearea":"5000","zoneprice":"1000","zonestatus":"1","status":"1","created_at":"2022-06-21 09:40:07","updated_at":"2022-06-21 09:40:07"}}
-*-*-*-*-*-*-*-*-*

---------------------05:59:27
{"status":"1","data":{"id":"8","store_user_id":"10","zonename":"Test","zonearea":"5000","zoneprice":"1000","zonestatus":"1","status":"1","created_at":"2022-06-21 09:40:07","updated_at":"2022-06-21 09:40:07"}}
-*-*-*-*-*-*-*-*-*

---------------------06:01:23
{"status":"1","data":{"id":"8","store_user_id":"10","zonename":"Test","zonearea":"5000","zoneprice":"1000","zonestatus":"1","status":"1","created_at":"2022-06-21 09:40:07","updated_at":"2022-06-21 09:40:07"}}
-*-*-*-*-*-*-*-*-*

---------------------06:01:49
{"status":"1","data":{"id":"8","store_user_id":"10","zonename":"Test","zonearea":"5000","zoneprice":"1000","zonestatus":"1","status":"1","created_at":"2022-06-21 09:40:07","updated_at":"2022-06-21 09:40:07"}}
-*-*-*-*-*-*-*-*-*

---------------------06:02:42
{"status":"1","data":{"id":"8","store_user_id":"10","zonename":"Test","zonearea":"5000","zoneprice":"1000","zonestatus":"1","status":"1","created_at":"2022-06-21 09:40:07","updated_at":"2022-06-21 09:40:07"}}
-*-*-*-*-*-*-*-*-*

---------------------06:02:44
{"status":"1","data":{"id":"8","store_user_id":"10","zonename":"Test","zonearea":"5000","zoneprice":"1000","zonestatus":"1","status":"1","created_at":"2022-06-21 09:40:07","updated_at":"2022-06-21 09:40:07"}}
-*-*-*-*-*-*-*-*-*

---------------------06:02:47
{"status":"1","data":{"id":"8","store_user_id":"10","zonename":"Test","zonearea":"5000","zoneprice":"1000","zonestatus":"1","status":"1","created_at":"2022-06-21 09:40:07","updated_at":"2022-06-21 09:40:07"}}
-*-*-*-*-*-*-*-*-*

---------------------06:02:49
{"status":"1","data":{"id":"8","store_user_id":"10","zonename":"Test","zonearea":"5000","zoneprice":"1000","zonestatus":"1","status":"1","created_at":"2022-06-21 09:40:07","updated_at":"2022-06-21 09:40:07"}}
-*-*-*-*-*-*-*-*-*

---------------------06:04:53
{"status":0,"data":null}
-*-*-*-*-*-*-*-*-*

---------------------06:04:58
{"status":"1","data":{"id":"8","store_user_id":"10","zonename":"Test","zonearea":"5000","zoneprice":"1000","zonestatus":"1","status":"1","created_at":"2022-06-21 09:40:07","updated_at":"2022-06-21 09:40:07"}}
-*-*-*-*-*-*-*-*-*

---------------------06:05:01
{"status":"1","data":{"id":"8","store_user_id":"10","zonename":"Test","zonearea":"5000","zoneprice":"1000","zonestatus":"1","status":"1","created_at":"2022-06-21 09:40:07","updated_at":"2022-06-21 09:40:07"}}
-*-*-*-*-*-*-*-*-*

---------------------06:05:04
{"status":"1","data":{"id":"8","store_user_id":"10","zonename":"Test","zonearea":"5000","zoneprice":"1000","zonestatus":"1","status":"1","created_at":"2022-06-21 09:40:07","updated_at":"2022-06-21 09:40:07"}}
-*-*-*-*-*-*-*-*-*

---------------------06:05:32
{"status":"1","data":{"id":"8","store_user_id":"10","zonename":"Test","zonearea":"5000","zoneprice":"1000","zonestatus":"1","status":"1","created_at":"2022-06-21 09:40:07","updated_at":"2022-06-21 09:40:07"}}
-*-*-*-*-*-*-*-*-*

---------------------06:06:40
{"status":"1","data":{"id":"8","store_user_id":"10","zonename":"Test","zonearea":"5000","zoneprice":"1000","zonestatus":"1","status":"1","created_at":"2022-06-21 09:40:07","updated_at":"2022-06-21 09:40:07"}}
-*-*-*-*-*-*-*-*-*

---------------------06:06:43
{"status":"1","data":{"id":"8","store_user_id":"10","zonename":"Test","zonearea":"5000","zoneprice":"1000","zonestatus":"1","status":"1","created_at":"2022-06-21 09:40:07","updated_at":"2022-06-21 09:40:07"}}
-*-*-*-*-*-*-*-*-*

---------------------06:06:46
{"status":"1","data":{"id":"8","store_user_id":"10","zonename":"Test","zonearea":"5000","zoneprice":"1000","zonestatus":"1","status":"1","created_at":"2022-06-21 09:40:07","updated_at":"2022-06-21 09:40:07"}}
-*-*-*-*-*-*-*-*-*

---------------------06:06:48
{"status":"1","data":{"id":"8","store_user_id":"10","zonename":"Test","zonearea":"5000","zoneprice":"1000","zonestatus":"1","status":"1","created_at":"2022-06-21 09:40:07","updated_at":"2022-06-21 09:40:07"}}
-*-*-*-*-*-*-*-*-*

---------------------06:06:50
{"status":"1","data":{"id":"8","store_user_id":"10","zonename":"Test","zonearea":"5000","zoneprice":"1000","zonestatus":"1","status":"1","created_at":"2022-06-21 09:40:07","updated_at":"2022-06-21 09:40:07"}}
-*-*-*-*-*-*-*-*-*

---------------------06:06:52
{"status":"1","data":{"id":"8","store_user_id":"10","zonename":"Test","zonearea":"5000","zoneprice":"1000","zonestatus":"1","status":"1","created_at":"2022-06-21 09:40:07","updated_at":"2022-06-21 09:40:07"}}
-*-*-*-*-*-*-*-*-*

---------------------06:06:54
{"status":"1","data":{"id":"8","store_user_id":"10","zonename":"Test","zonearea":"5000","zoneprice":"1000","zonestatus":"1","status":"1","created_at":"2022-06-21 09:40:07","updated_at":"2022-06-21 09:40:07"}}
-*-*-*-*-*-*-*-*-*

---------------------06:07:21
{"status":"1","data":{"id":"8","store_user_id":"10","zonename":"Test","zonearea":"5000","zoneprice":"1000","zonestatus":"1","status":"1","created_at":"2022-06-21 09:40:07","updated_at":"2022-06-21 09:40:07"}}
-*-*-*-*-*-*-*-*-*

---------------------06:07:23
{"status":"1","data":{"id":"8","store_user_id":"10","zonename":"Test","zonearea":"5000","zoneprice":"1000","zonestatus":"1","status":"1","created_at":"2022-06-21 09:40:07","updated_at":"2022-06-21 09:40:07"}}
-*-*-*-*-*-*-*-*-*

---------------------06:07:24
{"status":"1","data":{"id":"8","store_user_id":"10","zonename":"Test","zonearea":"5000","zoneprice":"1000","zonestatus":"1","status":"1","created_at":"2022-06-21 09:40:07","updated_at":"2022-06-21 09:40:07"}}
-*-*-*-*-*-*-*-*-*

---------------------06:07:34
{"status":"1","data":{"id":"8","store_user_id":"10","zonename":"Test","zonearea":"5000","zoneprice":"1000","zonestatus":"1","status":"1","created_at":"2022-06-21 09:40:07","updated_at":"2022-06-21 09:40:07"}}
-*-*-*-*-*-*-*-*-*

---------------------06:07:54
{"status":"1","data":{"id":"8","store_user_id":"10","zonename":"Test","zonearea":"5000","zoneprice":"1000","zonestatus":"1","status":"1","created_at":"2022-06-21 09:40:07","updated_at":"2022-06-21 09:40:07"}}
-*-*-*-*-*-*-*-*-*

---------------------06:08:36
{"status":"1","data":{"id":"8","store_user_id":"10","zonename":"Test","zonearea":"5000","zoneprice":"1000","zonestatus":"1","status":"1","created_at":"2022-06-21 09:40:07","updated_at":"2022-06-21 09:40:07"}}
-*-*-*-*-*-*-*-*-*

---------------------06:08:40
{"status":"1","data":{"id":"8","store_user_id":"10","zonename":"Test","zonearea":"5000","zoneprice":"1000","zonestatus":"1","status":"1","created_at":"2022-06-21 09:40:07","updated_at":"2022-06-21 09:40:07"}}
-*-*-*-*-*-*-*-*-*

---------------------06:08:42
{"status":"1","data":{"id":"8","store_user_id":"10","zonename":"Test","zonearea":"5000","zoneprice":"1000","zonestatus":"1","status":"1","created_at":"2022-06-21 09:40:07","updated_at":"2022-06-21 09:40:07"}}
-*-*-*-*-*-*-*-*-*

---------------------06:08:44
{"status":"1","data":{"id":"8","store_user_id":"10","zonename":"Test","zonearea":"5000","zoneprice":"1000","zonestatus":"1","status":"1","created_at":"2022-06-21 09:40:07","updated_at":"2022-06-21 09:40:07"}}
-*-*-*-*-*-*-*-*-*

---------------------06:09:11
{"status":"1","data":{"id":"8","store_user_id":"10","zonename":"Test","zonearea":"5000","zoneprice":"1000","zonestatus":"1","status":"1","created_at":"2022-06-21 09:40:07","updated_at":"2022-06-21 09:40:07"}}
-*-*-*-*-*-*-*-*-*

---------------------06:10:04
{"status":"1","data":{"id":"8","store_user_id":"10","zonename":"Test","zonearea":"5000","zoneprice":"1000","zonestatus":"1","status":"1","created_at":"2022-06-21 09:40:07","updated_at":"2022-06-21 09:40:07"}}
-*-*-*-*-*-*-*-*-*

---------------------06:10:12
{"status":"1","data":{"id":"8","store_user_id":"10","zonename":"Test","zonearea":"5000","zoneprice":"1000","zonestatus":"1","status":"1","created_at":"2022-06-21 09:40:07","updated_at":"2022-06-21 09:40:07"}}
-*-*-*-*-*-*-*-*-*

---------------------06:10:20
{"status":"1","data":{"id":"8","store_user_id":"10","zonename":"Test","zonearea":"5000","zoneprice":"1000","zonestatus":"1","status":"1","created_at":"2022-06-21 09:40:07","updated_at":"2022-06-21 09:40:07"}}
-*-*-*-*-*-*-*-*-*

---------------------06:10:52
{"status":"1","data":{"id":"8","store_user_id":"10","zonename":"Test","zonearea":"5000","zoneprice":"1000","zonestatus":"1","status":"1","created_at":"2022-06-21 09:40:07","updated_at":"2022-06-21 09:40:07"}}
-*-*-*-*-*-*-*-*-*

---------------------06:10:57
{"status":"1","data":{"id":"8","store_user_id":"10","zonename":"Test","zonearea":"5000","zoneprice":"1000","zonestatus":"1","status":"1","created_at":"2022-06-21 09:40:07","updated_at":"2022-06-21 09:40:07"}}
-*-*-*-*-*-*-*-*-*

---------------------06:11:04
{"status":"1","data":{"id":"8","store_user_id":"10","zonename":"Test","zonearea":"5000","zoneprice":"1000","zonestatus":"1","status":"1","created_at":"2022-06-21 09:40:07","updated_at":"2022-06-21 09:40:07"}}
-*-*-*-*-*-*-*-*-*

---------------------06:11:11
{"status":"1","data":{"id":"8","store_user_id":"10","zonename":"Test","zonearea":"5000","zoneprice":"1000","zonestatus":"1","status":"1","created_at":"2022-06-21 09:40:07","updated_at":"2022-06-21 09:40:07"}}
-*-*-*-*-*-*-*-*-*

---------------------06:11:17
{"status":"1","data":{"id":"8","store_user_id":"10","zonename":"Test","zonearea":"5000","zoneprice":"1000","zonestatus":"1","status":"1","created_at":"2022-06-21 09:40:07","updated_at":"2022-06-21 09:40:07"}}
-*-*-*-*-*-*-*-*-*

---------------------06:14:12
{"status":"1","data":{"id":"8","store_user_id":"10","zonename":"Test","zonearea":"5000","zoneprice":"1000","zonestatus":"1","status":"1","created_at":"2022-06-21 09:40:07","updated_at":"2022-06-21 09:40:07"}}
-*-*-*-*-*-*-*-*-*

---------------------06:14:26
{"status":"1","data":{"id":"8","store_user_id":"10","zonename":"Test","zonearea":"5000","zoneprice":"1000","zonestatus":"1","status":"1","created_at":"2022-06-21 09:40:07","updated_at":"2022-06-21 09:40:07"}}
-*-*-*-*-*-*-*-*-*

---------------------06:14:31
{"status":"1","data":{"id":"8","store_user_id":"10","zonename":"Test","zonearea":"5000","zoneprice":"1000","zonestatus":"1","status":"1","created_at":"2022-06-21 09:40:07","updated_at":"2022-06-21 09:40:07"}}
-*-*-*-*-*-*-*-*-*

---------------------06:14:34
{"status":"1","data":{"id":"8","store_user_id":"10","zonename":"Test","zonearea":"5000","zoneprice":"1000","zonestatus":"1","status":"1","created_at":"2022-06-21 09:40:07","updated_at":"2022-06-21 09:40:07"}}
-*-*-*-*-*-*-*-*-*

---------------------06:15:31
{"status":"1","data":{"id":"8","store_user_id":"10","zonename":"Test","zonearea":"5000","zoneprice":"1000","zonestatus":"1","status":"1","created_at":"2022-06-21 09:40:07","updated_at":"2022-06-21 09:40:07"}}
-*-*-*-*-*-*-*-*-*

---------------------06:15:36
{"status":"1","data":{"id":"8","store_user_id":"10","zonename":"Test","zonearea":"5000","zoneprice":"1000","zonestatus":"1","status":"1","created_at":"2022-06-21 09:40:07","updated_at":"2022-06-21 09:40:07"}}
-*-*-*-*-*-*-*-*-*

---------------------06:16:05
{"status":"1","data":{"id":"8","store_user_id":"10","zonename":"Test","zonearea":"5000","zoneprice":"1000","zonestatus":"1","status":"1","created_at":"2022-06-21 09:40:07","updated_at":"2022-06-21 09:40:07"}}
-*-*-*-*-*-*-*-*-*

---------------------06:18:08
{"status":"1","data":{"id":"8","store_user_id":"10","zonename":"Test","zonearea":"5000","zoneprice":"1000","zonestatus":"1","status":"1","created_at":"2022-06-21 09:40:07","updated_at":"2022-06-21 09:40:07"}}
-*-*-*-*-*-*-*-*-*

---------------------06:18:11
{"status":"1","data":{"id":"8","store_user_id":"10","zonename":"Test","zonearea":"5000","zoneprice":"1000","zonestatus":"1","status":"1","created_at":"2022-06-21 09:40:07","updated_at":"2022-06-21 09:40:07"}}
-*-*-*-*-*-*-*-*-*

---------------------06:18:49
{"status":"1","data":{"id":"8","store_user_id":"10","zonename":"Test","zonearea":"5000","zoneprice":"1000","zonestatus":"1","status":"1","created_at":"2022-06-21 09:40:07","updated_at":"2022-06-21 09:40:07"}}
-*-*-*-*-*-*-*-*-*

---------------------06:19:12
{"status":"1","data":{"id":"8","store_user_id":"10","zonename":"Test","zonearea":"5000","zoneprice":"1000","zonestatus":"1","status":"1","created_at":"2022-06-21 09:40:07","updated_at":"2022-06-21 09:40:07"}}
-*-*-*-*-*-*-*-*-*

---------------------06:19:52
{"status":"1","data":{"id":"8","store_user_id":"10","zonename":"Test","zonearea":"5000","zoneprice":"1000","zonestatus":"1","status":"1","created_at":"2022-06-21 09:40:07","updated_at":"2022-06-21 09:40:07"}}
-*-*-*-*-*-*-*-*-*

---------------------06:21:28
{"status":"1","data":{"id":"8","store_user_id":"10","zonename":"Test","zonearea":"5000","zoneprice":"1000","zonestatus":"1","status":"1","created_at":"2022-06-21 09:40:07","updated_at":"2022-06-21 09:40:07"}}
-*-*-*-*-*-*-*-*-*

---------------------06:21:47
{"status":"1","data":{"id":"8","store_user_id":"10","zonename":"Test","zonearea":"5000","zoneprice":"1000","zonestatus":"1","status":"1","created_at":"2022-06-21 09:40:07","updated_at":"2022-06-21 09:40:07"}}
-*-*-*-*-*-*-*-*-*

---------------------06:22:31
{"status":"1","data":{"id":"8","store_user_id":"10","zonename":"Test","zonearea":"5000","zoneprice":"1000","zonestatus":"1","status":"1","created_at":"2022-06-21 09:40:07","updated_at":"2022-06-21 09:40:07"}}
-*-*-*-*-*-*-*-*-*

---------------------06:23:10
{"status":"1","data":{"id":"8","store_user_id":"10","zonename":"Test","zonearea":"5000","zoneprice":"1000","zonestatus":"1","status":"1","created_at":"2022-06-21 09:40:07","updated_at":"2022-06-21 09:40:07"}}
-*-*-*-*-*-*-*-*-*

---------------------06:23:38
{"status":"1","data":{"id":"8","store_user_id":"10","zonename":"Test","zonearea":"5000","zoneprice":"1000","zonestatus":"1","status":"1","created_at":"2022-06-21 09:40:07","updated_at":"2022-06-21 09:40:07"}}
-*-*-*-*-*-*-*-*-*

---------------------06:23:59
{"status":"1","data":{"id":"8","store_user_id":"10","zonename":"Test","zonearea":"5000","zoneprice":"1000","zonestatus":"1","status":"1","created_at":"2022-06-21 09:40:07","updated_at":"2022-06-21 09:40:07"}}
-*-*-*-*-*-*-*-*-*

---------------------06:25:23
{"status":"1","data":{"id":"8","store_user_id":"10","zonename":"Test","zonearea":"5000","zoneprice":"1000","zonestatus":"1","status":"1","created_at":"2022-06-21 09:40:07","updated_at":"2022-06-21 09:40:07"}}
-*-*-*-*-*-*-*-*-*

---------------------06:25:45
{"status":"1","data":{"id":"8","store_user_id":"10","zonename":"Test","zonearea":"5000","zoneprice":"1000","zonestatus":"1","status":"1","created_at":"2022-06-21 09:40:07","updated_at":"2022-06-21 09:40:07"}}
-*-*-*-*-*-*-*-*-*

---------------------06:25:49
{"status":"1","data":{"id":"8","store_user_id":"10","zonename":"Test","zonearea":"5000","zoneprice":"1000","zonestatus":"1","status":"1","created_at":"2022-06-21 09:40:07","updated_at":"2022-06-21 09:40:07"}}
-*-*-*-*-*-*-*-*-*

---------------------06:29:17
{"status":"1","data":{"id":"8","store_user_id":"10","zonename":"Test","zonearea":"5000","zoneprice":"1000","zonestatus":"1","status":"1","created_at":"2022-06-21 09:40:07","updated_at":"2022-06-21 09:40:07"}}
-*-*-*-*-*-*-*-*-*

---------------------06:29:42
{"status":"1","data":{"id":"8","store_user_id":"10","zonename":"Test","zonearea":"5000","zoneprice":"1000","zonestatus":"1","status":"1","created_at":"2022-06-21 09:40:07","updated_at":"2022-06-21 09:40:07"}}
-*-*-*-*-*-*-*-*-*

---------------------06:29:50
{"status":"1","data":{"id":"8","store_user_id":"10","zonename":"Test","zonearea":"5000","zoneprice":"1000","zonestatus":"1","status":"1","created_at":"2022-06-21 09:40:07","updated_at":"2022-06-21 09:40:07"}}
-*-*-*-*-*-*-*-*-*

---------------------06:29:53
{"status":"1","data":{"id":"8","store_user_id":"10","zonename":"Test","zonearea":"5000","zoneprice":"1000","zonestatus":"1","status":"1","created_at":"2022-06-21 09:40:07","updated_at":"2022-06-21 09:40:07"}}
-*-*-*-*-*-*-*-*-*

---------------------06:30:21
{"status":"1","data":{"id":"8","store_user_id":"10","zonename":"Test","zonearea":"5000","zoneprice":"1000","zonestatus":"1","status":"1","created_at":"2022-06-21 09:40:07","updated_at":"2022-06-21 09:40:07"}}
-*-*-*-*-*-*-*-*-*

---------------------06:31:02
{"status":"1","data":{"id":"8","store_user_id":"10","zonename":"Test","zonearea":"5000","zoneprice":"1000","zonestatus":"1","status":"1","created_at":"2022-06-21 09:40:07","updated_at":"2022-06-21 09:40:07"}}
-*-*-*-*-*-*-*-*-*

---------------------06:31:57
{"status":"1","data":{"id":"8","store_user_id":"10","zonename":"Test","zonearea":"5000","zoneprice":"1000","zonestatus":"1","status":"1","created_at":"2022-06-21 09:40:07","updated_at":"2022-06-21 09:40:07"}}
-*-*-*-*-*-*-*-*-*

---------------------06:32:15
{"status":"1","data":{"id":"8","store_user_id":"10","zonename":"Test","zonearea":"5000","zoneprice":"1000","zonestatus":"1","status":"1","created_at":"2022-06-21 09:40:07","updated_at":"2022-06-21 09:40:07"}}
-*-*-*-*-*-*-*-*-*

---------------------06:32:17
{"status":"1","data":{"id":"8","store_user_id":"10","zonename":"Test","zonearea":"5000","zoneprice":"1000","zonestatus":"1","status":"1","created_at":"2022-06-21 09:40:07","updated_at":"2022-06-21 09:40:07"}}
-*-*-*-*-*-*-*-*-*

---------------------06:32:19
{"status":"1","data":{"id":"8","store_user_id":"10","zonename":"Test","zonearea":"5000","zoneprice":"1000","zonestatus":"1","status":"1","created_at":"2022-06-21 09:40:07","updated_at":"2022-06-21 09:40:07"}}
-*-*-*-*-*-*-*-*-*

---------------------06:32:21
{"status":"1","data":{"id":"8","store_user_id":"10","zonename":"Test","zonearea":"5000","zoneprice":"1000","zonestatus":"1","status":"1","created_at":"2022-06-21 09:40:07","updated_at":"2022-06-21 09:40:07"}}
-*-*-*-*-*-*-*-*-*

---------------------06:32:23
{"status":"1","data":{"id":"8","store_user_id":"10","zonename":"Test","zonearea":"5000","zoneprice":"1000","zonestatus":"1","status":"1","created_at":"2022-06-21 09:40:07","updated_at":"2022-06-21 09:40:07"}}
-*-*-*-*-*-*-*-*-*

---------------------06:32:25
{"status":"1","data":{"id":"8","store_user_id":"10","zonename":"Test","zonearea":"5000","zoneprice":"1000","zonestatus":"1","status":"1","created_at":"2022-06-21 09:40:07","updated_at":"2022-06-21 09:40:07"}}
-*-*-*-*-*-*-*-*-*

---------------------06:32:26
{"status":"1","data":{"id":"8","store_user_id":"10","zonename":"Test","zonearea":"5000","zoneprice":"1000","zonestatus":"1","status":"1","created_at":"2022-06-21 09:40:07","updated_at":"2022-06-21 09:40:07"}}
-*-*-*-*-*-*-*-*-*

---------------------06:33:29
{"status":"1","data":{"id":"8","store_user_id":"10","zonename":"Test","zonearea":"5000","zoneprice":"1000","zonestatus":"1","status":"1","created_at":"2022-06-21 09:40:07","updated_at":"2022-06-21 09:40:07"}}
-*-*-*-*-*-*-*-*-*

---------------------06:45:59
{"status":"1","data":{"id":"8","store_user_id":"10","zonename":"Test","zonearea":"5000","zoneprice":"1000","zonestatus":"1","status":"1","created_at":"2022-06-21 09:40:07","updated_at":"2022-06-21 09:40:07"}}
-*-*-*-*-*-*-*-*-*

---------------------08:04:31
{"status":"1","data":{"id":"8","store_user_id":"10","zonename":"Test","zonearea":"5000","zoneprice":"1000","zonestatus":"1","status":"1","created_at":"2022-06-21 09:40:07","updated_at":"2022-06-21 09:40:07"}}
-*-*-*-*-*-*-*-*-*

---------------------08:18:51
{"status":"1","data":{"id":"8","store_user_id":"10","zonename":"Test","zonearea":"5000","zoneprice":"1000","zonestatus":"1","status":"1","created_at":"2022-06-21 09:40:07","updated_at":"2022-06-21 09:40:07"}}
-*-*-*-*-*-*-*-*-*

---------------------10:58:15
{"status":0,"data":null}
-*-*-*-*-*-*-*-*-*

---------------------10:58:16
{"status":"1","data":{"id":"8","store_user_id":"10","zonename":"Test","zonearea":"5000","zoneprice":"1000","zonestatus":"1","status":"1","created_at":"2022-06-21 09:40:07","updated_at":"2022-06-21 09:40:07"}}
-*-*-*-*-*-*-*-*-*

---------------------10:58:23
{"status":0,"data":null}
-*-*-*-*-*-*-*-*-*

---------------------10:58:29
{"status":0,"data":null}
-*-*-*-*-*-*-*-*-*

---------------------10:58:34
{"status":0,"data":null}
-*-*-*-*-*-*-*-*-*

---------------------11:00:44
{"status":"1","data":{"id":"8","store_user_id":"10","zonename":"Test","zonearea":"5000","zoneprice":"1000","zonestatus":"1","status":"1","created_at":"2022-06-21 09:40:07","updated_at":"2022-06-21 09:40:07"}}
-*-*-*-*-*-*-*-*-*

---------------------12:17:47
{"status":"1","data":{"id":"8","store_user_id":"10","zonename":"Test","zonearea":"5000","zoneprice":"1000","zonestatus":"1","status":"1","created_at":"2022-06-21 09:40:07","updated_at":"2022-06-21 09:40:07"}}
-*-*-*-*-*-*-*-*-*

---------------------12:42:27
{"status":0,"data":null}
-*-*-*-*-*-*-*-*-*

---------------------12:42:33
{"status":0,"data":null}
-*-*-*-*-*-*-*-*-*

---------------------12:42:41
{"status":0,"data":null}
-*-*-*-*-*-*-*-*-*

---------------------12:42:43
{"status":0,"data":null}
-*-*-*-*-*-*-*-*-*