

---------------------04:53:01
{"status":"1","data":{"id":"8","store_user_id":"10","zonename":"Test","zonearea":"5000","zoneprice":"1000","zonestatus":"1","status":"1","created_at":"2022-06-21 09:40:07","updated_at":"2022-06-21 09:40:07"}}
-*-*-*-*-*-*-*-*-*

---------------------05:13:21
{"status":"1","data":{"id":"8","store_user_id":"10","zonename":"Test","zonearea":"5000","zoneprice":"1000","zonestatus":"1","status":"1","created_at":"2022-06-21 09:40:07","updated_at":"2022-06-21 09:40:07"}}
-*-*-*-*-*-*-*-*-*

---------------------07:35:38
{"status":"1","data":{"id":"8","store_user_id":"10","zonename":"Test","zonearea":"5000","zoneprice":"1000","zonestatus":"1","status":"1","created_at":"2022-06-21 09:40:07","updated_at":"2022-06-21 09:40:07"}}
-*-*-*-*-*-*-*-*-*

---------------------07:52:33
{"status":"1","data":{"id":"8","store_user_id":"10","zonename":"Test","zonearea":"5000","zoneprice":"1000","zonestatus":"1","status":"1","created_at":"2022-06-21 09:40:07","updated_at":"2022-06-21 09:40:07"}}
-*-*-*-*-*-*-*-*-*

---------------------19:35:36
{"status":0,"data":null}
-*-*-*-*-*-*-*-*-*

---------------------19:35:43
{"status":0,"data":null}
-*-*-*-*-*-*-*-*-*

---------------------19:35:51
{"status":0,"data":null}
-*-*-*-*-*-*-*-*-*

---------------------19:37:02
{"status":0,"data":null}
-*-*-*-*-*-*-*-*-*

---------------------19:37:39
{"status":0,"data":null}
-*-*-*-*-*-*-*-*-*

---------------------19:37:40
{"status":0,"data":null}
-*-*-*-*-*-*-*-*-*

---------------------19:39:00
{"status":0,"data":null}
-*-*-*-*-*-*-*-*-*

---------------------19:39:01
{"status":0,"data":null}
-*-*-*-*-*-*-*-*-*

---------------------19:39:10
{"status":0,"data":null}
-*-*-*-*-*-*-*-*-*

---------------------19:39:11
{"status":0,"data":null}
-*-*-*-*-*-*-*-*-*

---------------------19:39:24
{"status":0,"data":null}
-*-*-*-*-*-*-*-*-*

---------------------19:39:31
{"status":0,"data":null}
-*-*-*-*-*-*-*-*-*

---------------------19:40:39
{"status":0,"data":null}
-*-*-*-*-*-*-*-*-*