

---------------------12:31:29
{"status":"1","data":{"id":"1","store_user_id":"10","zonename":"Frederiksberg","zonearea":"2000","zoneprice":"2200kr","zonestatus":"1","status":"1","created_at":"2022-11-15 09:47:27","updated_at":"2022-11-15 09:47:27"}}
-*-*-*-*-*-*-*-*-*

---------------------12:31:34
{"status":"1","data":{"id":"1","store_user_id":"10","zonename":"Frederiksberg","zonearea":"2000","zoneprice":"2200kr","zonestatus":"1","status":"1","created_at":"2022-11-15 09:47:27","updated_at":"2022-11-15 09:47:27"}}
-*-*-*-*-*-*-*-*-*