

---------------------04:20:35
{"status":0,"data":null}
-*-*-*-*-*-*-*-*-*

---------------------04:43:03
{"status":"1","data":{"id":"9","store_user_id":"10","zonename":"\u00c5lborg","zonearea":"5200","zoneprice":"1000000","zonestatus":"1","status":"1","created_at":"2022-06-24 07:29:47","updated_at":"2022-06-24 07:29:47"}}
-*-*-*-*-*-*-*-*-*

---------------------04:43:07
{"status":"1","data":{"id":"9","store_user_id":"10","zonename":"\u00c5lborg","zonearea":"5200","zoneprice":"1000000","zonestatus":"1","status":"1","created_at":"2022-06-24 07:29:47","updated_at":"2022-06-24 07:29:47"}}
-*-*-*-*-*-*-*-*-*

---------------------04:43:10
{"status":"1","data":{"id":"9","store_user_id":"10","zonename":"\u00c5lborg","zonearea":"5200","zoneprice":"1000000","zonestatus":"1","status":"1","created_at":"2022-06-24 07:29:47","updated_at":"2022-06-24 07:29:47"}}
-*-*-*-*-*-*-*-*-*

---------------------04:51:15
{"status":"1","data":{"id":"8","store_user_id":"10","zonename":"Test","zonearea":"5000","zoneprice":"1000","zonestatus":"1","status":"1","created_at":"2022-06-21 09:40:07","updated_at":"2022-06-21 09:40:07"}}
-*-*-*-*-*-*-*-*-*

---------------------04:52:02
{"status":"1","data":{"id":"8","store_user_id":"10","zonename":"Test","zonearea":"5000","zoneprice":"1000","zonestatus":"1","status":"1","created_at":"2022-06-21 09:40:07","updated_at":"2022-06-21 09:40:07"}}
-*-*-*-*-*-*-*-*-*

---------------------04:52:04
{"status":"1","data":{"id":"8","store_user_id":"10","zonename":"Test","zonearea":"5000","zoneprice":"1000","zonestatus":"1","status":"1","created_at":"2022-06-21 09:40:07","updated_at":"2022-06-21 09:40:07"}}
-*-*-*-*-*-*-*-*-*

---------------------04:52:42
{"status":"1","data":{"id":"8","store_user_id":"10","zonename":"Test","zonearea":"5000","zoneprice":"1000","zonestatus":"1","status":"1","created_at":"2022-06-21 09:40:07","updated_at":"2022-06-21 09:40:07"}}
-*-*-*-*-*-*-*-*-*

---------------------05:19:34
{"status":"1","data":{"id":"8","store_user_id":"10","zonename":"Test","zonearea":"5000","zoneprice":"1000","zonestatus":"1","status":"1","created_at":"2022-06-21 09:40:07","updated_at":"2022-06-21 09:40:07"}}
-*-*-*-*-*-*-*-*-*

---------------------05:19:44
{"status":"1","data":{"id":"8","store_user_id":"10","zonename":"Test","zonearea":"5000","zoneprice":"1000","zonestatus":"1","status":"1","created_at":"2022-06-21 09:40:07","updated_at":"2022-06-21 09:40:07"}}
-*-*-*-*-*-*-*-*-*

---------------------05:19:57
{"status":"1","data":{"id":"8","store_user_id":"10","zonename":"Test","zonearea":"5000","zoneprice":"1000","zonestatus":"1","status":"1","created_at":"2022-06-21 09:40:07","updated_at":"2022-06-21 09:40:07"}}
-*-*-*-*-*-*-*-*-*

---------------------05:20:11
{"status":"1","data":{"id":"9","store_user_id":"10","zonename":"\u00c5lborg","zonearea":"5200","zoneprice":"1000000","zonestatus":"1","status":"1","created_at":"2022-06-24 07:29:47","updated_at":"2022-06-24 07:29:47"}}
-*-*-*-*-*-*-*-*-*

---------------------05:20:59
{"status":"1","data":{"id":"9","store_user_id":"10","zonename":"\u00c5lborg","zonearea":"5200","zoneprice":"1000000","zonestatus":"1","status":"1","created_at":"2022-06-24 07:29:47","updated_at":"2022-06-24 07:29:47"}}
-*-*-*-*-*-*-*-*-*

---------------------05:21:17
{"status":"1","data":{"id":"8","store_user_id":"10","zonename":"Test","zonearea":"5000","zoneprice":"1000","zonestatus":"1","status":"1","created_at":"2022-06-21 09:40:07","updated_at":"2022-06-21 09:40:07"}}
-*-*-*-*-*-*-*-*-*

---------------------05:24:17
{"status":"1","data":{"id":"9","store_user_id":"10","zonename":"\u00c5lborg","zonearea":"5200","zoneprice":"1000000","zonestatus":"1","status":"1","created_at":"2022-06-24 07:29:47","updated_at":"2022-06-24 07:29:47"}}
-*-*-*-*-*-*-*-*-*

---------------------05:24:38
{"status":"1","data":{"id":"9","store_user_id":"10","zonename":"\u00c5lborg","zonearea":"5200","zoneprice":"1000000","zonestatus":"1","status":"1","created_at":"2022-06-24 07:29:47","updated_at":"2022-06-24 07:29:47"}}
-*-*-*-*-*-*-*-*-*

---------------------05:24:59
{"status":"1","data":{"id":"9","store_user_id":"10","zonename":"\u00c5lborg","zonearea":"5200","zoneprice":"1000000","zonestatus":"1","status":"1","created_at":"2022-06-24 07:29:47","updated_at":"2022-06-24 07:29:47"}}
-*-*-*-*-*-*-*-*-*

---------------------05:27:21
{"status":"1","data":{"id":"8","store_user_id":"10","zonename":"Test","zonearea":"5000","zoneprice":"1000","zonestatus":"1","status":"1","created_at":"2022-06-21 09:40:07","updated_at":"2022-06-21 09:40:07"}}
-*-*-*-*-*-*-*-*-*

---------------------05:27:49
{"status":"1","data":{"id":"8","store_user_id":"10","zonename":"Test","zonearea":"5000","zoneprice":"1000","zonestatus":"1","status":"1","created_at":"2022-06-21 09:40:07","updated_at":"2022-06-21 09:40:07"}}
-*-*-*-*-*-*-*-*-*

---------------------05:28:14
{"status":"1","data":{"id":"9","store_user_id":"10","zonename":"\u00c5lborg","zonearea":"5200","zoneprice":"1000000","zonestatus":"1","status":"1","created_at":"2022-06-24 07:29:47","updated_at":"2022-06-24 07:29:47"}}
-*-*-*-*-*-*-*-*-*

---------------------05:30:10
{"status":"1","data":{"id":"9","store_user_id":"10","zonename":"\u00c5lborg","zonearea":"5200","zoneprice":"1000000","zonestatus":"1","status":"1","created_at":"2022-06-24 07:29:47","updated_at":"2022-06-24 07:29:47"}}
-*-*-*-*-*-*-*-*-*

---------------------05:38:14
{"status":"1","data":{"id":"9","store_user_id":"10","zonename":"\u00c5lborg","zonearea":"5200","zoneprice":"1000000","zonestatus":"1","status":"1","created_at":"2022-06-24 07:29:47","updated_at":"2022-06-24 07:29:47"}}
-*-*-*-*-*-*-*-*-*

---------------------05:38:57
{"status":"1","data":{"id":"9","store_user_id":"10","zonename":"\u00c5lborg","zonearea":"5200","zoneprice":"100000","zonestatus":"1","status":"1","created_at":"2022-06-24 07:29:47","updated_at":"2022-06-24 07:29:47"}}
-*-*-*-*-*-*-*-*-*

---------------------05:40:42
{"status":"1","data":{"id":"9","store_user_id":"10","zonename":"\u00c5lborg","zonearea":"5200","zoneprice":"10000","zonestatus":"1","status":"1","created_at":"2022-06-24 07:29:47","updated_at":"2022-06-24 07:29:47"}}
-*-*-*-*-*-*-*-*-*

---------------------05:41:31
{"status":"1","data":{"id":"9","store_user_id":"10","zonename":"\u00c5lborg","zonearea":"5200","zoneprice":"10000","zonestatus":"1","status":"1","created_at":"2022-06-24 07:29:47","updated_at":"2022-06-24 07:29:47"}}
-*-*-*-*-*-*-*-*-*

---------------------05:41:33
{"status":"1","data":{"id":"9","store_user_id":"10","zonename":"\u00c5lborg","zonearea":"5200","zoneprice":"10000","zonestatus":"1","status":"1","created_at":"2022-06-24 07:29:47","updated_at":"2022-06-24 07:29:47"}}
-*-*-*-*-*-*-*-*-*

---------------------05:42:10
{"status":"1","data":{"id":"9","store_user_id":"10","zonename":"\u00c5lborg","zonearea":"5200","zoneprice":"10000","zonestatus":"1","status":"1","created_at":"2022-06-24 07:29:47","updated_at":"2022-06-24 07:29:47"}}
-*-*-*-*-*-*-*-*-*

---------------------05:44:05
{"status":"1","data":{"id":"9","store_user_id":"10","zonename":"\u00c5lborg","zonearea":"5200","zoneprice":"10000","zonestatus":"1","status":"1","created_at":"2022-06-24 07:29:47","updated_at":"2022-06-24 07:29:47"}}
-*-*-*-*-*-*-*-*-*

---------------------05:44:23
{"status":0,"data":null}
-*-*-*-*-*-*-*-*-*

---------------------05:44:28
{"status":"1","data":{"id":"8","store_user_id":"10","zonename":"Test","zonearea":"5000","zoneprice":"1000","zonestatus":"1","status":"1","created_at":"2022-06-21 09:40:07","updated_at":"2022-06-21 09:40:07"}}
-*-*-*-*-*-*-*-*-*

---------------------05:44:41
{"status":"1","data":{"id":"8","store_user_id":"10","zonename":"Test","zonearea":"5000","zoneprice":"1000","zonestatus":"1","status":"1","created_at":"2022-06-21 09:40:07","updated_at":"2022-06-21 09:40:07"}}
-*-*-*-*-*-*-*-*-*

---------------------05:44:43
{"status":"1","data":{"id":"8","store_user_id":"10","zonename":"Test","zonearea":"5000","zoneprice":"1000","zonestatus":"1","status":"1","created_at":"2022-06-21 09:40:07","updated_at":"2022-06-21 09:40:07"}}
-*-*-*-*-*-*-*-*-*

---------------------05:45:19
{"status":"1","data":{"id":"8","store_user_id":"10","zonename":"Test","zonearea":"5000","zoneprice":"1000","zonestatus":"1","status":"1","created_at":"2022-06-21 09:40:07","updated_at":"2022-06-21 09:40:07"}}
-*-*-*-*-*-*-*-*-*

---------------------05:53:43
{"status":"1","data":{"id":"8","store_user_id":"10","zonename":"Test","zonearea":"5000","zoneprice":"1000","zonestatus":"1","status":"1","created_at":"2022-06-21 09:40:07","updated_at":"2022-06-21 09:40:07"}}
-*-*-*-*-*-*-*-*-*

---------------------06:17:02
{"status":"1","data":{"id":"8","store_user_id":"10","zonename":"Test","zonearea":"5000","zoneprice":"1000","zonestatus":"1","status":"1","created_at":"2022-06-21 09:40:07","updated_at":"2022-06-21 09:40:07"}}
-*-*-*-*-*-*-*-*-*

---------------------06:18:01
{"status":"1","data":{"id":"8","store_user_id":"10","zonename":"Test","zonearea":"5000","zoneprice":"1000","zonestatus":"1","status":"1","created_at":"2022-06-21 09:40:07","updated_at":"2022-06-21 09:40:07"}}
-*-*-*-*-*-*-*-*-*

---------------------06:20:30
{"status":"1","data":{"id":"8","store_user_id":"10","zonename":"Test","zonearea":"5000","zoneprice":"1000","zonestatus":"1","status":"1","created_at":"2022-06-21 09:40:07","updated_at":"2022-06-21 09:40:07"}}
-*-*-*-*-*-*-*-*-*

---------------------06:21:11
{"status":"1","data":{"id":"8","store_user_id":"10","zonename":"Test","zonearea":"5000","zoneprice":"1000","zonestatus":"1","status":"1","created_at":"2022-06-21 09:40:07","updated_at":"2022-06-21 09:40:07"}}
-*-*-*-*-*-*-*-*-*

---------------------06:23:45
{"status":"1","data":{"id":"8","store_user_id":"10","zonename":"Test","zonearea":"5000","zoneprice":"1000","zonestatus":"1","status":"1","created_at":"2022-06-21 09:40:07","updated_at":"2022-06-21 09:40:07"}}
-*-*-*-*-*-*-*-*-*

---------------------06:24:09
{"status":"1","data":{"id":"8","store_user_id":"10","zonename":"Test","zonearea":"5000","zoneprice":"1000","zonestatus":"1","status":"1","created_at":"2022-06-21 09:40:07","updated_at":"2022-06-21 09:40:07"}}
-*-*-*-*-*-*-*-*-*

---------------------06:24:09
{"status":"1","data":{"id":"8","store_user_id":"10","zonename":"Test","zonearea":"5000","zoneprice":"1000","zonestatus":"1","status":"1","created_at":"2022-06-21 09:40:07","updated_at":"2022-06-21 09:40:07"}}
-*-*-*-*-*-*-*-*-*

---------------------06:24:43
{"status":"1","data":{"id":"8","store_user_id":"10","zonename":"Test","zonearea":"5000","zoneprice":"1000","zonestatus":"1","status":"1","created_at":"2022-06-21 09:40:07","updated_at":"2022-06-21 09:40:07"}}
-*-*-*-*-*-*-*-*-*

---------------------06:24:47
{"status":"1","data":{"id":"8","store_user_id":"10","zonename":"Test","zonearea":"5000","zoneprice":"1000","zonestatus":"1","status":"1","created_at":"2022-06-21 09:40:07","updated_at":"2022-06-21 09:40:07"}}
-*-*-*-*-*-*-*-*-*

---------------------06:25:21
{"status":"1","data":{"id":"8","store_user_id":"10","zonename":"Test","zonearea":"5000","zoneprice":"1000","zonestatus":"1","status":"1","created_at":"2022-06-21 09:40:07","updated_at":"2022-06-21 09:40:07"}}
-*-*-*-*-*-*-*-*-*

---------------------06:25:25
{"status":"1","data":{"id":"8","store_user_id":"10","zonename":"Test","zonearea":"5000","zoneprice":"1000","zonestatus":"1","status":"1","created_at":"2022-06-21 09:40:07","updated_at":"2022-06-21 09:40:07"}}
-*-*-*-*-*-*-*-*-*

---------------------06:25:28
{"status":"1","data":{"id":"8","store_user_id":"10","zonename":"Test","zonearea":"5000","zoneprice":"1000","zonestatus":"1","status":"1","created_at":"2022-06-21 09:40:07","updated_at":"2022-06-21 09:40:07"}}
-*-*-*-*-*-*-*-*-*

---------------------06:25:31
{"status":"1","data":{"id":"8","store_user_id":"10","zonename":"Test","zonearea":"5000","zoneprice":"1000","zonestatus":"1","status":"1","created_at":"2022-06-21 09:40:07","updated_at":"2022-06-21 09:40:07"}}
-*-*-*-*-*-*-*-*-*

---------------------06:25:38
{"status":"1","data":{"id":"8","store_user_id":"10","zonename":"Test","zonearea":"5000","zoneprice":"1000","zonestatus":"1","status":"1","created_at":"2022-06-21 09:40:07","updated_at":"2022-06-21 09:40:07"}}
-*-*-*-*-*-*-*-*-*

---------------------06:25:40
{"status":"1","data":{"id":"8","store_user_id":"10","zonename":"Test","zonearea":"5000","zoneprice":"1000","zonestatus":"1","status":"1","created_at":"2022-06-21 09:40:07","updated_at":"2022-06-21 09:40:07"}}
-*-*-*-*-*-*-*-*-*

---------------------06:25:46
{"status":"1","data":{"id":"8","store_user_id":"10","zonename":"Test","zonearea":"5000","zoneprice":"1000","zonestatus":"1","status":"1","created_at":"2022-06-21 09:40:07","updated_at":"2022-06-21 09:40:07"}}
-*-*-*-*-*-*-*-*-*

---------------------06:25:55
{"status":"1","data":{"id":"8","store_user_id":"10","zonename":"Test","zonearea":"5000","zoneprice":"1000","zonestatus":"1","status":"1","created_at":"2022-06-21 09:40:07","updated_at":"2022-06-21 09:40:07"}}
-*-*-*-*-*-*-*-*-*

---------------------06:26:01
{"status":"1","data":{"id":"8","store_user_id":"10","zonename":"Test","zonearea":"5000","zoneprice":"1000","zonestatus":"1","status":"1","created_at":"2022-06-21 09:40:07","updated_at":"2022-06-21 09:40:07"}}
-*-*-*-*-*-*-*-*-*

---------------------06:26:06
{"status":"1","data":{"id":"8","store_user_id":"10","zonename":"Test","zonearea":"5000","zoneprice":"1000","zonestatus":"1","status":"1","created_at":"2022-06-21 09:40:07","updated_at":"2022-06-21 09:40:07"}}
-*-*-*-*-*-*-*-*-*

---------------------06:26:09
{"status":"1","data":{"id":"8","store_user_id":"10","zonename":"Test","zonearea":"5000","zoneprice":"1000","zonestatus":"1","status":"1","created_at":"2022-06-21 09:40:07","updated_at":"2022-06-21 09:40:07"}}
-*-*-*-*-*-*-*-*-*

---------------------06:26:39
{"status":"1","data":{"id":"8","store_user_id":"10","zonename":"Test","zonearea":"5000","zoneprice":"1000","zonestatus":"1","status":"1","created_at":"2022-06-21 09:40:07","updated_at":"2022-06-21 09:40:07"}}
-*-*-*-*-*-*-*-*-*

---------------------06:26:40
{"status":"1","data":{"id":"8","store_user_id":"10","zonename":"Test","zonearea":"5000","zoneprice":"1000","zonestatus":"1","status":"1","created_at":"2022-06-21 09:40:07","updated_at":"2022-06-21 09:40:07"}}
-*-*-*-*-*-*-*-*-*

---------------------06:36:06
{"status":"1","data":{"id":"8","store_user_id":"10","zonename":"Test","zonearea":"5000","zoneprice":"1000","zonestatus":"1","status":"1","created_at":"2022-06-21 09:40:07","updated_at":"2022-06-21 09:40:07"}}
-*-*-*-*-*-*-*-*-*

---------------------06:36:07
{"status":"1","data":{"id":"8","store_user_id":"10","zonename":"Test","zonearea":"5000","zoneprice":"1000","zonestatus":"1","status":"1","created_at":"2022-06-21 09:40:07","updated_at":"2022-06-21 09:40:07"}}
-*-*-*-*-*-*-*-*-*

---------------------06:36:08
{"status":"1","data":{"id":"8","store_user_id":"10","zonename":"Test","zonearea":"5000","zoneprice":"1000","zonestatus":"1","status":"1","created_at":"2022-06-21 09:40:07","updated_at":"2022-06-21 09:40:07"}}
-*-*-*-*-*-*-*-*-*

---------------------06:36:25
{"status":"1","data":{"id":"8","store_user_id":"10","zonename":"Test","zonearea":"5000","zoneprice":"1000","zonestatus":"1","status":"1","created_at":"2022-06-21 09:40:07","updated_at":"2022-06-21 09:40:07"}}
-*-*-*-*-*-*-*-*-*

---------------------06:36:27
{"status":"1","data":{"id":"8","store_user_id":"10","zonename":"Test","zonearea":"5000","zoneprice":"1000","zonestatus":"1","status":"1","created_at":"2022-06-21 09:40:07","updated_at":"2022-06-21 09:40:07"}}
-*-*-*-*-*-*-*-*-*

---------------------06:36:42
{"status":"1","data":{"id":"8","store_user_id":"10","zonename":"Test","zonearea":"5000","zoneprice":"1000","zonestatus":"1","status":"1","created_at":"2022-06-21 09:40:07","updated_at":"2022-06-21 09:40:07"}}
-*-*-*-*-*-*-*-*-*

---------------------06:36:42
{"status":"1","data":{"id":"8","store_user_id":"10","zonename":"Test","zonearea":"5000","zoneprice":"1000","zonestatus":"1","status":"1","created_at":"2022-06-21 09:40:07","updated_at":"2022-06-21 09:40:07"}}
-*-*-*-*-*-*-*-*-*

---------------------06:36:57
{"status":"1","data":{"id":"8","store_user_id":"10","zonename":"Test","zonearea":"5000","zoneprice":"1000","zonestatus":"1","status":"1","created_at":"2022-06-21 09:40:07","updated_at":"2022-06-21 09:40:07"}}
-*-*-*-*-*-*-*-*-*

---------------------06:36:59
{"status":"1","data":{"id":"8","store_user_id":"10","zonename":"Test","zonearea":"5000","zoneprice":"1000","zonestatus":"1","status":"1","created_at":"2022-06-21 09:40:07","updated_at":"2022-06-21 09:40:07"}}
-*-*-*-*-*-*-*-*-*

---------------------06:37:03
{"status":"1","data":{"id":"8","store_user_id":"10","zonename":"Test","zonearea":"5000","zoneprice":"1000","zonestatus":"1","status":"1","created_at":"2022-06-21 09:40:07","updated_at":"2022-06-21 09:40:07"}}
-*-*-*-*-*-*-*-*-*

---------------------06:37:06
{"status":"1","data":{"id":"8","store_user_id":"10","zonename":"Test","zonearea":"5000","zoneprice":"1000","zonestatus":"1","status":"1","created_at":"2022-06-21 09:40:07","updated_at":"2022-06-21 09:40:07"}}
-*-*-*-*-*-*-*-*-*

---------------------06:37:37
{"status":"1","data":{"id":"8","store_user_id":"10","zonename":"Test","zonearea":"5000","zoneprice":"1000","zonestatus":"1","status":"1","created_at":"2022-06-21 09:40:07","updated_at":"2022-06-21 09:40:07"}}
-*-*-*-*-*-*-*-*-*

---------------------06:37:49
{"status":"1","data":{"id":"8","store_user_id":"10","zonename":"Test","zonearea":"5000","zoneprice":"1000","zonestatus":"1","status":"1","created_at":"2022-06-21 09:40:07","updated_at":"2022-06-21 09:40:07"}}
-*-*-*-*-*-*-*-*-*

---------------------06:37:55
{"status":"1","data":{"id":"8","store_user_id":"10","zonename":"Test","zonearea":"5000","zoneprice":"1000","zonestatus":"1","status":"1","created_at":"2022-06-21 09:40:07","updated_at":"2022-06-21 09:40:07"}}
-*-*-*-*-*-*-*-*-*

---------------------06:37:59
{"status":"1","data":{"id":"8","store_user_id":"10","zonename":"Test","zonearea":"5000","zoneprice":"1000","zonestatus":"1","status":"1","created_at":"2022-06-21 09:40:07","updated_at":"2022-06-21 09:40:07"}}
-*-*-*-*-*-*-*-*-*

---------------------06:38:18
{"status":"1","data":{"id":"8","store_user_id":"10","zonename":"Test","zonearea":"5000","zoneprice":"1000","zonestatus":"1","status":"1","created_at":"2022-06-21 09:40:07","updated_at":"2022-06-21 09:40:07"}}
-*-*-*-*-*-*-*-*-*

---------------------06:38:31
{"status":"1","data":{"id":"8","store_user_id":"10","zonename":"Test","zonearea":"5000","zoneprice":"1000","zonestatus":"1","status":"1","created_at":"2022-06-21 09:40:07","updated_at":"2022-06-21 09:40:07"}}
-*-*-*-*-*-*-*-*-*

---------------------06:38:34
{"status":"1","data":{"id":"8","store_user_id":"10","zonename":"Test","zonearea":"5000","zoneprice":"1000","zonestatus":"1","status":"1","created_at":"2022-06-21 09:40:07","updated_at":"2022-06-21 09:40:07"}}
-*-*-*-*-*-*-*-*-*

---------------------06:38:40
{"status":"1","data":{"id":"8","store_user_id":"10","zonename":"Test","zonearea":"5000","zoneprice":"1000","zonestatus":"1","status":"1","created_at":"2022-06-21 09:40:07","updated_at":"2022-06-21 09:40:07"}}
-*-*-*-*-*-*-*-*-*

---------------------06:38:53
{"status":"1","data":{"id":"8","store_user_id":"10","zonename":"Test","zonearea":"5000","zoneprice":"1000","zonestatus":"1","status":"1","created_at":"2022-06-21 09:40:07","updated_at":"2022-06-21 09:40:07"}}
-*-*-*-*-*-*-*-*-*

---------------------06:38:57
{"status":"1","data":{"id":"8","store_user_id":"10","zonename":"Test","zonearea":"5000","zoneprice":"1000","zonestatus":"1","status":"1","created_at":"2022-06-21 09:40:07","updated_at":"2022-06-21 09:40:07"}}
-*-*-*-*-*-*-*-*-*

---------------------06:40:32
{"status":"1","data":{"id":"9","store_user_id":"10","zonename":"\u00c5lborg","zonearea":"5200","zoneprice":"10000","zonestatus":"1","status":"1","created_at":"2022-06-24 07:29:47","updated_at":"2022-06-24 07:29:47"}}
-*-*-*-*-*-*-*-*-*

---------------------06:40:32
{"status":0,"data":null}
-*-*-*-*-*-*-*-*-*

---------------------06:40:37
{"status":0,"data":null}
-*-*-*-*-*-*-*-*-*

---------------------06:40:40
{"status":0,"data":null}
-*-*-*-*-*-*-*-*-*

---------------------06:40:54
{"status":0,"data":null}
-*-*-*-*-*-*-*-*-*

---------------------06:40:55
{"status":0,"data":null}
-*-*-*-*-*-*-*-*-*

---------------------06:41:08
{"status":0,"data":null}
-*-*-*-*-*-*-*-*-*

---------------------06:42:18
{"status":0,"data":null}
-*-*-*-*-*-*-*-*-*

---------------------06:44:17
{"status":0,"data":null}
-*-*-*-*-*-*-*-*-*

---------------------06:44:18
{"status":0,"data":null}
-*-*-*-*-*-*-*-*-*

---------------------06:44:36
{"status":0,"data":null}
-*-*-*-*-*-*-*-*-*

---------------------06:46:12
{"status":"1","data":{"id":"8","store_user_id":"10","zonename":"Test","zonearea":"5000","zoneprice":"1000","zonestatus":"1","status":"1","created_at":"2022-06-21 09:40:07","updated_at":"2022-06-21 09:40:07"}}
-*-*-*-*-*-*-*-*-*

---------------------06:46:13
{"status":"1","data":{"id":"8","store_user_id":"10","zonename":"Test","zonearea":"5000","zoneprice":"1000","zonestatus":"1","status":"1","created_at":"2022-06-21 09:40:07","updated_at":"2022-06-21 09:40:07"}}
-*-*-*-*-*-*-*-*-*

---------------------06:46:26
{"status":"1","data":{"id":"8","store_user_id":"10","zonename":"Test","zonearea":"5000","zoneprice":"1000","zonestatus":"1","status":"1","created_at":"2022-06-21 09:40:07","updated_at":"2022-06-21 09:40:07"}}
-*-*-*-*-*-*-*-*-*

---------------------06:46:28
{"status":"1","data":{"id":"8","store_user_id":"10","zonename":"Test","zonearea":"5000","zoneprice":"1000","zonestatus":"1","status":"1","created_at":"2022-06-21 09:40:07","updated_at":"2022-06-21 09:40:07"}}
-*-*-*-*-*-*-*-*-*

---------------------06:46:30
{"status":"1","data":{"id":"8","store_user_id":"10","zonename":"Test","zonearea":"5000","zoneprice":"1000","zonestatus":"1","status":"1","created_at":"2022-06-21 09:40:07","updated_at":"2022-06-21 09:40:07"}}
-*-*-*-*-*-*-*-*-*

---------------------06:46:35
{"status":"1","data":{"id":"8","store_user_id":"10","zonename":"Test","zonearea":"5000","zoneprice":"1000","zonestatus":"1","status":"1","created_at":"2022-06-21 09:40:07","updated_at":"2022-06-21 09:40:07"}}
-*-*-*-*-*-*-*-*-*

---------------------06:46:36
{"status":"1","data":{"id":"8","store_user_id":"10","zonename":"Test","zonearea":"5000","zoneprice":"1000","zonestatus":"1","status":"1","created_at":"2022-06-21 09:40:07","updated_at":"2022-06-21 09:40:07"}}
-*-*-*-*-*-*-*-*-*

---------------------06:46:38
{"status":"1","data":{"id":"8","store_user_id":"10","zonename":"Test","zonearea":"5000","zoneprice":"1000","zonestatus":"1","status":"1","created_at":"2022-06-21 09:40:07","updated_at":"2022-06-21 09:40:07"}}
-*-*-*-*-*-*-*-*-*

---------------------06:46:40
{"status":"1","data":{"id":"8","store_user_id":"10","zonename":"Test","zonearea":"5000","zoneprice":"1000","zonestatus":"1","status":"1","created_at":"2022-06-21 09:40:07","updated_at":"2022-06-21 09:40:07"}}
-*-*-*-*-*-*-*-*-*

---------------------06:47:26
{"status":"1","data":{"id":"8","store_user_id":"10","zonename":"Test","zonearea":"5000","zoneprice":"1000","zonestatus":"1","status":"1","created_at":"2022-06-21 09:40:07","updated_at":"2022-06-21 09:40:07"}}
-*-*-*-*-*-*-*-*-*

---------------------06:47:33
{"status":"1","data":{"id":"8","store_user_id":"10","zonename":"Test","zonearea":"5000","zoneprice":"1000","zonestatus":"1","status":"1","created_at":"2022-06-21 09:40:07","updated_at":"2022-06-21 09:40:07"}}
-*-*-*-*-*-*-*-*-*

---------------------06:47:36
{"status":"1","data":{"id":"8","store_user_id":"10","zonename":"Test","zonearea":"5000","zoneprice":"1000","zonestatus":"1","status":"1","created_at":"2022-06-21 09:40:07","updated_at":"2022-06-21 09:40:07"}}
-*-*-*-*-*-*-*-*-*

---------------------06:56:09
{"status":"1","data":{"id":"8","store_user_id":"10","zonename":"Test","zonearea":"5000","zoneprice":"1000","zonestatus":"1","status":"1","created_at":"2022-06-21 09:40:07","updated_at":"2022-06-21 09:40:07"}}
-*-*-*-*-*-*-*-*-*

---------------------06:56:09
{"status":"1","data":{"id":"8","store_user_id":"10","zonename":"Test","zonearea":"5000","zoneprice":"1000","zonestatus":"1","status":"1","created_at":"2022-06-21 09:40:07","updated_at":"2022-06-21 09:40:07"}}
-*-*-*-*-*-*-*-*-*

---------------------06:57:01
{"status":"1","data":{"id":"8","store_user_id":"10","zonename":"Test","zonearea":"5000","zoneprice":"1000","zonestatus":"1","status":"1","created_at":"2022-06-21 09:40:07","updated_at":"2022-06-21 09:40:07"}}
-*-*-*-*-*-*-*-*-*

---------------------06:57:04
{"status":"1","data":{"id":"8","store_user_id":"10","zonename":"Test","zonearea":"5000","zoneprice":"1000","zonestatus":"1","status":"1","created_at":"2022-06-21 09:40:07","updated_at":"2022-06-21 09:40:07"}}
-*-*-*-*-*-*-*-*-*

---------------------06:57:15
{"status":"1","data":{"id":"8","store_user_id":"10","zonename":"Test","zonearea":"5000","zoneprice":"1000","zonestatus":"1","status":"1","created_at":"2022-06-21 09:40:07","updated_at":"2022-06-21 09:40:07"}}
-*-*-*-*-*-*-*-*-*

---------------------06:57:16
{"status":"1","data":{"id":"8","store_user_id":"10","zonename":"Test","zonearea":"5000","zoneprice":"1000","zonestatus":"1","status":"1","created_at":"2022-06-21 09:40:07","updated_at":"2022-06-21 09:40:07"}}
-*-*-*-*-*-*-*-*-*

---------------------06:57:23
{"status":"1","data":{"id":"8","store_user_id":"10","zonename":"Test","zonearea":"5000","zoneprice":"1000","zonestatus":"1","status":"1","created_at":"2022-06-21 09:40:07","updated_at":"2022-06-21 09:40:07"}}
-*-*-*-*-*-*-*-*-*

---------------------06:57:24
{"status":"1","data":{"id":"8","store_user_id":"10","zonename":"Test","zonearea":"5000","zoneprice":"1000","zonestatus":"1","status":"1","created_at":"2022-06-21 09:40:07","updated_at":"2022-06-21 09:40:07"}}
-*-*-*-*-*-*-*-*-*

---------------------06:57:27
{"status":"1","data":{"id":"8","store_user_id":"10","zonename":"Test","zonearea":"5000","zoneprice":"1000","zonestatus":"1","status":"1","created_at":"2022-06-21 09:40:07","updated_at":"2022-06-21 09:40:07"}}
-*-*-*-*-*-*-*-*-*

---------------------06:57:28
{"status":"1","data":{"id":"8","store_user_id":"10","zonename":"Test","zonearea":"5000","zoneprice":"1000","zonestatus":"1","status":"1","created_at":"2022-06-21 09:40:07","updated_at":"2022-06-21 09:40:07"}}
-*-*-*-*-*-*-*-*-*

---------------------06:57:35
{"status":"1","data":{"id":"8","store_user_id":"10","zonename":"Test","zonearea":"5000","zoneprice":"1000","zonestatus":"1","status":"1","created_at":"2022-06-21 09:40:07","updated_at":"2022-06-21 09:40:07"}}
-*-*-*-*-*-*-*-*-*

---------------------06:57:36
{"status":"1","data":{"id":"8","store_user_id":"10","zonename":"Test","zonearea":"5000","zoneprice":"1000","zonestatus":"1","status":"1","created_at":"2022-06-21 09:40:07","updated_at":"2022-06-21 09:40:07"}}
-*-*-*-*-*-*-*-*-*

---------------------06:57:41
{"status":"1","data":{"id":"8","store_user_id":"10","zonename":"Test","zonearea":"5000","zoneprice":"1000","zonestatus":"1","status":"1","created_at":"2022-06-21 09:40:07","updated_at":"2022-06-21 09:40:07"}}
-*-*-*-*-*-*-*-*-*

---------------------06:57:42
{"status":"1","data":{"id":"8","store_user_id":"10","zonename":"Test","zonearea":"5000","zoneprice":"1000","zonestatus":"1","status":"1","created_at":"2022-06-21 09:40:07","updated_at":"2022-06-21 09:40:07"}}
-*-*-*-*-*-*-*-*-*

---------------------06:57:48
{"status":"1","data":{"id":"8","store_user_id":"10","zonename":"Test","zonearea":"5000","zoneprice":"1000","zonestatus":"1","status":"1","created_at":"2022-06-21 09:40:07","updated_at":"2022-06-21 09:40:07"}}
-*-*-*-*-*-*-*-*-*

---------------------06:57:48
{"status":"1","data":{"id":"8","store_user_id":"10","zonename":"Test","zonearea":"5000","zoneprice":"1000","zonestatus":"1","status":"1","created_at":"2022-06-21 09:40:07","updated_at":"2022-06-21 09:40:07"}}
-*-*-*-*-*-*-*-*-*

---------------------06:57:49
{"status":"1","data":{"id":"8","store_user_id":"10","zonename":"Test","zonearea":"5000","zoneprice":"1000","zonestatus":"1","status":"1","created_at":"2022-06-21 09:40:07","updated_at":"2022-06-21 09:40:07"}}
-*-*-*-*-*-*-*-*-*

---------------------06:57:55
{"status":"1","data":{"id":"8","store_user_id":"10","zonename":"Test","zonearea":"5000","zoneprice":"1000","zonestatus":"1","status":"1","created_at":"2022-06-21 09:40:07","updated_at":"2022-06-21 09:40:07"}}
-*-*-*-*-*-*-*-*-*

---------------------06:58:08
{"status":"1","data":{"id":"8","store_user_id":"10","zonename":"Test","zonearea":"5000","zoneprice":"1000","zonestatus":"1","status":"1","created_at":"2022-06-21 09:40:07","updated_at":"2022-06-21 09:40:07"}}
-*-*-*-*-*-*-*-*-*

---------------------06:58:10
{"status":"1","data":{"id":"8","store_user_id":"10","zonename":"Test","zonearea":"5000","zoneprice":"1000","zonestatus":"1","status":"1","created_at":"2022-06-21 09:40:07","updated_at":"2022-06-21 09:40:07"}}
-*-*-*-*-*-*-*-*-*

---------------------06:58:12
{"status":"1","data":{"id":"8","store_user_id":"10","zonename":"Test","zonearea":"5000","zoneprice":"1000","zonestatus":"1","status":"1","created_at":"2022-06-21 09:40:07","updated_at":"2022-06-21 09:40:07"}}
-*-*-*-*-*-*-*-*-*

---------------------06:58:37
{"status":"1","data":{"id":"8","store_user_id":"10","zonename":"Test","zonearea":"5000","zoneprice":"1000","zonestatus":"1","status":"1","created_at":"2022-06-21 09:40:07","updated_at":"2022-06-21 09:40:07"}}
-*-*-*-*-*-*-*-*-*

---------------------07:00:13
{"status":"1","data":{"id":"8","store_user_id":"10","zonename":"Test","zonearea":"5000","zoneprice":"1000","zonestatus":"1","status":"1","created_at":"2022-06-21 09:40:07","updated_at":"2022-06-21 09:40:07"}}
-*-*-*-*-*-*-*-*-*

---------------------07:00:17
{"status":"1","data":{"id":"8","store_user_id":"10","zonename":"Test","zonearea":"5000","zoneprice":"1000","zonestatus":"1","status":"1","created_at":"2022-06-21 09:40:07","updated_at":"2022-06-21 09:40:07"}}
-*-*-*-*-*-*-*-*-*

---------------------14:42:35
{"status":0,"data":null}
-*-*-*-*-*-*-*-*-*

---------------------14:42:43
{"status":0,"data":null}
-*-*-*-*-*-*-*-*-*