

---------------------11:07:26
{"status":"1","data":{"id":"8","store_user_id":"10","zonename":"Test","zonearea":"5000","zoneprice":"1000","zonestatus":"1","status":"1","created_at":"2022-06-21 09:40:07","updated_at":"2022-06-21 09:40:07"}}
-*-*-*-*-*-*-*-*-*

---------------------11:07:27
{"status":"1","data":{"id":"8","store_user_id":"10","zonename":"Test","zonearea":"5000","zoneprice":"1000","zonestatus":"1","status":"1","created_at":"2022-06-21 09:40:07","updated_at":"2022-06-21 09:40:07"}}
-*-*-*-*-*-*-*-*-*

---------------------11:10:19
{"status":"1","data":{"id":"8","store_user_id":"10","zonename":"Test","zonearea":"5000","zoneprice":"1000","zonestatus":"1","status":"1","created_at":"2022-06-21 09:40:07","updated_at":"2022-06-21 09:40:07"}}
-*-*-*-*-*-*-*-*-*

---------------------11:10:26
{"status":"1","data":{"id":"8","store_user_id":"10","zonename":"Test","zonearea":"5000","zoneprice":"1000","zonestatus":"1","status":"1","created_at":"2022-06-21 09:40:07","updated_at":"2022-06-21 09:40:07"}}
-*-*-*-*-*-*-*-*-*

---------------------11:10:32
{"status":"1","data":{"id":"8","store_user_id":"10","zonename":"Test","zonearea":"5000","zoneprice":"1000","zonestatus":"1","status":"1","created_at":"2022-06-21 09:40:07","updated_at":"2022-06-21 09:40:07"}}
-*-*-*-*-*-*-*-*-*

---------------------11:10:50
{"status":"1","data":{"id":"8","store_user_id":"10","zonename":"Test","zonearea":"5000","zoneprice":"1000","zonestatus":"1","status":"1","created_at":"2022-06-21 09:40:07","updated_at":"2022-06-21 09:40:07"}}
-*-*-*-*-*-*-*-*-*

---------------------11:10:50
{"status":"1","data":{"id":"8","store_user_id":"10","zonename":"Test","zonearea":"5000","zoneprice":"1000","zonestatus":"1","status":"1","created_at":"2022-06-21 09:40:07","updated_at":"2022-06-21 09:40:07"}}
-*-*-*-*-*-*-*-*-*

---------------------11:10:51
{"status":"1","data":{"id":"8","store_user_id":"10","zonename":"Test","zonearea":"5000","zoneprice":"1000","zonestatus":"1","status":"1","created_at":"2022-06-21 09:40:07","updated_at":"2022-06-21 09:40:07"}}
-*-*-*-*-*-*-*-*-*

---------------------11:32:01
{"status":"1","data":{"id":"8","store_user_id":"10","zonename":"Test","zonearea":"5000","zoneprice":"1000","zonestatus":"1","status":"1","created_at":"2022-06-21 09:40:07","updated_at":"2022-06-21 09:40:07"}}
-*-*-*-*-*-*-*-*-*

---------------------11:32:01
{"status":"1","data":{"id":"8","store_user_id":"10","zonename":"Test","zonearea":"5000","zoneprice":"1000","zonestatus":"1","status":"1","created_at":"2022-06-21 09:40:07","updated_at":"2022-06-21 09:40:07"}}
-*-*-*-*-*-*-*-*-*

---------------------11:32:30
{"status":"1","data":{"id":"8","store_user_id":"10","zonename":"Test","zonearea":"5000","zoneprice":"1000","zonestatus":"1","status":"1","created_at":"2022-06-21 09:40:07","updated_at":"2022-06-21 09:40:07"}}
-*-*-*-*-*-*-*-*-*

---------------------11:32:31
{"status":"1","data":{"id":"8","store_user_id":"10","zonename":"Test","zonearea":"5000","zoneprice":"1000","zonestatus":"1","status":"1","created_at":"2022-06-21 09:40:07","updated_at":"2022-06-21 09:40:07"}}
-*-*-*-*-*-*-*-*-*

---------------------11:35:13
{"status":"1","data":{"id":"8","store_user_id":"10","zonename":"Test","zonearea":"5000","zoneprice":"1000","zonestatus":"1","status":"1","created_at":"2022-06-21 09:40:07","updated_at":"2022-06-21 09:40:07"}}
-*-*-*-*-*-*-*-*-*

---------------------11:35:13
{"status":"1","data":{"id":"8","store_user_id":"10","zonename":"Test","zonearea":"5000","zoneprice":"1000","zonestatus":"1","status":"1","created_at":"2022-06-21 09:40:07","updated_at":"2022-06-21 09:40:07"}}
-*-*-*-*-*-*-*-*-*

---------------------12:09:51
{"status":"1","data":{"id":"8","store_user_id":"10","zonename":"Test","zonearea":"5000","zoneprice":"1000","zonestatus":"1","status":"1","created_at":"2022-06-21 09:40:07","updated_at":"2022-06-21 09:40:07"}}
-*-*-*-*-*-*-*-*-*

---------------------12:09:51
{"status":"1","data":{"id":"8","store_user_id":"10","zonename":"Test","zonearea":"5000","zoneprice":"1000","zonestatus":"1","status":"1","created_at":"2022-06-21 09:40:07","updated_at":"2022-06-21 09:40:07"}}
-*-*-*-*-*-*-*-*-*

---------------------12:10:48
{"status":"1","data":{"id":"8","store_user_id":"10","zonename":"Test","zonearea":"5000","zoneprice":"1000","zonestatus":"1","status":"1","created_at":"2022-06-21 09:40:07","updated_at":"2022-06-21 09:40:07"}}
-*-*-*-*-*-*-*-*-*

---------------------12:10:50
{"status":"1","data":{"id":"8","store_user_id":"10","zonename":"Test","zonearea":"5000","zoneprice":"1000","zonestatus":"1","status":"1","created_at":"2022-06-21 09:40:07","updated_at":"2022-06-21 09:40:07"}}
-*-*-*-*-*-*-*-*-*

---------------------12:10:51
{"status":"1","data":{"id":"8","store_user_id":"10","zonename":"Test","zonearea":"5000","zoneprice":"1000","zonestatus":"1","status":"1","created_at":"2022-06-21 09:40:07","updated_at":"2022-06-21 09:40:07"}}
-*-*-*-*-*-*-*-*-*

---------------------12:11:19
{"status":"1","data":{"id":"8","store_user_id":"10","zonename":"Test","zonearea":"5000","zoneprice":"1000","zonestatus":"1","status":"1","created_at":"2022-06-21 09:40:07","updated_at":"2022-06-21 09:40:07"}}
-*-*-*-*-*-*-*-*-*

---------------------12:11:20
{"status":"1","data":{"id":"8","store_user_id":"10","zonename":"Test","zonearea":"5000","zoneprice":"1000","zonestatus":"1","status":"1","created_at":"2022-06-21 09:40:07","updated_at":"2022-06-21 09:40:07"}}
-*-*-*-*-*-*-*-*-*

---------------------12:12:01
{"status":"1","data":{"id":"8","store_user_id":"10","zonename":"Test","zonearea":"5000","zoneprice":"1000","zonestatus":"1","status":"1","created_at":"2022-06-21 09:40:07","updated_at":"2022-06-21 09:40:07"}}
-*-*-*-*-*-*-*-*-*

---------------------12:12:01
{"status":"1","data":{"id":"8","store_user_id":"10","zonename":"Test","zonearea":"5000","zoneprice":"1000","zonestatus":"1","status":"1","created_at":"2022-06-21 09:40:07","updated_at":"2022-06-21 09:40:07"}}
-*-*-*-*-*-*-*-*-*

---------------------12:13:38
{"status":"1","data":{"id":"8","store_user_id":"10","zonename":"Test","zonearea":"5000","zoneprice":"1000","zonestatus":"1","status":"1","created_at":"2022-06-21 09:40:07","updated_at":"2022-06-21 09:40:07"}}
-*-*-*-*-*-*-*-*-*

---------------------12:13:41
{"status":"1","data":{"id":"8","store_user_id":"10","zonename":"Test","zonearea":"5000","zoneprice":"1000","zonestatus":"1","status":"1","created_at":"2022-06-21 09:40:07","updated_at":"2022-06-21 09:40:07"}}
-*-*-*-*-*-*-*-*-*

---------------------12:14:22
{"status":"1","data":{"id":"8","store_user_id":"10","zonename":"Test","zonearea":"5000","zoneprice":"1000","zonestatus":"1","status":"1","created_at":"2022-06-21 09:40:07","updated_at":"2022-06-21 09:40:07"}}
-*-*-*-*-*-*-*-*-*

---------------------12:14:23
{"status":"1","data":{"id":"8","store_user_id":"10","zonename":"Test","zonearea":"5000","zoneprice":"1000","zonestatus":"1","status":"1","created_at":"2022-06-21 09:40:07","updated_at":"2022-06-21 09:40:07"}}
-*-*-*-*-*-*-*-*-*

---------------------12:14:36
{"status":"1","data":{"id":"8","store_user_id":"10","zonename":"Test","zonearea":"5000","zoneprice":"1000","zonestatus":"1","status":"1","created_at":"2022-06-21 09:40:07","updated_at":"2022-06-21 09:40:07"}}
-*-*-*-*-*-*-*-*-*

---------------------12:14:38
{"status":"1","data":{"id":"8","store_user_id":"10","zonename":"Test","zonearea":"5000","zoneprice":"1000","zonestatus":"1","status":"1","created_at":"2022-06-21 09:40:07","updated_at":"2022-06-21 09:40:07"}}
-*-*-*-*-*-*-*-*-*

---------------------12:21:27
{"status":"1","data":{"id":"8","store_user_id":"10","zonename":"Test","zonearea":"5000","zoneprice":"1000","zonestatus":"1","status":"1","created_at":"2022-06-21 09:40:07","updated_at":"2022-06-21 09:40:07"}}
-*-*-*-*-*-*-*-*-*

---------------------12:21:28
{"status":"1","data":{"id":"8","store_user_id":"10","zonename":"Test","zonearea":"5000","zoneprice":"1000","zonestatus":"1","status":"1","created_at":"2022-06-21 09:40:07","updated_at":"2022-06-21 09:40:07"}}
-*-*-*-*-*-*-*-*-*

---------------------12:21:29
{"status":"1","data":{"id":"8","store_user_id":"10","zonename":"Test","zonearea":"5000","zoneprice":"1000","zonestatus":"1","status":"1","created_at":"2022-06-21 09:40:07","updated_at":"2022-06-21 09:40:07"}}
-*-*-*-*-*-*-*-*-*

---------------------12:21:59
{"status":"1","data":{"id":"8","store_user_id":"10","zonename":"Test","zonearea":"5000","zoneprice":"1000","zonestatus":"1","status":"1","created_at":"2022-06-21 09:40:07","updated_at":"2022-06-21 09:40:07"}}
-*-*-*-*-*-*-*-*-*

---------------------12:22:06
{"status":"1","data":{"id":"8","store_user_id":"10","zonename":"Test","zonearea":"5000","zoneprice":"1000","zonestatus":"1","status":"1","created_at":"2022-06-21 09:40:07","updated_at":"2022-06-21 09:40:07"}}
-*-*-*-*-*-*-*-*-*

---------------------12:22:29
{"status":"1","data":{"id":"8","store_user_id":"10","zonename":"Test","zonearea":"5000","zoneprice":"1000","zonestatus":"1","status":"1","created_at":"2022-06-21 09:40:07","updated_at":"2022-06-21 09:40:07"}}
-*-*-*-*-*-*-*-*-*

---------------------12:26:59
{"status":"1","data":{"id":"8","store_user_id":"10","zonename":"Test","zonearea":"5000","zoneprice":"1000","zonestatus":"1","status":"1","created_at":"2022-06-21 09:40:07","updated_at":"2022-06-21 09:40:07"}}
-*-*-*-*-*-*-*-*-*

---------------------12:34:42
{"status":"1","data":{"id":"8","store_user_id":"10","zonename":"Test","zonearea":"5000","zoneprice":"1000","zonestatus":"1","status":"1","created_at":"2022-06-21 09:40:07","updated_at":"2022-06-21 09:40:07"}}
-*-*-*-*-*-*-*-*-*

---------------------13:15:50
{"status":"1","data":{"id":"8","store_user_id":"10","zonename":"Test","zonearea":"5000","zoneprice":"1000","zonestatus":"1","status":"1","created_at":"2022-06-21 09:40:07","updated_at":"2022-06-21 09:40:07"}}
-*-*-*-*-*-*-*-*-*

---------------------14:40:19
{"status":0,"data":null}
-*-*-*-*-*-*-*-*-*

---------------------14:40:24
{"status":0,"data":null}
-*-*-*-*-*-*-*-*-*