

---------------------08:17:44
{"status":"1","data":{"id":"326","store_user_id":"10","zonename":"Sydals","zonearea":"6470","zoneprice":"0kr","zonestatus":"1","status":"1","created_at":"2022-11-12 11:19:02","updated_at":"2022-11-12 11:19:02"}}
-*-*-*-*-*-*-*-*-*

---------------------08:17:53
{"status":"1","data":{"id":"326","store_user_id":"10","zonename":"Sydals","zonearea":"6470","zoneprice":"0kr","zonestatus":"1","status":"1","created_at":"2022-11-12 11:19:02","updated_at":"2022-11-12 11:19:02"}}
-*-*-*-*-*-*-*-*-*

---------------------08:18:04
{"status":"1","data":{"id":"326","store_user_id":"10","zonename":"Sydals","zonearea":"6470","zoneprice":"0kr","zonestatus":"1","status":"1","created_at":"2022-11-12 11:19:02","updated_at":"2022-11-12 11:19:02"}}
-*-*-*-*-*-*-*-*-*

---------------------09:54:01
{"status":"1","data":{"id":"8","store_user_id":"10","zonename":"Valby","zonearea":"2500","zoneprice":"2200kr","zonestatus":"1","status":"1","created_at":"2022-11-15 09:47:27","updated_at":"2022-11-15 09:47:27"}}
-*-*-*-*-*-*-*-*-*

---------------------09:54:17
{"status":"1","data":{"id":"2","store_user_id":"10","zonename":"K\u00f8benhavn \u00d8","zonearea":"2100","zoneprice":"2200kr","zonestatus":"1","status":"1","created_at":"2022-11-15 09:47:27","updated_at":"2022-11-15 09:47:27"}}
-*-*-*-*-*-*-*-*-*

---------------------17:11:12
{"status":0,"data":null}
-*-*-*-*-*-*-*-*-*

---------------------18:00:55
{"status":"1","data":{"id":"310","store_user_id":"10","zonename":"R\u00f8dekro","zonearea":"6230","zoneprice":"0kr","zonestatus":"1","status":"1","created_at":"2022-11-15 09:47:27","updated_at":"2022-11-15 09:47:27"}}
-*-*-*-*-*-*-*-*-*

---------------------18:02:23
{"status":"1","data":{"id":"297","store_user_id":"10","zonename":"Kolding","zonearea":"6000","zoneprice":"500kr","zonestatus":"1","status":"1","created_at":"2022-11-15 09:47:27","updated_at":"2022-11-15 09:47:27"}}
-*-*-*-*-*-*-*-*-*

---------------------18:02:38
{"status":"1","data":{"id":"297","store_user_id":"10","zonename":"Kolding","zonearea":"6000","zoneprice":"500kr","zonestatus":"1","status":"1","created_at":"2022-11-15 09:47:27","updated_at":"2022-11-15 09:47:27"}}
-*-*-*-*-*-*-*-*-*

---------------------18:03:06
{"status":"1","data":{"id":"310","store_user_id":"10","zonename":"R\u00f8dekro","zonearea":"6230","zoneprice":"0kr","zonestatus":"1","status":"1","created_at":"2022-11-15 09:47:27","updated_at":"2022-11-15 09:47:27"}}
-*-*-*-*-*-*-*-*-*

---------------------18:03:17
{"status":"1","data":{"id":"310","store_user_id":"10","zonename":"R\u00f8dekro","zonearea":"6230","zoneprice":"0kr","zonestatus":"1","status":"1","created_at":"2022-11-15 09:47:27","updated_at":"2022-11-15 09:47:27"}}
-*-*-*-*-*-*-*-*-*

---------------------18:03:20
{"status":"1","data":{"id":"310","store_user_id":"10","zonename":"R\u00f8dekro","zonearea":"6230","zoneprice":"0kr","zonestatus":"1","status":"1","created_at":"2022-11-15 09:47:27","updated_at":"2022-11-15 09:47:27"}}
-*-*-*-*-*-*-*-*-*

---------------------18:03:22
{"status":"1","data":{"id":"310","store_user_id":"10","zonename":"R\u00f8dekro","zonearea":"6230","zoneprice":"0kr","zonestatus":"1","status":"1","created_at":"2022-11-15 09:47:27","updated_at":"2022-11-15 09:47:27"}}
-*-*-*-*-*-*-*-*-*

---------------------18:03:24
{"status":"1","data":{"id":"310","store_user_id":"10","zonename":"R\u00f8dekro","zonearea":"6230","zoneprice":"0kr","zonestatus":"1","status":"1","created_at":"2022-11-15 09:47:27","updated_at":"2022-11-15 09:47:27"}}
-*-*-*-*-*-*-*-*-*

---------------------18:03:28
{"status":"1","data":{"id":"310","store_user_id":"10","zonename":"R\u00f8dekro","zonearea":"6230","zoneprice":"0kr","zonestatus":"1","status":"1","created_at":"2022-11-15 09:47:27","updated_at":"2022-11-15 09:47:27"}}
-*-*-*-*-*-*-*-*-*

---------------------18:03:33
{"status":"1","data":{"id":"310","store_user_id":"10","zonename":"R\u00f8dekro","zonearea":"6230","zoneprice":"0kr","zonestatus":"1","status":"1","created_at":"2022-11-15 09:47:27","updated_at":"2022-11-15 09:47:27"}}
-*-*-*-*-*-*-*-*-*