

---------------------05:07:27
{"status":"1","data":[{"id":"323","store_user_id":"10","zonename":"S\u00f8nderborg","zonearea":"6400","zoneprice":"0kr","zonestatus":"1","status":"1","created_at":"2022-11-15 09:47:27","updated_at":"2022-11-15 09:47:27"}]}
-*-*-*-*-*-*-*-*-*

---------------------05:07:27
{"status":"1","data":[{"id":"323","store_user_id":"10","zonename":"S\u00f8nderborg","zonearea":"6400","zoneprice":"0kr","zonestatus":"1","status":"1","created_at":"2022-11-15 09:47:27","updated_at":"2022-11-15 09:47:27"}]}
-*-*-*-*-*-*-*-*-*

---------------------05:07:30
{"status":"1","data":{"id":"323","store_user_id":"10","zonename":"S\u00f8nderborg","zonearea":"6400","zoneprice":"0kr","zonestatus":"1","status":"1","created_at":"2022-11-15 09:47:27","updated_at":"2022-11-15 09:47:27"}}
-*-*-*-*-*-*-*-*-*

---------------------05:07:38
{"status":"1","data":{"id":"323","store_user_id":"10","zonename":"S\u00f8nderborg","zonearea":"6400","zoneprice":"0kr","zonestatus":"1","status":"1","created_at":"2022-11-15 09:47:27","updated_at":"2022-11-15 09:47:27"}}
-*-*-*-*-*-*-*-*-*

---------------------05:07:42
{"status":"1","data":{"id":"323","store_user_id":"10","zonename":"S\u00f8nderborg","zonearea":"6400","zoneprice":"0kr","zonestatus":"1","status":"1","created_at":"2022-11-15 09:47:27","updated_at":"2022-11-15 09:47:27"}}
-*-*-*-*-*-*-*-*-*

---------------------19:46:38
{"status":"1","data":[{"id":"323","store_user_id":"10","zonename":"S\u00f8nderborg","zonearea":"6400","zoneprice":"0kr","zonestatus":"1","status":"1","created_at":"2022-11-15 09:47:27","updated_at":"2022-11-15 09:47:27"}]}
-*-*-*-*-*-*-*-*-*

---------------------19:46:40
{"status":"1","data":{"id":"323","store_user_id":"10","zonename":"S\u00f8nderborg","zonearea":"6400","zoneprice":"0kr","zonestatus":"1","status":"1","created_at":"2022-11-15 09:47:27","updated_at":"2022-11-15 09:47:27"}}
-*-*-*-*-*-*-*-*-*

---------------------19:47:02
{"status":"1","data":{"id":"323","store_user_id":"10","zonename":"S\u00f8nderborg","zonearea":"6400","zoneprice":"0kr","zonestatus":"1","status":"1","created_at":"2022-11-15 09:47:27","updated_at":"2022-11-15 09:47:27"}}
-*-*-*-*-*-*-*-*-*

---------------------19:47:44
{"status":"1","data":{"id":"323","store_user_id":"10","zonename":"S\u00f8nderborg","zonearea":"6400","zoneprice":"0kr","zonestatus":"1","status":"1","created_at":"2022-11-15 09:47:27","updated_at":"2022-11-15 09:47:27"}}
-*-*-*-*-*-*-*-*-*

---------------------19:47:51
{"status":"1","data":{"id":"323","store_user_id":"10","zonename":"S\u00f8nderborg","zonearea":"6400","zoneprice":"0kr","zonestatus":"1","status":"1","created_at":"2022-11-15 09:47:27","updated_at":"2022-11-15 09:47:27"}}
-*-*-*-*-*-*-*-*-*

---------------------19:47:55
{"status":"1","data":{"id":"323","store_user_id":"10","zonename":"S\u00f8nderborg","zonearea":"6400","zoneprice":"0kr","zonestatus":"1","status":"1","created_at":"2022-11-15 09:47:27","updated_at":"2022-11-15 09:47:27"}}
-*-*-*-*-*-*-*-*-*

---------------------19:47:59
{"status":"1","data":{"id":"323","store_user_id":"10","zonename":"S\u00f8nderborg","zonearea":"6400","zoneprice":"0kr","zonestatus":"1","status":"1","created_at":"2022-11-15 09:47:27","updated_at":"2022-11-15 09:47:27"}}
-*-*-*-*-*-*-*-*-*

---------------------19:48:02
{"status":"1","data":{"id":"323","store_user_id":"10","zonename":"S\u00f8nderborg","zonearea":"6400","zoneprice":"0kr","zonestatus":"1","status":"1","created_at":"2022-11-15 09:47:27","updated_at":"2022-11-15 09:47:27"}}
-*-*-*-*-*-*-*-*-*

---------------------19:48:06
{"status":"1","data":{"id":"323","store_user_id":"10","zonename":"S\u00f8nderborg","zonearea":"6400","zoneprice":"0kr","zonestatus":"1","status":"1","created_at":"2022-11-15 09:47:27","updated_at":"2022-11-15 09:47:27"}}
-*-*-*-*-*-*-*-*-*

---------------------19:48:09
{"status":"1","data":{"id":"323","store_user_id":"10","zonename":"S\u00f8nderborg","zonearea":"6400","zoneprice":"0kr","zonestatus":"1","status":"1","created_at":"2022-11-15 09:47:27","updated_at":"2022-11-15 09:47:27"}}
-*-*-*-*-*-*-*-*-*

---------------------19:48:12
{"status":"1","data":{"id":"323","store_user_id":"10","zonename":"S\u00f8nderborg","zonearea":"6400","zoneprice":"0kr","zonestatus":"1","status":"1","created_at":"2022-11-15 09:47:27","updated_at":"2022-11-15 09:47:27"}}
-*-*-*-*-*-*-*-*-*

---------------------19:48:16
{"status":"1","data":{"id":"323","store_user_id":"10","zonename":"S\u00f8nderborg","zonearea":"6400","zoneprice":"0kr","zonestatus":"1","status":"1","created_at":"2022-11-15 09:47:27","updated_at":"2022-11-15 09:47:27"}}
-*-*-*-*-*-*-*-*-*

---------------------19:49:43
{"status":"1","data":{"id":"323","store_user_id":"10","zonename":"S\u00f8nderborg","zonearea":"6400","zoneprice":"0kr","zonestatus":"1","status":"1","created_at":"2022-11-15 09:47:27","updated_at":"2022-11-15 09:47:27"}}
-*-*-*-*-*-*-*-*-*

---------------------19:49:49
{"status":"1","data":{"id":"323","store_user_id":"10","zonename":"S\u00f8nderborg","zonearea":"6400","zoneprice":"0kr","zonestatus":"1","status":"1","created_at":"2022-11-15 09:47:27","updated_at":"2022-11-15 09:47:27"}}
-*-*-*-*-*-*-*-*-*