

---------------------07:27:58
{"status":"1","data":[{"id":"319","store_user_id":"10","zonename":"Krus\u00e5","zonearea":"6340","zoneprice":"0kr","zonestatus":"1","status":"1","created_at":"2022-11-15 09:47:27","updated_at":"2022-11-15 09:47:27"}]}
-*-*-*-*-*-*-*-*-*

---------------------07:27:58
{"status":"1","data":[{"id":"319","store_user_id":"10","zonename":"Krus\u00e5","zonearea":"6340","zoneprice":"0kr","zonestatus":"1","status":"1","created_at":"2022-11-15 09:47:27","updated_at":"2022-11-15 09:47:27"}]}
-*-*-*-*-*-*-*-*-*

---------------------07:27:59
{"status":"1","data":{"id":"319","store_user_id":"10","zonename":"Krus\u00e5","zonearea":"6340","zoneprice":"0kr","zonestatus":"1","status":"1","created_at":"2022-11-15 09:47:27","updated_at":"2022-11-15 09:47:27"}}
-*-*-*-*-*-*-*-*-*

---------------------10:03:21
{"status":"1","data":{"id":"1","store_user_id":"10","zonename":"Frederiksberg","zonearea":"2000","zoneprice":"2200kr","zonestatus":"1","status":"1","created_at":"2022-11-15 09:47:27","updated_at":"2022-11-15 09:47:27"}}
-*-*-*-*-*-*-*-*-*

---------------------10:03:33
{"status":"1","data":{"id":"1","store_user_id":"10","zonename":"Frederiksberg","zonearea":"2000","zoneprice":"2200kr","zonestatus":"1","status":"1","created_at":"2022-11-15 09:47:27","updated_at":"2022-11-15 09:47:27"}}
-*-*-*-*-*-*-*-*-*

---------------------10:03:35
{"status":"1","data":{"id":"1","store_user_id":"10","zonename":"Frederiksberg","zonearea":"2000","zoneprice":"2200kr","zonestatus":"1","status":"1","created_at":"2022-11-15 09:47:27","updated_at":"2022-11-15 09:47:27"}}
-*-*-*-*-*-*-*-*-*

---------------------10:03:38
{"status":"1","data":{"id":"1","store_user_id":"10","zonename":"Frederiksberg","zonearea":"2000","zoneprice":"2200kr","zonestatus":"1","status":"1","created_at":"2022-11-15 09:47:27","updated_at":"2022-11-15 09:47:27"}}
-*-*-*-*-*-*-*-*-*

---------------------10:04:05
{"status":"1","data":[{"id":"226","store_user_id":"10","zonename":"Odense NV","zonearea":"5210","zoneprice":"1500kr","zonestatus":"1","status":"1","created_at":"2022-11-15 09:47:27","updated_at":"2022-11-15 09:47:27"}]}
-*-*-*-*-*-*-*-*-*

---------------------10:04:06
{"status":"1","data":[{"id":"226","store_user_id":"10","zonename":"Odense NV","zonearea":"5210","zoneprice":"1500kr","zonestatus":"1","status":"1","created_at":"2022-11-15 09:47:27","updated_at":"2022-11-15 09:47:27"}]}
-*-*-*-*-*-*-*-*-*

---------------------10:04:07
{"status":"1","data":{"id":"226","store_user_id":"10","zonename":"Odense NV","zonearea":"5210","zoneprice":"1500kr","zonestatus":"1","status":"1","created_at":"2022-11-15 09:47:27","updated_at":"2022-11-15 09:47:27"}}
-*-*-*-*-*-*-*-*-*

---------------------10:04:12
{"status":"1","data":{"id":"226","store_user_id":"10","zonename":"Odense NV","zonearea":"5210","zoneprice":"1500kr","zonestatus":"1","status":"1","created_at":"2022-11-15 09:47:27","updated_at":"2022-11-15 09:47:27"}}
-*-*-*-*-*-*-*-*-*

---------------------15:35:10
{"status":"1","data":[{"id":"323","store_user_id":"10","zonename":"S\u00f8nderborg","zonearea":"6400","zoneprice":"0kr","zonestatus":"1","status":"1","created_at":"2022-11-15 09:47:27","updated_at":"2022-11-15 09:47:27"}]}
-*-*-*-*-*-*-*-*-*

---------------------15:35:10
{"status":"1","data":[{"id":"323","store_user_id":"10","zonename":"S\u00f8nderborg","zonearea":"6400","zoneprice":"0kr","zonestatus":"1","status":"1","created_at":"2022-11-15 09:47:27","updated_at":"2022-11-15 09:47:27"}]}
-*-*-*-*-*-*-*-*-*

---------------------15:35:13
{"status":"1","data":{"id":"323","store_user_id":"10","zonename":"S\u00f8nderborg","zonearea":"6400","zoneprice":"0kr","zonestatus":"1","status":"1","created_at":"2022-11-15 09:47:27","updated_at":"2022-11-15 09:47:27"}}
-*-*-*-*-*-*-*-*-*

---------------------15:35:30
{"status":"1","data":{"id":"323","store_user_id":"10","zonename":"S\u00f8nderborg","zonearea":"6400","zoneprice":"0kr","zonestatus":"1","status":"1","created_at":"2022-11-15 09:47:27","updated_at":"2022-11-15 09:47:27"}}
-*-*-*-*-*-*-*-*-*

---------------------15:35:35
{"status":"1","data":{"id":"323","store_user_id":"10","zonename":"S\u00f8nderborg","zonearea":"6400","zoneprice":"0kr","zonestatus":"1","status":"1","created_at":"2022-11-15 09:47:27","updated_at":"2022-11-15 09:47:27"}}
-*-*-*-*-*-*-*-*-*

---------------------15:35:56
{"status":"1","data":{"id":"323","store_user_id":"10","zonename":"S\u00f8nderborg","zonearea":"6400","zoneprice":"0kr","zonestatus":"1","status":"1","created_at":"2022-11-15 09:47:27","updated_at":"2022-11-15 09:47:27"}}
-*-*-*-*-*-*-*-*-*

---------------------15:35:58
{"status":"1","data":{"id":"323","store_user_id":"10","zonename":"S\u00f8nderborg","zonearea":"6400","zoneprice":"0kr","zonestatus":"1","status":"1","created_at":"2022-11-15 09:47:27","updated_at":"2022-11-15 09:47:27"}}
-*-*-*-*-*-*-*-*-*

---------------------15:36:14
{"status":"1","data":{"id":"323","store_user_id":"10","zonename":"S\u00f8nderborg","zonearea":"6400","zoneprice":"0kr","zonestatus":"1","status":"1","created_at":"2022-11-15 09:47:27","updated_at":"2022-11-15 09:47:27"}}
-*-*-*-*-*-*-*-*-*

---------------------15:36:19
{"status":"1","data":{"id":"323","store_user_id":"10","zonename":"S\u00f8nderborg","zonearea":"6400","zoneprice":"0kr","zonestatus":"1","status":"1","created_at":"2022-11-15 09:47:27","updated_at":"2022-11-15 09:47:27"}}
-*-*-*-*-*-*-*-*-*

---------------------15:58:06
{"status":"1","data":[]}
-*-*-*-*-*-*-*-*-*

---------------------15:58:06
{"status":"1","data":[]}
-*-*-*-*-*-*-*-*-*

---------------------15:58:06
{"status":0,"data":null}
-*-*-*-*-*-*-*-*-*

---------------------15:58:09
{"status":0,"data":null}
-*-*-*-*-*-*-*-*-*

---------------------15:58:39
{"status":"1","data":[]}
-*-*-*-*-*-*-*-*-*

---------------------15:58:39
{"status":"1","data":[]}
-*-*-*-*-*-*-*-*-*

---------------------15:58:39
{"status":"1","data":[]}
-*-*-*-*-*-*-*-*-*

---------------------15:58:39
{"status":0,"data":null}
-*-*-*-*-*-*-*-*-*

---------------------15:58:41
{"status":0,"data":null}
-*-*-*-*-*-*-*-*-*

---------------------15:58:46
{"status":"1","data":[]}
-*-*-*-*-*-*-*-*-*

---------------------15:58:46
{"status":"1","data":[]}
-*-*-*-*-*-*-*-*-*

---------------------15:58:47
{"status":"1","data":[]}
-*-*-*-*-*-*-*-*-*

---------------------15:58:48
{"status":0,"data":null}
-*-*-*-*-*-*-*-*-*

---------------------16:03:08
{"status":"1","data":[{"id":"227","store_user_id":"10","zonename":"Odense S\u00d8","zonearea":"5220","zoneprice":"1500kr","zonestatus":"1","status":"1","created_at":"2022-11-15 09:47:27","updated_at":"2022-11-15 09:47:27"}]}
-*-*-*-*-*-*-*-*-*

---------------------16:03:08
{"status":"1","data":[{"id":"227","store_user_id":"10","zonename":"Odense S\u00d8","zonearea":"5220","zoneprice":"1500kr","zonestatus":"1","status":"1","created_at":"2022-11-15 09:47:27","updated_at":"2022-11-15 09:47:27"}]}
-*-*-*-*-*-*-*-*-*

---------------------16:03:11
{"status":"1","data":{"id":"227","store_user_id":"10","zonename":"Odense S\u00d8","zonearea":"5220","zoneprice":"1500kr","zonestatus":"1","status":"1","created_at":"2022-11-15 09:47:27","updated_at":"2022-11-15 09:47:27"}}
-*-*-*-*-*-*-*-*-*

---------------------17:42:24
{"status":"1","data":[{"id":"457","store_user_id":"10","zonename":"Aarhus C","zonearea":"8000","zoneprice":"1800kr","zonestatus":"1","status":"1","created_at":"2022-11-15 09:47:27","updated_at":"2022-11-15 09:47:27"}]}
-*-*-*-*-*-*-*-*-*

---------------------17:42:24
{"status":"1","data":[{"id":"457","store_user_id":"10","zonename":"Aarhus C","zonearea":"8000","zoneprice":"1800kr","zonestatus":"1","status":"1","created_at":"2022-11-15 09:47:27","updated_at":"2022-11-15 09:47:27"}]}
-*-*-*-*-*-*-*-*-*

---------------------17:42:25
{"status":"1","data":{"id":"457","store_user_id":"10","zonename":"Aarhus C","zonearea":"8000","zoneprice":"1800kr","zonestatus":"1","status":"1","created_at":"2022-11-15 09:47:27","updated_at":"2022-11-15 09:47:27"}}
-*-*-*-*-*-*-*-*-*

---------------------17:42:55
{"status":"1","data":[{"id":"386","store_user_id":"10","zonename":"Fredericia","zonearea":"7000","zoneprice":"1000kr","zonestatus":"1","status":"1","created_at":"2022-11-15 09:47:27","updated_at":"2022-11-15 09:47:27"},{"id":"387","store_user_id":"10","zonename":"Fredericia","zonearea":"7007","zoneprice":"1000kr","zonestatus":"1","status":"1","created_at":"2022-11-15 09:47:27","updated_at":"2022-11-15 09:47:27"}]}
-*-*-*-*-*-*-*-*-*

---------------------17:42:55
{"status":"1","data":[{"id":"386","store_user_id":"10","zonename":"Fredericia","zonearea":"7000","zoneprice":"1000kr","zonestatus":"1","status":"1","created_at":"2022-11-15 09:47:27","updated_at":"2022-11-15 09:47:27"}]}
-*-*-*-*-*-*-*-*-*

---------------------17:42:56
{"status":"1","data":{"id":"386","store_user_id":"10","zonename":"Fredericia","zonearea":"7000","zoneprice":"1000kr","zonestatus":"1","status":"1","created_at":"2022-11-15 09:47:27","updated_at":"2022-11-15 09:47:27"}}
-*-*-*-*-*-*-*-*-*

---------------------20:21:42
{"status":"1","data":{"id":"457","store_user_id":"10","zonename":"Aarhus C","zonearea":"8000","zoneprice":"1800kr","zonestatus":"1","status":"1","created_at":"2022-11-15 09:47:27","updated_at":"2022-11-15 09:47:27"}}
-*-*-*-*-*-*-*-*-*

---------------------20:33:44
{"status":"1","data":{"id":"457","store_user_id":"10","zonename":"Aarhus C","zonearea":"8000","zoneprice":"1800kr","zonestatus":"1","status":"1","created_at":"2022-11-15 09:47:27","updated_at":"2022-11-15 09:47:27"}}
-*-*-*-*-*-*-*-*-*