

---------------------08:32:45
{"status":"1","data":[{"id":"421","store_user_id":"10","zonename":"Karup J","zonearea":"7470","zoneprice":"1500kr","zonestatus":"1","status":"1","created_at":"2022-11-15 09:47:27","updated_at":"2022-11-15 09:47:27"}]}
-*-*-*-*-*-*-*-*-*

---------------------08:32:48
{"status":"1","data":[{"id":"326","store_user_id":"10","zonename":"Sydals","zonearea":"6470","zoneprice":"0kr","zonestatus":"1","status":"1","created_at":"2022-11-15 09:47:27","updated_at":"2022-11-15 09:47:27"}]}
-*-*-*-*-*-*-*-*-*

---------------------08:32:54
{"status":"1","data":{"id":"326","store_user_id":"10","zonename":"Sydals","zonearea":"6470","zoneprice":"0kr","zonestatus":"1","status":"1","created_at":"2022-11-15 09:47:27","updated_at":"2022-11-15 09:47:27"}}
-*-*-*-*-*-*-*-*-*

---------------------10:50:22
{"status":"1","data":[{"id":"317","store_user_id":"10","zonename":"Egernsund","zonearea":"6320","zoneprice":"0kr","zonestatus":"1","status":"1","created_at":"2022-11-15 09:47:27","updated_at":"2022-11-15 09:47:27"}]}
-*-*-*-*-*-*-*-*-*

---------------------10:50:22
{"status":"1","data":[{"id":"317","store_user_id":"10","zonename":"Egernsund","zonearea":"6320","zoneprice":"0kr","zonestatus":"1","status":"1","created_at":"2022-11-15 09:47:27","updated_at":"2022-11-15 09:47:27"}]}
-*-*-*-*-*-*-*-*-*

---------------------10:50:22
{"status":"1","data":[{"id":"317","store_user_id":"10","zonename":"Egernsund","zonearea":"6320","zoneprice":"0kr","zonestatus":"1","status":"1","created_at":"2022-11-15 09:47:27","updated_at":"2022-11-15 09:47:27"}]}
-*-*-*-*-*-*-*-*-*

---------------------10:50:26
{"status":"1","data":{"id":"317","store_user_id":"10","zonename":"Egernsund","zonearea":"6320","zoneprice":"0kr","zonestatus":"1","status":"1","created_at":"2022-11-15 09:47:27","updated_at":"2022-11-15 09:47:27"}}
-*-*-*-*-*-*-*-*-*

---------------------10:50:32
{"status":"1","data":{"id":"317","store_user_id":"10","zonename":"Egernsund","zonearea":"6320","zoneprice":"0kr","zonestatus":"1","status":"1","created_at":"2022-11-15 09:47:27","updated_at":"2022-11-15 09:47:27"}}
-*-*-*-*-*-*-*-*-*

---------------------10:50:39
{"status":"1","data":{"id":"317","store_user_id":"10","zonename":"Egernsund","zonearea":"6320","zoneprice":"0kr","zonestatus":"1","status":"1","created_at":"2022-11-15 09:47:27","updated_at":"2022-11-15 09:47:27"}}
-*-*-*-*-*-*-*-*-*

---------------------10:55:46
{"status":"1","data":{"id":"317","store_user_id":"10","zonename":"Egernsund","zonearea":"6320","zoneprice":"0kr","zonestatus":"1","status":"1","created_at":"2022-11-15 09:47:27","updated_at":"2022-11-15 09:47:27"}}
-*-*-*-*-*-*-*-*-*

---------------------10:56:00
{"status":"1","data":{"id":"317","store_user_id":"10","zonename":"Egernsund","zonearea":"6320","zoneprice":"0kr","zonestatus":"1","status":"1","created_at":"2022-11-15 09:47:27","updated_at":"2022-11-15 09:47:27"}}
-*-*-*-*-*-*-*-*-*

---------------------11:02:30
{"status":"1","data":{"id":"317","store_user_id":"10","zonename":"Egernsund","zonearea":"6320","zoneprice":"0kr","zonestatus":"1","status":"1","created_at":"2022-11-15 09:47:27","updated_at":"2022-11-15 09:47:27"}}
-*-*-*-*-*-*-*-*-*

---------------------11:02:35
{"status":"1","data":{"id":"317","store_user_id":"10","zonename":"Egernsund","zonearea":"6320","zoneprice":"0kr","zonestatus":"1","status":"1","created_at":"2022-11-15 09:47:27","updated_at":"2022-11-15 09:47:27"}}
-*-*-*-*-*-*-*-*-*

---------------------11:02:47
{"status":"1","data":{"id":"317","store_user_id":"10","zonename":"Egernsund","zonearea":"6320","zoneprice":"0kr","zonestatus":"1","status":"1","created_at":"2022-11-15 09:47:27","updated_at":"2022-11-15 09:47:27"}}
-*-*-*-*-*-*-*-*-*

---------------------11:03:20
{"status":"1","data":{"id":"317","store_user_id":"10","zonename":"Egernsund","zonearea":"6320","zoneprice":"0kr","zonestatus":"1","status":"1","created_at":"2022-11-15 09:47:27","updated_at":"2022-11-15 09:47:27"}}
-*-*-*-*-*-*-*-*-*

---------------------11:03:22
{"status":"1","data":{"id":"317","store_user_id":"10","zonename":"Egernsund","zonearea":"6320","zoneprice":"0kr","zonestatus":"1","status":"1","created_at":"2022-11-15 09:47:27","updated_at":"2022-11-15 09:47:27"}}
-*-*-*-*-*-*-*-*-*

---------------------11:03:41
{"status":"1","data":{"id":"317","store_user_id":"10","zonename":"Egernsund","zonearea":"6320","zoneprice":"0kr","zonestatus":"1","status":"1","created_at":"2022-11-15 09:47:27","updated_at":"2022-11-15 09:47:27"}}
-*-*-*-*-*-*-*-*-*

---------------------11:03:43
{"status":"1","data":{"id":"317","store_user_id":"10","zonename":"Egernsund","zonearea":"6320","zoneprice":"0kr","zonestatus":"1","status":"1","created_at":"2022-11-15 09:47:27","updated_at":"2022-11-15 09:47:27"}}
-*-*-*-*-*-*-*-*-*

---------------------11:03:45
{"status":"1","data":{"id":"317","store_user_id":"10","zonename":"Egernsund","zonearea":"6320","zoneprice":"0kr","zonestatus":"1","status":"1","created_at":"2022-11-15 09:47:27","updated_at":"2022-11-15 09:47:27"}}
-*-*-*-*-*-*-*-*-*

---------------------11:03:47
{"status":"1","data":{"id":"317","store_user_id":"10","zonename":"Egernsund","zonearea":"6320","zoneprice":"0kr","zonestatus":"1","status":"1","created_at":"2022-11-15 09:47:27","updated_at":"2022-11-15 09:47:27"}}
-*-*-*-*-*-*-*-*-*

---------------------11:04:07
{"status":"1","data":{"id":"317","store_user_id":"10","zonename":"Egernsund","zonearea":"6320","zoneprice":"0kr","zonestatus":"1","status":"1","created_at":"2022-11-15 09:47:27","updated_at":"2022-11-15 09:47:27"}}
-*-*-*-*-*-*-*-*-*

---------------------11:05:44
{"status":"1","data":{"id":"317","store_user_id":"10","zonename":"Egernsund","zonearea":"6320","zoneprice":"0kr","zonestatus":"1","status":"1","created_at":"2022-11-15 09:47:27","updated_at":"2022-11-15 09:47:27"}}
-*-*-*-*-*-*-*-*-*

---------------------11:06:02
{"status":"1","data":{"id":"317","store_user_id":"10","zonename":"Egernsund","zonearea":"6320","zoneprice":"0kr","zonestatus":"1","status":"1","created_at":"2022-11-15 09:47:27","updated_at":"2022-11-15 09:47:27"}}
-*-*-*-*-*-*-*-*-*

---------------------11:08:12
{"status":"1","data":[{"id":"317","store_user_id":"10","zonename":"Egernsund","zonearea":"6320","zoneprice":"0kr","zonestatus":"1","status":"1","created_at":"2022-11-15 09:47:27","updated_at":"2022-11-15 09:47:27"}]}
-*-*-*-*-*-*-*-*-*

---------------------11:08:12
{"status":"1","data":[{"id":"317","store_user_id":"10","zonename":"Egernsund","zonearea":"6320","zoneprice":"0kr","zonestatus":"1","status":"1","created_at":"2022-11-15 09:47:27","updated_at":"2022-11-15 09:47:27"}]}
-*-*-*-*-*-*-*-*-*

---------------------11:08:16
{"status":"1","data":{"id":"317","store_user_id":"10","zonename":"Egernsund","zonearea":"6320","zoneprice":"0kr","zonestatus":"1","status":"1","created_at":"2022-11-15 09:47:27","updated_at":"2022-11-15 09:47:27"}}
-*-*-*-*-*-*-*-*-*

---------------------11:08:22
{"status":"1","data":{"id":"317","store_user_id":"10","zonename":"Egernsund","zonearea":"6320","zoneprice":"0kr","zonestatus":"1","status":"1","created_at":"2022-11-15 09:47:27","updated_at":"2022-11-15 09:47:27"}}
-*-*-*-*-*-*-*-*-*

---------------------11:08:26
{"status":"1","data":{"id":"317","store_user_id":"10","zonename":"Egernsund","zonearea":"6320","zoneprice":"0kr","zonestatus":"1","status":"1","created_at":"2022-11-15 09:47:27","updated_at":"2022-11-15 09:47:27"}}
-*-*-*-*-*-*-*-*-*

---------------------11:08:51
{"status":"1","data":{"id":"317","store_user_id":"10","zonename":"Egernsund","zonearea":"6320","zoneprice":"0kr","zonestatus":"1","status":"1","created_at":"2022-11-15 09:47:27","updated_at":"2022-11-15 09:47:27"}}
-*-*-*-*-*-*-*-*-*