

---------------------08:54:50
{"status":"1","data":[{"id":"308","store_user_id":"10","zonename":"Aabenraa","zonearea":"6200","zoneprice":"0kr","zonestatus":"1","status":"1","created_at":"2022-11-15 09:47:27","updated_at":"2022-11-15 09:47:27"}]}
-*-*-*-*-*-*-*-*-*

---------------------08:54:50
{"status":"1","data":[{"id":"308","store_user_id":"10","zonename":"Aabenraa","zonearea":"6200","zoneprice":"0kr","zonestatus":"1","status":"1","created_at":"2022-11-15 09:47:27","updated_at":"2022-11-15 09:47:27"}]}
-*-*-*-*-*-*-*-*-*

---------------------08:54:51
{"status":"1","data":{"id":"308","store_user_id":"10","zonename":"Aabenraa","zonearea":"6200","zoneprice":"0kr","zonestatus":"1","status":"1","created_at":"2022-11-15 09:47:27","updated_at":"2022-11-15 09:47:27"}}
-*-*-*-*-*-*-*-*-*

---------------------08:55:07
{"status":"1","data":{"id":"308","store_user_id":"10","zonename":"Aabenraa","zonearea":"6200","zoneprice":"0kr","zonestatus":"1","status":"1","created_at":"2022-11-15 09:47:27","updated_at":"2022-11-15 09:47:27"}}
-*-*-*-*-*-*-*-*-*

---------------------08:56:10
{"status":"1","data":[{"id":"227","store_user_id":"10","zonename":"Odense S\u00d8","zonearea":"5220","zoneprice":"1500kr","zonestatus":"1","status":"1","created_at":"2022-11-15 09:47:27","updated_at":"2022-11-15 09:47:27"}]}
-*-*-*-*-*-*-*-*-*

---------------------08:56:10
{"status":"1","data":[{"id":"227","store_user_id":"10","zonename":"Odense S\u00d8","zonearea":"5220","zoneprice":"1500kr","zonestatus":"1","status":"1","created_at":"2022-11-15 09:47:27","updated_at":"2022-11-15 09:47:27"}]}
-*-*-*-*-*-*-*-*-*

---------------------08:56:12
{"status":"1","data":{"id":"227","store_user_id":"10","zonename":"Odense S\u00d8","zonearea":"5220","zoneprice":"1500kr","zonestatus":"1","status":"1","created_at":"2022-11-15 09:47:27","updated_at":"2022-11-15 09:47:27"}}
-*-*-*-*-*-*-*-*-*

---------------------09:54:25
{"status":"1","data":[{"id":"1","store_user_id":"10","zonename":"Frederiksberg","zonearea":"2000","zoneprice":"2200kr","zonestatus":"1","status":"1","created_at":"2022-11-15 09:47:27","updated_at":"2022-11-15 09:47:27"}]}
-*-*-*-*-*-*-*-*-*

---------------------09:54:27
{"status":"1","data":[{"id":"1","store_user_id":"10","zonename":"Frederiksberg","zonearea":"2000","zoneprice":"2200kr","zonestatus":"1","status":"1","created_at":"2022-11-15 09:47:27","updated_at":"2022-11-15 09:47:27"}]}
-*-*-*-*-*-*-*-*-*

---------------------09:54:27
{"status":"1","data":[{"id":"1","store_user_id":"10","zonename":"Frederiksberg","zonearea":"2000","zoneprice":"2200kr","zonestatus":"1","status":"1","created_at":"2022-11-15 09:47:27","updated_at":"2022-11-15 09:47:27"}]}
-*-*-*-*-*-*-*-*-*

---------------------09:54:29
{"status":"1","data":{"id":"1","store_user_id":"10","zonename":"Frederiksberg","zonearea":"2000","zoneprice":"2200kr","zonestatus":"1","status":"1","created_at":"2022-11-15 09:47:27","updated_at":"2022-11-15 09:47:27"}}
-*-*-*-*-*-*-*-*-*

---------------------10:08:18
{"status":"1","data":[{"id":"1","store_user_id":"10","zonename":"Frederiksberg","zonearea":"2000","zoneprice":"2200kr","zonestatus":"1","status":"1","created_at":"2022-11-15 09:47:27","updated_at":"2022-11-15 09:47:27"}]}
-*-*-*-*-*-*-*-*-*

---------------------10:08:18
{"status":"1","data":[{"id":"1","store_user_id":"10","zonename":"Frederiksberg","zonearea":"2000","zoneprice":"2200kr","zonestatus":"1","status":"1","created_at":"2022-11-15 09:47:27","updated_at":"2022-11-15 09:47:27"}]}
-*-*-*-*-*-*-*-*-*

---------------------10:08:19
{"status":"1","data":{"id":"1","store_user_id":"10","zonename":"Frederiksberg","zonearea":"2000","zoneprice":"2200kr","zonestatus":"1","status":"1","created_at":"2022-11-15 09:47:27","updated_at":"2022-11-15 09:47:27"}}
-*-*-*-*-*-*-*-*-*

---------------------10:08:34
{"status":"1","data":[{"id":"1","store_user_id":"10","zonename":"Frederiksberg","zonearea":"2000","zoneprice":"2200kr","zonestatus":"1","status":"1","created_at":"2022-11-15 09:47:27","updated_at":"2022-11-15 09:47:27"}]}
-*-*-*-*-*-*-*-*-*

---------------------10:08:34
{"status":"1","data":[{"id":"1","store_user_id":"10","zonename":"Frederiksberg","zonearea":"2000","zoneprice":"2200kr","zonestatus":"1","status":"1","created_at":"2022-11-15 09:47:27","updated_at":"2022-11-15 09:47:27"}]}
-*-*-*-*-*-*-*-*-*

---------------------10:08:35
{"status":"1","data":{"id":"1","store_user_id":"10","zonename":"Frederiksberg","zonearea":"2000","zoneprice":"2200kr","zonestatus":"1","status":"1","created_at":"2022-11-15 09:47:27","updated_at":"2022-11-15 09:47:27"}}
-*-*-*-*-*-*-*-*-*

---------------------10:09:11
{"status":"1","data":[{"id":"1","store_user_id":"10","zonename":"Frederiksberg","zonearea":"2000","zoneprice":"2200kr","zonestatus":"1","status":"1","created_at":"2022-11-15 09:47:27","updated_at":"2022-11-15 09:47:27"}]}
-*-*-*-*-*-*-*-*-*

---------------------10:09:11
{"status":"1","data":[{"id":"1","store_user_id":"10","zonename":"Frederiksberg","zonearea":"2000","zoneprice":"2200kr","zonestatus":"1","status":"1","created_at":"2022-11-15 09:47:27","updated_at":"2022-11-15 09:47:27"}]}
-*-*-*-*-*-*-*-*-*

---------------------10:09:12
{"status":"1","data":{"id":"1","store_user_id":"10","zonename":"Frederiksberg","zonearea":"2000","zoneprice":"2200kr","zonestatus":"1","status":"1","created_at":"2022-11-15 09:47:27","updated_at":"2022-11-15 09:47:27"}}
-*-*-*-*-*-*-*-*-*

---------------------10:10:09
{"status":"1","data":{"id":"1","store_user_id":"10","zonename":"Frederiksberg","zonearea":"2000","zoneprice":"2200kr","zonestatus":"1","status":"1","created_at":"2022-11-15 09:47:27","updated_at":"2022-11-15 09:47:27"}}
-*-*-*-*-*-*-*-*-*

---------------------10:10:21
{"status":"1","data":{"id":"1","store_user_id":"10","zonename":"Frederiksberg","zonearea":"2000","zoneprice":"2200kr","zonestatus":"1","status":"1","created_at":"2022-11-15 09:47:27","updated_at":"2022-11-15 09:47:27"}}
-*-*-*-*-*-*-*-*-*

---------------------11:42:26
{"status":"1","data":{"id":"308","store_user_id":"10","zonename":"Aabenraa","zonearea":"6200","zoneprice":"0kr","zonestatus":"1","status":"1","created_at":"2022-11-15 09:47:27","updated_at":"2022-11-15 09:47:27"}}
-*-*-*-*-*-*-*-*-*

---------------------11:42:44
{"status":"1","data":[{"id":"315","store_user_id":"10","zonename":"Gr\u00e5sten","zonearea":"6300","zoneprice":"0kr","zonestatus":"1","status":"1","created_at":"2022-11-15 09:47:27","updated_at":"2022-11-15 09:47:27"}]}
-*-*-*-*-*-*-*-*-*

---------------------11:42:44
{"status":"1","data":[{"id":"315","store_user_id":"10","zonename":"Gr\u00e5sten","zonearea":"6300","zoneprice":"0kr","zonestatus":"1","status":"1","created_at":"2022-11-15 09:47:27","updated_at":"2022-11-15 09:47:27"}]}
-*-*-*-*-*-*-*-*-*

---------------------11:42:45
{"status":"1","data":{"id":"315","store_user_id":"10","zonename":"Gr\u00e5sten","zonearea":"6300","zoneprice":"0kr","zonestatus":"1","status":"1","created_at":"2022-11-15 09:47:27","updated_at":"2022-11-15 09:47:27"}}
-*-*-*-*-*-*-*-*-*

---------------------12:37:29
{"status":"1","data":[{"id":"1","store_user_id":"10","zonename":"Frederiksberg","zonearea":"2000","zoneprice":"2200kr","zonestatus":"1","status":"1","created_at":"2022-11-15 09:47:27","updated_at":"2022-11-15 09:47:27"}]}
-*-*-*-*-*-*-*-*-*

---------------------12:37:29
{"status":"1","data":[{"id":"1","store_user_id":"10","zonename":"Frederiksberg","zonearea":"2000","zoneprice":"2200kr","zonestatus":"1","status":"1","created_at":"2022-11-15 09:47:27","updated_at":"2022-11-15 09:47:27"}]}
-*-*-*-*-*-*-*-*-*

---------------------12:37:31
{"status":"1","data":{"id":"1","store_user_id":"10","zonename":"Frederiksberg","zonearea":"2000","zoneprice":"2200kr","zonestatus":"1","status":"1","created_at":"2022-11-15 09:47:27","updated_at":"2022-11-15 09:47:27"}}
-*-*-*-*-*-*-*-*-*

---------------------12:38:23
{"status":"1","data":[{"id":"1","store_user_id":"10","zonename":"Frederiksberg","zonearea":"2000","zoneprice":"2200kr","zonestatus":"1","status":"1","created_at":"2022-11-15 09:47:27","updated_at":"2022-11-15 09:47:27"}]}
-*-*-*-*-*-*-*-*-*

---------------------12:38:23
{"status":"1","data":[{"id":"1","store_user_id":"10","zonename":"Frederiksberg","zonearea":"2000","zoneprice":"2200kr","zonestatus":"1","status":"1","created_at":"2022-11-15 09:47:27","updated_at":"2022-11-15 09:47:27"}]}
-*-*-*-*-*-*-*-*-*

---------------------12:38:26
{"status":"1","data":{"id":"1","store_user_id":"10","zonename":"Frederiksberg","zonearea":"2000","zoneprice":"2200kr","zonestatus":"1","status":"1","created_at":"2022-11-15 09:47:27","updated_at":"2022-11-15 09:47:27"}}
-*-*-*-*-*-*-*-*-*

---------------------12:41:45
{"status":"1","data":[{"id":"227","store_user_id":"10","zonename":"Odense S\u00d8","zonearea":"5220","zoneprice":"1500kr","zonestatus":"1","status":"1","created_at":"2022-11-15 09:47:27","updated_at":"2022-11-15 09:47:27"}]}
-*-*-*-*-*-*-*-*-*

---------------------12:41:45
{"status":"1","data":[{"id":"227","store_user_id":"10","zonename":"Odense S\u00d8","zonearea":"5220","zoneprice":"1500kr","zonestatus":"1","status":"1","created_at":"2022-11-15 09:47:27","updated_at":"2022-11-15 09:47:27"}]}
-*-*-*-*-*-*-*-*-*

---------------------12:41:46
{"status":"1","data":{"id":"227","store_user_id":"10","zonename":"Odense S\u00d8","zonearea":"5220","zoneprice":"1500kr","zonestatus":"1","status":"1","created_at":"2022-11-15 09:47:27","updated_at":"2022-11-15 09:47:27"}}
-*-*-*-*-*-*-*-*-*

---------------------12:42:09
{"status":"1","data":{"id":"227","store_user_id":"10","zonename":"Odense S\u00d8","zonearea":"5220","zoneprice":"1500kr","zonestatus":"1","status":"1","created_at":"2022-11-15 09:47:27","updated_at":"2022-11-15 09:47:27"}}
-*-*-*-*-*-*-*-*-*

---------------------14:31:57
{"status":"1","data":{"id":"326","store_user_id":"10","zonename":"Sydals","zonearea":"6470","zoneprice":"0kr","zonestatus":"1","status":"1","created_at":"2022-11-15 09:47:27","updated_at":"2022-11-15 09:47:27"}}
-*-*-*-*-*-*-*-*-*

---------------------14:32:00
{"status":"1","data":{"id":"326","store_user_id":"10","zonename":"Sydals","zonearea":"6470","zoneprice":"0kr","zonestatus":"1","status":"1","created_at":"2022-11-15 09:47:27","updated_at":"2022-11-15 09:47:27"}}
-*-*-*-*-*-*-*-*-*

---------------------14:33:19
{"status":"1","data":{"id":"326","store_user_id":"10","zonename":"Sydals","zonearea":"6470","zoneprice":"0kr","zonestatus":"1","status":"1","created_at":"2022-11-15 09:47:27","updated_at":"2022-11-15 09:47:27"}}
-*-*-*-*-*-*-*-*-*

---------------------14:33:59
{"status":"1","data":[{"id":"393","store_user_id":"10","zonename":"Vejle \u00d8st","zonearea":"7120","zoneprice":"1000kr","zonestatus":"1","status":"1","created_at":"2022-11-15 09:47:27","updated_at":"2022-11-15 09:47:27"}]}
-*-*-*-*-*-*-*-*-*

---------------------14:33:59
{"status":"1","data":[{"id":"393","store_user_id":"10","zonename":"Vejle \u00d8st","zonearea":"7120","zoneprice":"1000kr","zonestatus":"1","status":"1","created_at":"2022-11-15 09:47:27","updated_at":"2022-11-15 09:47:27"}]}
-*-*-*-*-*-*-*-*-*

---------------------14:34:00
{"status":"1","data":{"id":"393","store_user_id":"10","zonename":"Vejle \u00d8st","zonearea":"7120","zoneprice":"1000kr","zonestatus":"1","status":"1","created_at":"2022-11-15 09:47:27","updated_at":"2022-11-15 09:47:27"}}
-*-*-*-*-*-*-*-*-*

---------------------14:34:04
{"status":"1","data":{"id":"393","store_user_id":"10","zonename":"Vejle \u00d8st","zonearea":"7120","zoneprice":"1000kr","zonestatus":"1","status":"1","created_at":"2022-11-15 09:47:27","updated_at":"2022-11-15 09:47:27"}}
-*-*-*-*-*-*-*-*-*

---------------------14:34:06
{"status":"1","data":{"id":"393","store_user_id":"10","zonename":"Vejle \u00d8st","zonearea":"7120","zoneprice":"1000kr","zonestatus":"1","status":"1","created_at":"2022-11-15 09:47:27","updated_at":"2022-11-15 09:47:27"}}
-*-*-*-*-*-*-*-*-*

---------------------14:34:09
{"status":"1","data":{"id":"393","store_user_id":"10","zonename":"Vejle \u00d8st","zonearea":"7120","zoneprice":"1000kr","zonestatus":"1","status":"1","created_at":"2022-11-15 09:47:27","updated_at":"2022-11-15 09:47:27"}}
-*-*-*-*-*-*-*-*-*

---------------------14:34:11
{"status":"1","data":{"id":"393","store_user_id":"10","zonename":"Vejle \u00d8st","zonearea":"7120","zoneprice":"1000kr","zonestatus":"1","status":"1","created_at":"2022-11-15 09:47:27","updated_at":"2022-11-15 09:47:27"}}
-*-*-*-*-*-*-*-*-*

---------------------15:29:01
{"status":"1","data":[{"id":"326","store_user_id":"10","zonename":"Sydals","zonearea":"6470","zoneprice":"0kr","zonestatus":"1","status":"1","created_at":"2022-11-15 09:47:27","updated_at":"2022-11-15 09:47:27"}]}
-*-*-*-*-*-*-*-*-*

---------------------15:29:01
{"status":"1","data":[{"id":"326","store_user_id":"10","zonename":"Sydals","zonearea":"6470","zoneprice":"0kr","zonestatus":"1","status":"1","created_at":"2022-11-15 09:47:27","updated_at":"2022-11-15 09:47:27"}]}
-*-*-*-*-*-*-*-*-*

---------------------15:29:02
{"status":"1","data":{"id":"326","store_user_id":"10","zonename":"Sydals","zonearea":"6470","zoneprice":"0kr","zonestatus":"1","status":"1","created_at":"2022-11-15 09:47:27","updated_at":"2022-11-15 09:47:27"}}
-*-*-*-*-*-*-*-*-*

---------------------15:29:25
{"status":"1","data":{"id":"326","store_user_id":"10","zonename":"Sydals","zonearea":"6470","zoneprice":"0kr","zonestatus":"1","status":"1","created_at":"2022-11-15 09:47:27","updated_at":"2022-11-15 09:47:27"}}
-*-*-*-*-*-*-*-*-*

---------------------15:29:28
{"status":"1","data":{"id":"326","store_user_id":"10","zonename":"Sydals","zonearea":"6470","zoneprice":"0kr","zonestatus":"1","status":"1","created_at":"2022-11-15 09:47:27","updated_at":"2022-11-15 09:47:27"}}
-*-*-*-*-*-*-*-*-*

---------------------15:29:49
{"status":"1","data":{"id":"326","store_user_id":"10","zonename":"Sydals","zonearea":"6470","zoneprice":"0kr","zonestatus":"1","status":"1","created_at":"2022-11-15 09:47:27","updated_at":"2022-11-15 09:47:27"}}
-*-*-*-*-*-*-*-*-*

---------------------15:29:54
{"status":"1","data":{"id":"326","store_user_id":"10","zonename":"Sydals","zonearea":"6470","zoneprice":"0kr","zonestatus":"1","status":"1","created_at":"2022-11-15 09:47:27","updated_at":"2022-11-15 09:47:27"}}
-*-*-*-*-*-*-*-*-*