

---------------------19:41:35
{"status":"1","data":[{"id":"315","store_user_id":"10","zonename":"Gr\u00e5sten","zonearea":"6300","zoneprice":"0kr","zonestatus":"1","status":"1","created_at":"2022-11-15 09:47:27","updated_at":"2022-11-15 09:47:27"}]}
-*-*-*-*-*-*-*-*-*

---------------------19:41:35
{"status":"1","data":[{"id":"315","store_user_id":"10","zonename":"Gr\u00e5sten","zonearea":"6300","zoneprice":"0kr","zonestatus":"1","status":"1","created_at":"2022-11-15 09:47:27","updated_at":"2022-11-15 09:47:27"}]}
-*-*-*-*-*-*-*-*-*

---------------------19:41:38
{"status":"1","data":{"id":"315","store_user_id":"10","zonename":"Gr\u00e5sten","zonearea":"6300","zoneprice":"0kr","zonestatus":"1","status":"1","created_at":"2022-11-15 09:47:27","updated_at":"2022-11-15 09:47:27"}}
-*-*-*-*-*-*-*-*-*

---------------------19:41:44
{"status":"1","data":{"id":"315","store_user_id":"10","zonename":"Gr\u00e5sten","zonearea":"6300","zoneprice":"0kr","zonestatus":"1","status":"1","created_at":"2022-11-15 09:47:27","updated_at":"2022-11-15 09:47:27"}}
-*-*-*-*-*-*-*-*-*

---------------------19:41:46
{"status":"1","data":{"id":"315","store_user_id":"10","zonename":"Gr\u00e5sten","zonearea":"6300","zoneprice":"0kr","zonestatus":"1","status":"1","created_at":"2022-11-15 09:47:27","updated_at":"2022-11-15 09:47:27"}}
-*-*-*-*-*-*-*-*-*

---------------------19:41:55
{"status":"1","data":{"id":"315","store_user_id":"10","zonename":"Gr\u00e5sten","zonearea":"6300","zoneprice":"0kr","zonestatus":"1","status":"1","created_at":"2022-11-15 09:47:27","updated_at":"2022-11-15 09:47:27"}}
-*-*-*-*-*-*-*-*-*

---------------------19:42:40
{"status":"1","data":{"id":"315","store_user_id":"10","zonename":"Gr\u00e5sten","zonearea":"6300","zoneprice":"0kr","zonestatus":"1","status":"1","created_at":"2022-11-15 09:47:27","updated_at":"2022-11-15 09:47:27"}}
-*-*-*-*-*-*-*-*-*

---------------------19:44:38
{"status":"1","data":[{"id":"315","store_user_id":"10","zonename":"Gr\u00e5sten","zonearea":"6300","zoneprice":"0kr","zonestatus":"1","status":"1","created_at":"2022-11-15 09:47:27","updated_at":"2022-11-15 09:47:27"}]}
-*-*-*-*-*-*-*-*-*

---------------------19:44:38
{"status":"1","data":[{"id":"315","store_user_id":"10","zonename":"Gr\u00e5sten","zonearea":"6300","zoneprice":"0kr","zonestatus":"1","status":"1","created_at":"2022-11-15 09:47:27","updated_at":"2022-11-15 09:47:27"}]}
-*-*-*-*-*-*-*-*-*

---------------------19:44:41
{"status":"1","data":{"id":"315","store_user_id":"10","zonename":"Gr\u00e5sten","zonearea":"6300","zoneprice":"0kr","zonestatus":"1","status":"1","created_at":"2022-11-15 09:47:27","updated_at":"2022-11-15 09:47:27"}}
-*-*-*-*-*-*-*-*-*

---------------------19:52:29
{"status":"1","data":{"id":"315","store_user_id":"10","zonename":"Gr\u00e5sten","zonearea":"6300","zoneprice":"0kr","zonestatus":"1","status":"1","created_at":"2022-11-15 09:47:27","updated_at":"2022-11-15 09:47:27"}}
-*-*-*-*-*-*-*-*-*

---------------------19:55:47
{"status":"1","data":{"id":"315","store_user_id":"10","zonename":"Gr\u00e5sten","zonearea":"6300","zoneprice":"0kr","zonestatus":"1","status":"1","created_at":"2022-11-15 09:47:27","updated_at":"2022-11-15 09:47:27"}}
-*-*-*-*-*-*-*-*-*

---------------------19:55:53
{"status":"1","data":{"id":"315","store_user_id":"10","zonename":"Gr\u00e5sten","zonearea":"6300","zoneprice":"0kr","zonestatus":"1","status":"1","created_at":"2022-11-15 09:47:27","updated_at":"2022-11-15 09:47:27"}}
-*-*-*-*-*-*-*-*-*

---------------------19:55:56
{"status":"1","data":{"id":"315","store_user_id":"10","zonename":"Gr\u00e5sten","zonearea":"6300","zoneprice":"0kr","zonestatus":"1","status":"1","created_at":"2022-11-15 09:47:27","updated_at":"2022-11-15 09:47:27"}}
-*-*-*-*-*-*-*-*-*

---------------------19:56:18
{"status":"1","data":{"id":"315","store_user_id":"10","zonename":"Gr\u00e5sten","zonearea":"6300","zoneprice":"0kr","zonestatus":"1","status":"1","created_at":"2022-11-15 09:47:27","updated_at":"2022-11-15 09:47:27"}}
-*-*-*-*-*-*-*-*-*

---------------------19:56:21
{"status":"1","data":{"id":"315","store_user_id":"10","zonename":"Gr\u00e5sten","zonearea":"6300","zoneprice":"0kr","zonestatus":"1","status":"1","created_at":"2022-11-15 09:47:27","updated_at":"2022-11-15 09:47:27"}}
-*-*-*-*-*-*-*-*-*

---------------------19:56:24
{"status":"1","data":{"id":"315","store_user_id":"10","zonename":"Gr\u00e5sten","zonearea":"6300","zoneprice":"0kr","zonestatus":"1","status":"1","created_at":"2022-11-15 09:47:27","updated_at":"2022-11-15 09:47:27"}}
-*-*-*-*-*-*-*-*-*

---------------------19:56:55
{"status":"1","data":{"id":"315","store_user_id":"10","zonename":"Gr\u00e5sten","zonearea":"6300","zoneprice":"0kr","zonestatus":"1","status":"1","created_at":"2022-11-15 09:47:27","updated_at":"2022-11-15 09:47:27"}}
-*-*-*-*-*-*-*-*-*

---------------------19:58:41
{"status":"1","data":{"id":"315","store_user_id":"10","zonename":"Gr\u00e5sten","zonearea":"6300","zoneprice":"0kr","zonestatus":"1","status":"1","created_at":"2022-11-15 09:47:27","updated_at":"2022-11-15 09:47:27"}}
-*-*-*-*-*-*-*-*-*

---------------------19:58:45
{"status":"1","data":{"id":"315","store_user_id":"10","zonename":"Gr\u00e5sten","zonearea":"6300","zoneprice":"0kr","zonestatus":"1","status":"1","created_at":"2022-11-15 09:47:27","updated_at":"2022-11-15 09:47:27"}}
-*-*-*-*-*-*-*-*-*

---------------------19:58:47
{"status":"1","data":{"id":"315","store_user_id":"10","zonename":"Gr\u00e5sten","zonearea":"6300","zoneprice":"0kr","zonestatus":"1","status":"1","created_at":"2022-11-15 09:47:27","updated_at":"2022-11-15 09:47:27"}}
-*-*-*-*-*-*-*-*-*

---------------------20:00:42
{"status":"1","data":{"id":"315","store_user_id":"10","zonename":"Gr\u00e5sten","zonearea":"6300","zoneprice":"0kr","zonestatus":"1","status":"1","created_at":"2022-11-15 09:47:27","updated_at":"2022-11-15 09:47:27"}}
-*-*-*-*-*-*-*-*-*

---------------------20:01:05
{"status":"1","data":{"id":"315","store_user_id":"10","zonename":"Gr\u00e5sten","zonearea":"6300","zoneprice":"0kr","zonestatus":"1","status":"1","created_at":"2022-11-15 09:47:27","updated_at":"2022-11-15 09:47:27"}}
-*-*-*-*-*-*-*-*-*

---------------------20:01:29
{"status":"1","data":{"id":"315","store_user_id":"10","zonename":"Gr\u00e5sten","zonearea":"6300","zoneprice":"0kr","zonestatus":"1","status":"1","created_at":"2022-11-15 09:47:27","updated_at":"2022-11-15 09:47:27"}}
-*-*-*-*-*-*-*-*-*