

---------------------06:18:37
{"status":"1","data":{"id":"1","store_user_id":"10","zonename":"Frederiksberg","zonearea":"2000","zoneprice":"2200kr","zonestatus":"1","status":"1","created_at":"2022-11-15 09:47:27","updated_at":"2022-11-15 09:47:27"}}
-*-*-*-*-*-*-*-*-*

---------------------06:19:00
{"status":"1","data":[{"id":"324","store_user_id":"10","zonename":"Nordborg","zonearea":"6430","zoneprice":"0kr","zonestatus":"1","status":"1","created_at":"2022-11-15 09:47:27","updated_at":"2022-11-15 09:47:27"}]}
-*-*-*-*-*-*-*-*-*

---------------------06:19:00
{"status":"1","data":[{"id":"324","store_user_id":"10","zonename":"Nordborg","zonearea":"6430","zoneprice":"0kr","zonestatus":"1","status":"1","created_at":"2022-11-15 09:47:27","updated_at":"2022-11-15 09:47:27"}]}
-*-*-*-*-*-*-*-*-*

---------------------06:19:02
{"status":"1","data":{"id":"324","store_user_id":"10","zonename":"Nordborg","zonearea":"6430","zoneprice":"0kr","zonestatus":"1","status":"1","created_at":"2022-11-15 09:47:27","updated_at":"2022-11-15 09:47:27"}}
-*-*-*-*-*-*-*-*-*

---------------------06:19:10
{"status":"1","data":{"id":"324","store_user_id":"10","zonename":"Nordborg","zonearea":"6430","zoneprice":"0kr","zonestatus":"1","status":"1","created_at":"2022-11-15 09:47:27","updated_at":"2022-11-15 09:47:27"}}
-*-*-*-*-*-*-*-*-*

---------------------06:19:12
{"status":"1","data":{"id":"324","store_user_id":"10","zonename":"Nordborg","zonearea":"6430","zoneprice":"0kr","zonestatus":"1","status":"1","created_at":"2022-11-15 09:47:27","updated_at":"2022-11-15 09:47:27"}}
-*-*-*-*-*-*-*-*-*

---------------------06:19:15
{"status":"1","data":{"id":"324","store_user_id":"10","zonename":"Nordborg","zonearea":"6430","zoneprice":"0kr","zonestatus":"1","status":"1","created_at":"2022-11-15 09:47:27","updated_at":"2022-11-15 09:47:27"}}
-*-*-*-*-*-*-*-*-*

---------------------06:19:28
{"status":"1","data":{"id":"324","store_user_id":"10","zonename":"Nordborg","zonearea":"6430","zoneprice":"0kr","zonestatus":"1","status":"1","created_at":"2022-11-15 09:47:27","updated_at":"2022-11-15 09:47:27"}}
-*-*-*-*-*-*-*-*-*

---------------------06:19:31
{"status":"1","data":{"id":"324","store_user_id":"10","zonename":"Nordborg","zonearea":"6430","zoneprice":"0kr","zonestatus":"1","status":"1","created_at":"2022-11-15 09:47:27","updated_at":"2022-11-15 09:47:27"}}
-*-*-*-*-*-*-*-*-*

---------------------06:19:34
{"status":"1","data":{"id":"324","store_user_id":"10","zonename":"Nordborg","zonearea":"6430","zoneprice":"0kr","zonestatus":"1","status":"1","created_at":"2022-11-15 09:47:27","updated_at":"2022-11-15 09:47:27"}}
-*-*-*-*-*-*-*-*-*

---------------------06:19:36
{"status":"1","data":{"id":"324","store_user_id":"10","zonename":"Nordborg","zonearea":"6430","zoneprice":"0kr","zonestatus":"1","status":"1","created_at":"2022-11-15 09:47:27","updated_at":"2022-11-15 09:47:27"}}
-*-*-*-*-*-*-*-*-*

---------------------17:40:40
{"status":"1","data":[{"id":"323","store_user_id":"10","zonename":"S\u00f8nderborg","zonearea":"6400","zoneprice":"0kr","zonestatus":"1","status":"1","created_at":"2022-11-15 09:47:27","updated_at":"2022-11-15 09:47:27"}]}
-*-*-*-*-*-*-*-*-*

---------------------17:40:40
{"status":"1","data":[{"id":"323","store_user_id":"10","zonename":"S\u00f8nderborg","zonearea":"6400","zoneprice":"0kr","zonestatus":"1","status":"1","created_at":"2022-11-15 09:47:27","updated_at":"2022-11-15 09:47:27"}]}
-*-*-*-*-*-*-*-*-*

---------------------17:40:41
{"status":"1","data":{"id":"323","store_user_id":"10","zonename":"S\u00f8nderborg","zonearea":"6400","zoneprice":"0kr","zonestatus":"1","status":"1","created_at":"2022-11-15 09:47:27","updated_at":"2022-11-15 09:47:27"}}
-*-*-*-*-*-*-*-*-*

---------------------17:40:46
{"status":"1","data":{"id":"323","store_user_id":"10","zonename":"S\u00f8nderborg","zonearea":"6400","zoneprice":"0kr","zonestatus":"1","status":"1","created_at":"2022-11-15 09:47:27","updated_at":"2022-11-15 09:47:27"}}
-*-*-*-*-*-*-*-*-*

---------------------17:40:47
{"status":"1","data":{"id":"323","store_user_id":"10","zonename":"S\u00f8nderborg","zonearea":"6400","zoneprice":"0kr","zonestatus":"1","status":"1","created_at":"2022-11-15 09:47:27","updated_at":"2022-11-15 09:47:27"}}
-*-*-*-*-*-*-*-*-*

---------------------17:40:49
{"status":"1","data":{"id":"323","store_user_id":"10","zonename":"S\u00f8nderborg","zonearea":"6400","zoneprice":"0kr","zonestatus":"1","status":"1","created_at":"2022-11-15 09:47:27","updated_at":"2022-11-15 09:47:27"}}
-*-*-*-*-*-*-*-*-*

---------------------17:40:51
{"status":"1","data":{"id":"323","store_user_id":"10","zonename":"S\u00f8nderborg","zonearea":"6400","zoneprice":"0kr","zonestatus":"1","status":"1","created_at":"2022-11-15 09:47:27","updated_at":"2022-11-15 09:47:27"}}
-*-*-*-*-*-*-*-*-*

---------------------17:40:53
{"status":"1","data":{"id":"323","store_user_id":"10","zonename":"S\u00f8nderborg","zonearea":"6400","zoneprice":"0kr","zonestatus":"1","status":"1","created_at":"2022-11-15 09:47:27","updated_at":"2022-11-15 09:47:27"}}
-*-*-*-*-*-*-*-*-*