

---------------------10:23:26
{"status":"1","data":[{"id":"326","store_user_id":"10","zonename":"Sydals","zonearea":"6470","zoneprice":"0kr","zonestatus":"1","status":"1","created_at":"2022-11-15 09:47:27","updated_at":"2022-11-15 09:47:27"}]}
-*-*-*-*-*-*-*-*-*

---------------------10:23:26
{"status":"1","data":[{"id":"326","store_user_id":"10","zonename":"Sydals","zonearea":"6470","zoneprice":"0kr","zonestatus":"1","status":"1","created_at":"2022-11-15 09:47:27","updated_at":"2022-11-15 09:47:27"}]}
-*-*-*-*-*-*-*-*-*

---------------------10:23:28
{"status":0,"data":null}
-*-*-*-*-*-*-*-*-*

---------------------10:23:34
{"status":0,"data":null}
-*-*-*-*-*-*-*-*-*

---------------------10:23:58
{"status":"1","data":[{"id":"326","store_user_id":"10","zonename":"Sydals","zonearea":"6470","zoneprice":"0kr","zonestatus":"1","status":"1","created_at":"2022-11-15 09:47:27","updated_at":"2022-11-15 09:47:27"}]}
-*-*-*-*-*-*-*-*-*

---------------------10:23:59
{"status":"1","data":[{"id":"326","store_user_id":"10","zonename":"Sydals","zonearea":"6470","zoneprice":"0kr","zonestatus":"1","status":"1","created_at":"2022-11-15 09:47:27","updated_at":"2022-11-15 09:47:27"}]}
-*-*-*-*-*-*-*-*-*

---------------------10:24:10
{"status":"1","data":[{"id":"326","store_user_id":"10","zonename":"Sydals","zonearea":"6470","zoneprice":"0kr","zonestatus":"1","status":"1","created_at":"2022-11-15 09:47:27","updated_at":"2022-11-15 09:47:27"}]}
-*-*-*-*-*-*-*-*-*

---------------------10:24:10
{"status":"1","data":[{"id":"326","store_user_id":"10","zonename":"Sydals","zonearea":"6470","zoneprice":"0kr","zonestatus":"1","status":"1","created_at":"2022-11-15 09:47:27","updated_at":"2022-11-15 09:47:27"}]}
-*-*-*-*-*-*-*-*-*

---------------------10:24:12
{"status":"1","data":[]}
-*-*-*-*-*-*-*-*-*

---------------------10:24:12
{"status":"1","data":[]}
-*-*-*-*-*-*-*-*-*

---------------------10:24:13
{"status":0,"data":null}
-*-*-*-*-*-*-*-*-*

---------------------10:24:17
{"status":0,"data":null}
-*-*-*-*-*-*-*-*-*

---------------------10:24:28
{"status":"1","data":[]}
-*-*-*-*-*-*-*-*-*

---------------------10:24:28
{"status":"1","data":[]}
-*-*-*-*-*-*-*-*-*

---------------------10:24:28
{"status":"1","data":[]}
-*-*-*-*-*-*-*-*-*

---------------------10:24:29
{"status":"1","data":[]}
-*-*-*-*-*-*-*-*-*

---------------------10:24:29
{"status":"1","data":[]}
-*-*-*-*-*-*-*-*-*

---------------------10:24:29
{"status":"1","data":[]}
-*-*-*-*-*-*-*-*-*

---------------------10:24:29
{"status":"1","data":[{"id":"326","store_user_id":"10","zonename":"Sydals","zonearea":"6470","zoneprice":"0kr","zonestatus":"1","status":"1","created_at":"2022-11-15 09:47:27","updated_at":"2022-11-15 09:47:27"}]}
-*-*-*-*-*-*-*-*-*

---------------------10:24:29
{"status":"1","data":[{"id":"326","store_user_id":"10","zonename":"Sydals","zonearea":"6470","zoneprice":"0kr","zonestatus":"1","status":"1","created_at":"2022-11-15 09:47:27","updated_at":"2022-11-15 09:47:27"}]}
-*-*-*-*-*-*-*-*-*

---------------------10:24:30
{"status":"1","data":[{"id":"326","store_user_id":"10","zonename":"Sydals","zonearea":"6470","zoneprice":"0kr","zonestatus":"1","status":"1","created_at":"2022-11-15 09:47:27","updated_at":"2022-11-15 09:47:27"}]}
-*-*-*-*-*-*-*-*-*

---------------------10:24:32
{"status":"1","data":[{"id":"323","store_user_id":"10","zonename":"S\u00f8nderborg","zonearea":"6400","zoneprice":"0kr","zonestatus":"1","status":"1","created_at":"2022-11-15 09:47:27","updated_at":"2022-11-15 09:47:27"}]}
-*-*-*-*-*-*-*-*-*

---------------------10:24:32
{"status":"1","data":[{"id":"323","store_user_id":"10","zonename":"S\u00f8nderborg","zonearea":"6400","zoneprice":"0kr","zonestatus":"1","status":"1","created_at":"2022-11-15 09:47:27","updated_at":"2022-11-15 09:47:27"}]}
-*-*-*-*-*-*-*-*-*

---------------------10:24:34
{"status":"1","data":[{"id":"323","store_user_id":"10","zonename":"S\u00f8nderborg","zonearea":"6400","zoneprice":"0kr","zonestatus":"1","status":"1","created_at":"2022-11-15 09:47:27","updated_at":"2022-11-15 09:47:27"}]}
-*-*-*-*-*-*-*-*-*

---------------------10:24:34
{"status":"1","data":[{"id":"323","store_user_id":"10","zonename":"S\u00f8nderborg","zonearea":"6400","zoneprice":"0kr","zonestatus":"1","status":"1","created_at":"2022-11-15 09:47:27","updated_at":"2022-11-15 09:47:27"}]}
-*-*-*-*-*-*-*-*-*

---------------------10:24:35
{"status":"1","data":[]}
-*-*-*-*-*-*-*-*-*

---------------------10:24:35
{"status":"1","data":[]}
-*-*-*-*-*-*-*-*-*

---------------------10:24:37
{"status":"1","data":[]}
-*-*-*-*-*-*-*-*-*

---------------------10:24:37
{"status":"1","data":[]}
-*-*-*-*-*-*-*-*-*

---------------------10:24:37
{"status":"1","data":[]}
-*-*-*-*-*-*-*-*-*

---------------------10:24:38
{"status":"1","data":[]}
-*-*-*-*-*-*-*-*-*

---------------------10:24:38
{"status":"1","data":[]}
-*-*-*-*-*-*-*-*-*

---------------------10:24:39
{"status":"1","data":[]}
-*-*-*-*-*-*-*-*-*

---------------------10:24:39
{"status":"1","data":[]}
-*-*-*-*-*-*-*-*-*

---------------------10:24:40
{"status":0,"data":null}
-*-*-*-*-*-*-*-*-*

---------------------10:24:43
{"status":0,"data":null}
-*-*-*-*-*-*-*-*-*

---------------------10:25:41
{"status":"1","data":[{"id":"323","store_user_id":"10","zonename":"S\u00f8nderborg","zonearea":"6400","zoneprice":"0kr","zonestatus":"1","status":"1","created_at":"2022-11-15 09:47:27","updated_at":"2022-11-15 09:47:27"}]}
-*-*-*-*-*-*-*-*-*

---------------------10:25:41
{"status":"1","data":[{"id":"323","store_user_id":"10","zonename":"S\u00f8nderborg","zonearea":"6400","zoneprice":"0kr","zonestatus":"1","status":"1","created_at":"2022-11-15 09:47:27","updated_at":"2022-11-15 09:47:27"}]}
-*-*-*-*-*-*-*-*-*

---------------------10:25:42
{"status":"1","data":[]}
-*-*-*-*-*-*-*-*-*

---------------------10:25:42
{"status":"1","data":[]}
-*-*-*-*-*-*-*-*-*

---------------------10:25:44
{"status":0,"data":null}
-*-*-*-*-*-*-*-*-*

---------------------15:29:21
{"status":"1","data":[{"id":"323","store_user_id":"10","zonename":"S\u00f8nderborg","zonearea":"6400","zoneprice":"0kr","zonestatus":"1","status":"1","created_at":"2022-11-15 09:47:27","updated_at":"2022-11-15 09:47:27"}]}
-*-*-*-*-*-*-*-*-*

---------------------15:29:21
{"status":"1","data":[{"id":"323","store_user_id":"10","zonename":"S\u00f8nderborg","zonearea":"6400","zoneprice":"0kr","zonestatus":"1","status":"1","created_at":"2022-11-15 09:47:27","updated_at":"2022-11-15 09:47:27"}]}
-*-*-*-*-*-*-*-*-*

---------------------15:29:25
{"status":"1","data":{"id":"323","store_user_id":"10","zonename":"S\u00f8nderborg","zonearea":"6400","zoneprice":"0kr","zonestatus":"1","status":"1","created_at":"2022-11-15 09:47:27","updated_at":"2022-11-15 09:47:27"}}
-*-*-*-*-*-*-*-*-*

---------------------17:37:06
{"status":"1","data":[{"id":"263","store_user_id":"10","zonename":"Assens","zonearea":"5610","zoneprice":"1500kr","zonestatus":"1","status":"1","created_at":"2022-11-15 09:47:27","updated_at":"2022-11-15 09:47:27"}]}
-*-*-*-*-*-*-*-*-*

---------------------17:37:07
{"status":"1","data":[{"id":"263","store_user_id":"10","zonename":"Assens","zonearea":"5610","zoneprice":"1500kr","zonestatus":"1","status":"1","created_at":"2022-11-15 09:47:27","updated_at":"2022-11-15 09:47:27"}]}
-*-*-*-*-*-*-*-*-*

---------------------17:37:11
{"status":"1","data":{"id":"263","store_user_id":"10","zonename":"Assens","zonearea":"5610","zoneprice":"1500kr","zonestatus":"1","status":"1","created_at":"2022-11-15 09:47:27","updated_at":"2022-11-15 09:47:27"}}
-*-*-*-*-*-*-*-*-*

---------------------17:37:17
{"status":"1","data":{"id":"263","store_user_id":"10","zonename":"Assens","zonearea":"5610","zoneprice":"1500kr","zonestatus":"1","status":"1","created_at":"2022-11-15 09:47:27","updated_at":"2022-11-15 09:47:27"}}
-*-*-*-*-*-*-*-*-*

---------------------17:37:22
{"status":"1","data":{"id":"263","store_user_id":"10","zonename":"Assens","zonearea":"5610","zoneprice":"1500kr","zonestatus":"1","status":"1","created_at":"2022-11-15 09:47:27","updated_at":"2022-11-15 09:47:27"}}
-*-*-*-*-*-*-*-*-*

---------------------17:37:27
{"status":"1","data":{"id":"263","store_user_id":"10","zonename":"Assens","zonearea":"5610","zoneprice":"1500kr","zonestatus":"1","status":"1","created_at":"2022-11-15 09:47:27","updated_at":"2022-11-15 09:47:27"}}
-*-*-*-*-*-*-*-*-*

---------------------17:37:35
{"status":"1","data":{"id":"263","store_user_id":"10","zonename":"Assens","zonearea":"5610","zoneprice":"1500kr","zonestatus":"1","status":"1","created_at":"2022-11-15 09:47:27","updated_at":"2022-11-15 09:47:27"}}
-*-*-*-*-*-*-*-*-*