

---------------------08:57:27
{"status":"1","data":[{"id":"298","store_user_id":"10","zonename":"Egtved","zonearea":"6040","zoneprice":"500kr","zonestatus":"1","status":"1","created_at":"2022-11-15 09:47:27","updated_at":"2022-11-15 09:47:27"},{"id":"299","store_user_id":"10","zonename":"Almind","zonearea":"6051","zoneprice":"500kr","zonestatus":"1","status":"1","created_at":"2022-11-15 09:47:27","updated_at":"2022-11-15 09:47:27"},{"id":"300","store_user_id":"10","zonename":"Viuf","zonearea":"6052","zoneprice":"500kr","zonestatus":"1","status":"1","created_at":"2022-11-15 09:47:27","updated_at":"2022-11-15 09:47:27"},{"id":"301","store_user_id":"10","zonename":"Jordrup","zonearea":"6064","zoneprice":"500kr","zonestatus":"1","status":"1","created_at":"2022-11-15 09:47:27","updated_at":"2022-11-15 09:47:27"},{"id":"302","store_user_id":"10","zonename":"Christiansfeld","zonearea":"6070","zoneprice":"500kr","zonestatus":"1","status":"1","created_at":"2022-11-15 09:47:27","updated_at":"2022-11-15 09:47:27"},{"id":"303","store_user_id":"10","zonename":"Bjert","zonearea":"6091","zoneprice":"500kr","zonestatus":"1","status":"1","created_at":"2022-11-15 09:47:27","updated_at":"2022-11-15 09:47:27"},{"id":"304","store_user_id":"10","zonename":"S\u00f8nder Stenderup","zonearea":"6092","zoneprice":"500kr","zonestatus":"1","status":"1","created_at":"2022-11-15 09:47:27","updated_at":"2022-11-15 09:47:27"},{"id":"305","store_user_id":"10","zonename":"Sj\u00f8lund","zonearea":"6093","zoneprice":"500kr","zonestatus":"1","status":"1","created_at":"2022-11-15 09:47:27","updated_at":"2022-11-15 09:47:27"},{"id":"306","store_user_id":"10","zonename":"Hejls","zonearea":"6094","zoneprice":"0kr","zonestatus":"1","status":"1","created_at":"2022-11-15 09:47:27","updated_at":"2022-11-15 09:47:27"},{"id":"307","store_user_id":"10","zonename":"Haderslev","zonearea":"6100","zoneprice":"0kr","zonestatus":"1","status":"1","created_at":"2022-11-15 09:47:27","updated_at":"2022-11-15 09:47:27"},{"id":"308","store_user_id":"10","zonename":"Aabenraa","zonearea":"6200","zoneprice":"0kr","zonestatus":"1","status":"1","created_at":"2022-11-15 09:47:27","updated_at":"2022-11-15 09:47:27"},{"id":"309","store_user_id":"10","zonename":"Bars\u00f8","zonearea":"6210","zoneprice":"0kr","zonestatus":"1","status":"1","created_at":"2022-11-15 09:47:27","updated_at":"2022-11-15 09:47:27"},{"id":"310","store_user_id":"10","zonename":"R\u00f8dekro","zonearea":"6230","zoneprice":"0kr","zonestatus":"1","status":"1","created_at":"2022-11-15 09:47:27","updated_at":"2022-11-15 09:47:27"},{"id":"311","store_user_id":"10","zonename":"L\u00f8gumkloster","zonearea":"6240","zoneprice":"0kr","zonestatus":"1","status":"1","created_at":"2022-11-15 09:47:27","updated_at":"2022-11-15 09:47:27"},{"id":"312","store_user_id":"10","zonename":"Bredebro","zonearea":"6261","zoneprice":"0kr","zonestatus":"1","status":"1","created_at":"2022-11-15 09:47:27","updated_at":"2022-11-15 09:47:27"},{"id":"313","store_user_id":"10","zonename":"T\u00f8nder","zonearea":"6270","zoneprice":"0kr","zonestatus":"1","status":"1","created_at":"2022-11-15 09:47:27","updated_at":"2022-11-15 09:47:27"},{"id":"314","store_user_id":"10","zonename":"H\u00f8jer","zonearea":"6280","zoneprice":"0kr","zonestatus":"1","status":"1","created_at":"2022-11-15 09:47:27","updated_at":"2022-11-15 09:47:27"},{"id":"315","store_user_id":"10","zonename":"Gr\u00e5sten","zonearea":"6300","zoneprice":"0kr","zonestatus":"1","status":"1","created_at":"2022-11-15 09:47:27","updated_at":"2022-11-15 09:47:27"},{"id":"316","store_user_id":"10","zonename":"Broager","zonearea":"6310","zoneprice":"0kr","zonestatus":"1","status":"1","created_at":"2022-11-15 09:47:27","updated_at":"2022-11-15 09:47:27"}]}
-*-*-*-*-*-*-*-*-*

---------------------08:57:28
{"status":"1","data":[{"id":"324","store_user_id":"10","zonename":"Nordborg","zonearea":"6430","zoneprice":"0kr","zonestatus":"1","status":"1","created_at":"2022-11-15 09:47:27","updated_at":"2022-11-15 09:47:27"},{"id":"325","store_user_id":"10","zonename":"Augustenborg","zonearea":"6440","zoneprice":"0kr","zonestatus":"1","status":"1","created_at":"2022-11-15 09:47:27","updated_at":"2022-11-15 09:47:27"},{"id":"326","store_user_id":"10","zonename":"Sydals","zonearea":"6470","zoneprice":"0kr","zonestatus":"1","status":"1","created_at":"2022-11-15 09:47:27","updated_at":"2022-11-15 09:47:27"}]}
-*-*-*-*-*-*-*-*-*

---------------------08:57:30
{"status":"1","data":{"id":"326","store_user_id":"10","zonename":"Sydals","zonearea":"6470","zoneprice":"0kr","zonestatus":"1","status":"1","created_at":"2022-11-15 09:47:27","updated_at":"2022-11-15 09:47:27"}}
-*-*-*-*-*-*-*-*-*

---------------------08:57:46
{"status":"1","data":{"id":"326","store_user_id":"10","zonename":"Sydals","zonearea":"6470","zoneprice":"0kr","zonestatus":"1","status":"1","created_at":"2022-11-15 09:47:27","updated_at":"2022-11-15 09:47:27"}}
-*-*-*-*-*-*-*-*-*

---------------------08:58:18
{"status":"1","data":{"id":"326","store_user_id":"10","zonename":"Sydals","zonearea":"6470","zoneprice":"0kr","zonestatus":"1","status":"1","created_at":"2022-11-15 09:47:27","updated_at":"2022-11-15 09:47:27"}}
-*-*-*-*-*-*-*-*-*

---------------------16:26:59
{"status":"1","data":{"id":"1","store_user_id":"10","zonename":"Frederiksberg","zonearea":"2000","zoneprice":"2200kr","zonestatus":"1","status":"1","created_at":"2022-11-15 09:47:27","updated_at":"2022-11-15 09:47:27"}}
-*-*-*-*-*-*-*-*-*

---------------------16:27:09
{"status":"1","data":{"id":"1","store_user_id":"10","zonename":"Frederiksberg","zonearea":"2000","zoneprice":"2200kr","zonestatus":"1","status":"1","created_at":"2022-11-15 09:47:27","updated_at":"2022-11-15 09:47:27"}}
-*-*-*-*-*-*-*-*-*

---------------------16:27:17
{"status":"1","data":{"id":"1","store_user_id":"10","zonename":"Frederiksberg","zonearea":"2000","zoneprice":"2200kr","zonestatus":"1","status":"1","created_at":"2022-11-15 09:47:27","updated_at":"2022-11-15 09:47:27"}}
-*-*-*-*-*-*-*-*-*

---------------------16:28:28
{"status":"1","data":{"id":"1","store_user_id":"10","zonename":"Frederiksberg","zonearea":"2000","zoneprice":"2200kr","zonestatus":"1","status":"1","created_at":"2022-11-15 09:47:27","updated_at":"2022-11-15 09:47:27"}}
-*-*-*-*-*-*-*-*-*

---------------------16:28:29
{"status":"1","data":{"id":"1","store_user_id":"10","zonename":"Frederiksberg","zonearea":"2000","zoneprice":"2200kr","zonestatus":"1","status":"1","created_at":"2022-11-15 09:47:27","updated_at":"2022-11-15 09:47:27"}}
-*-*-*-*-*-*-*-*-*

---------------------16:28:33
{"status":"1","data":{"id":"1","store_user_id":"10","zonename":"Frederiksberg","zonearea":"2000","zoneprice":"2200kr","zonestatus":"1","status":"1","created_at":"2022-11-15 09:47:27","updated_at":"2022-11-15 09:47:27"}}
-*-*-*-*-*-*-*-*-*

---------------------16:45:09
{"status":"1","data":[{"id":"2","store_user_id":"10","zonename":"K\u00f8benhavn \u00d8","zonearea":"2100","zoneprice":"2200kr","zonestatus":"1","status":"1","created_at":"2022-11-15 09:47:27","updated_at":"2022-11-15 09:47:27"},{"id":"3","store_user_id":"10","zonename":"Nordhavn","zonearea":"2150","zoneprice":"2200kr","zonestatus":"1","status":"1","created_at":"2022-11-15 09:47:27","updated_at":"2022-11-15 09:47:27"},{"id":"4","store_user_id":"10","zonename":"K\u00f8benhavn N","zonearea":"2200","zoneprice":"2200kr","zonestatus":"1","status":"1","created_at":"2022-11-15 09:47:27","updated_at":"2022-11-15 09:47:27"},{"id":"5","store_user_id":"10","zonename":"K\u00f8benhavn S","zonearea":"2300","zoneprice":"2200kr","zonestatus":"1","status":"1","created_at":"2022-11-15 09:47:27","updated_at":"2022-11-15 09:47:27"},{"id":"6","store_user_id":"10","zonename":"K\u00f8benhavn NV","zonearea":"2400","zoneprice":"2200kr","zonestatus":"1","status":"1","created_at":"2022-11-15 09:47:27","updated_at":"2022-11-15 09:47:27"},{"id":"7","store_user_id":"10","zonename":"K\u00f8benhavn SV","zonearea":"2450","zoneprice":"2200kr","zonestatus":"1","status":"1","created_at":"2022-11-15 09:47:27","updated_at":"2022-11-15 09:47:27"},{"id":"8","store_user_id":"10","zonename":"Valby","zonearea":"2500","zoneprice":"2200kr","zonestatus":"1","status":"1","created_at":"2022-11-15 09:47:27","updated_at":"2022-11-15 09:47:27"},{"id":"9","store_user_id":"10","zonename":"Glostrup","zonearea":"2600","zoneprice":"2200kr","zonestatus":"1","status":"1","created_at":"2022-11-15 09:47:27","updated_at":"2022-11-15 09:47:27"},{"id":"10","store_user_id":"10","zonename":"Br\u00f8ndby","zonearea":"2605","zoneprice":"2200kr","zonestatus":"1","status":"1","created_at":"2022-11-15 09:47:27","updated_at":"2022-11-15 09:47:27"},{"id":"11","store_user_id":"10","zonename":"R\u00f8dovre","zonearea":"2610","zoneprice":"2200kr","zonestatus":"1","status":"1","created_at":"2022-11-15 09:47:27","updated_at":"2022-11-15 09:47:27"},{"id":"12","store_user_id":"10","zonename":"Albertslund","zonearea":"2620","zoneprice":"2200kr","zonestatus":"1","status":"1","created_at":"2022-11-15 09:47:27","updated_at":"2022-11-15 09:47:27"},{"id":"13","store_user_id":"10","zonename":"Vallensb\u00e6k","zonearea":"2625","zoneprice":"2200kr","zonestatus":"1","status":"1","created_at":"2022-11-15 09:47:27","updated_at":"2022-11-15 09:47:27"},{"id":"14","store_user_id":"10","zonename":"Taastrup","zonearea":"2630","zoneprice":"2200kr","zonestatus":"1","status":"1","created_at":"2022-11-15 09:47:27","updated_at":"2022-11-15 09:47:27"},{"id":"15","store_user_id":"10","zonename":"Ish\u00f8j","zonearea":"2635","zoneprice":"2200kr","zonestatus":"1","status":"1","created_at":"2022-11-15 09:47:27","updated_at":"2022-11-15 09:47:27"},{"id":"16","store_user_id":"10","zonename":"Hedehusene","zonearea":"2640","zoneprice":"2200kr","zonestatus":"1","status":"1","created_at":"2022-11-15 09:47:27","updated_at":"2022-11-15 09:47:27"},{"id":"17","store_user_id":"10","zonename":"Hvidovre","zonearea":"2650","zoneprice":"2200kr","zonestatus":"1","status":"1","created_at":"2022-11-15 09:47:27","updated_at":"2022-11-15 09:47:27"},{"id":"18","store_user_id":"10","zonename":"Br\u00f8ndby Strand","zonearea":"2660","zoneprice":"2200kr","zonestatus":"1","status":"1","created_at":"2022-11-15 09:47:27","updated_at":"2022-11-15 09:47:27"},{"id":"19","store_user_id":"10","zonename":"Vallensb\u00e6k Strand","zonearea":"2665","zoneprice":"2200kr","zonestatus":"1","status":"1","created_at":"2022-11-15 09:47:27","updated_at":"2022-11-15 09:47:27"},{"id":"20","store_user_id":"10","zonename":"Greve","zonearea":"2670","zoneprice":"2200kr","zonestatus":"1","status":"1","created_at":"2022-11-15 09:47:27","updated_at":"2022-11-15 09:47:27"}]}
-*-*-*-*-*-*-*-*-*

---------------------16:45:10
{"status":"1","data":[{"id":"24","store_user_id":"10","zonename":"Vanl\u00f8se","zonearea":"2720","zoneprice":"2200kr","zonestatus":"1","status":"1","created_at":"2022-11-15 09:47:27","updated_at":"2022-11-15 09:47:27"},{"id":"25","store_user_id":"10","zonename":"Herlev","zonearea":"2730","zoneprice":"2200kr","zonestatus":"1","status":"1","created_at":"2022-11-15 09:47:27","updated_at":"2022-11-15 09:47:27"},{"id":"26","store_user_id":"10","zonename":"Skovlunde","zonearea":"2740","zoneprice":"2200kr","zonestatus":"1","status":"1","created_at":"2022-11-15 09:47:27","updated_at":"2022-11-15 09:47:27"},{"id":"27","store_user_id":"10","zonename":"Ballerup","zonearea":"2750","zoneprice":"2200kr","zonestatus":"1","status":"1","created_at":"2022-11-15 09:47:27","updated_at":"2022-11-15 09:47:27"},{"id":"28","store_user_id":"10","zonename":"M\u00e5l\u00f8v","zonearea":"2760","zoneprice":"2200kr","zonestatus":"1","status":"1","created_at":"2022-11-15 09:47:27","updated_at":"2022-11-15 09:47:27"},{"id":"29","store_user_id":"10","zonename":"Sm\u00f8rum","zonearea":"2765","zoneprice":"2200kr","zonestatus":"1","status":"1","created_at":"2022-11-15 09:47:27","updated_at":"2022-11-15 09:47:27"},{"id":"30","store_user_id":"10","zonename":"Kastrup","zonearea":"2770","zoneprice":"2200kr","zonestatus":"1","status":"1","created_at":"2022-11-15 09:47:27","updated_at":"2022-11-15 09:47:27"},{"id":"31","store_user_id":"10","zonename":"Drag\u00f8r","zonearea":"2791","zoneprice":"2200kr","zonestatus":"1","status":"1","created_at":"2022-11-15 09:47:27","updated_at":"2022-11-15 09:47:27"}]}
-*-*-*-*-*-*-*-*-*

---------------------16:45:14
{"status":"1","data":{"id":"27","store_user_id":"10","zonename":"Ballerup","zonearea":"2750","zoneprice":"2200kr","zonestatus":"1","status":"1","created_at":"2022-11-15 09:47:27","updated_at":"2022-11-15 09:47:27"}}
-*-*-*-*-*-*-*-*-*

---------------------16:45:19
{"status":"1","data":{"id":"27","store_user_id":"10","zonename":"Ballerup","zonearea":"2750","zoneprice":"2200kr","zonestatus":"1","status":"1","created_at":"2022-11-15 09:47:27","updated_at":"2022-11-15 09:47:27"}}
-*-*-*-*-*-*-*-*-*

---------------------16:45:22
{"status":"1","data":{"id":"27","store_user_id":"10","zonename":"Ballerup","zonearea":"2750","zoneprice":"2200kr","zonestatus":"1","status":"1","created_at":"2022-11-15 09:47:27","updated_at":"2022-11-15 09:47:27"}}
-*-*-*-*-*-*-*-*-*

---------------------18:43:35
{"status":"1","data":[{"id":"324","store_user_id":"10","zonename":"Nordborg","zonearea":"6430","zoneprice":"0kr","zonestatus":"1","status":"1","created_at":"2022-11-15 09:47:27","updated_at":"2022-11-15 09:47:27"},{"id":"325","store_user_id":"10","zonename":"Augustenborg","zonearea":"6440","zoneprice":"0kr","zonestatus":"1","status":"1","created_at":"2022-11-15 09:47:27","updated_at":"2022-11-15 09:47:27"},{"id":"326","store_user_id":"10","zonename":"Sydals","zonearea":"6470","zoneprice":"0kr","zonestatus":"1","status":"1","created_at":"2022-11-15 09:47:27","updated_at":"2022-11-15 09:47:27"}]}
-*-*-*-*-*-*-*-*-*

---------------------18:43:36
{"status":"1","data":[{"id":"324","store_user_id":"10","zonename":"Nordborg","zonearea":"6430","zoneprice":"0kr","zonestatus":"1","status":"1","created_at":"2022-11-15 09:47:27","updated_at":"2022-11-15 09:47:27"},{"id":"325","store_user_id":"10","zonename":"Augustenborg","zonearea":"6440","zoneprice":"0kr","zonestatus":"1","status":"1","created_at":"2022-11-15 09:47:27","updated_at":"2022-11-15 09:47:27"},{"id":"326","store_user_id":"10","zonename":"Sydals","zonearea":"6470","zoneprice":"0kr","zonestatus":"1","status":"1","created_at":"2022-11-15 09:47:27","updated_at":"2022-11-15 09:47:27"}]}
-*-*-*-*-*-*-*-*-*

---------------------18:43:37
{"status":"1","data":{"id":"323","store_user_id":"10","zonename":"S\u00f8nderborg","zonearea":"6400","zoneprice":"0kr","zonestatus":"1","status":"1","created_at":"2022-11-15 09:47:27","updated_at":"2022-11-15 09:47:27"}}
-*-*-*-*-*-*-*-*-*

---------------------18:47:33
{"status":"1","data":{"id":"323","store_user_id":"10","zonename":"S\u00f8nderborg","zonearea":"6400","zoneprice":"0kr","zonestatus":"1","status":"1","created_at":"2022-11-15 09:47:27","updated_at":"2022-11-15 09:47:27"}}
-*-*-*-*-*-*-*-*-*

---------------------18:55:17
{"status":"1","data":{"id":"323","store_user_id":"10","zonename":"S\u00f8nderborg","zonearea":"6400","zoneprice":"0kr","zonestatus":"1","status":"1","created_at":"2022-11-15 09:47:27","updated_at":"2022-11-15 09:47:27"}}
-*-*-*-*-*-*-*-*-*

---------------------18:55:22
{"status":"1","data":{"id":"323","store_user_id":"10","zonename":"S\u00f8nderborg","zonearea":"6400","zoneprice":"0kr","zonestatus":"1","status":"1","created_at":"2022-11-15 09:47:27","updated_at":"2022-11-15 09:47:27"}}
-*-*-*-*-*-*-*-*-*

---------------------18:55:30
{"status":"1","data":{"id":"323","store_user_id":"10","zonename":"S\u00f8nderborg","zonearea":"6400","zoneprice":"0kr","zonestatus":"1","status":"1","created_at":"2022-11-15 09:47:27","updated_at":"2022-11-15 09:47:27"}}
-*-*-*-*-*-*-*-*-*

---------------------18:55:36
{"status":"1","data":{"id":"323","store_user_id":"10","zonename":"S\u00f8nderborg","zonearea":"6400","zoneprice":"0kr","zonestatus":"1","status":"1","created_at":"2022-11-15 09:47:27","updated_at":"2022-11-15 09:47:27"}}
-*-*-*-*-*-*-*-*-*

---------------------18:55:41
{"status":"1","data":{"id":"323","store_user_id":"10","zonename":"S\u00f8nderborg","zonearea":"6400","zoneprice":"0kr","zonestatus":"1","status":"1","created_at":"2022-11-15 09:47:27","updated_at":"2022-11-15 09:47:27"}}
-*-*-*-*-*-*-*-*-*

---------------------18:55:45
{"status":"1","data":{"id":"323","store_user_id":"10","zonename":"S\u00f8nderborg","zonearea":"6400","zoneprice":"0kr","zonestatus":"1","status":"1","created_at":"2022-11-15 09:47:27","updated_at":"2022-11-15 09:47:27"}}
-*-*-*-*-*-*-*-*-*

---------------------18:56:09
{"status":"1","data":{"id":"323","store_user_id":"10","zonename":"S\u00f8nderborg","zonearea":"6400","zoneprice":"0kr","zonestatus":"1","status":"1","created_at":"2022-11-15 09:47:27","updated_at":"2022-11-15 09:47:27"}}
-*-*-*-*-*-*-*-*-*

---------------------19:10:33
{"status":"1","data":{"id":"323","store_user_id":"10","zonename":"S\u00f8nderborg","zonearea":"6400","zoneprice":"0kr","zonestatus":"1","status":"1","created_at":"2022-11-15 09:47:27","updated_at":"2022-11-15 09:47:27"}}
-*-*-*-*-*-*-*-*-*

---------------------19:11:10
{"status":"1","data":{"id":"323","store_user_id":"10","zonename":"S\u00f8nderborg","zonearea":"6400","zoneprice":"0kr","zonestatus":"1","status":"1","created_at":"2022-11-15 09:47:27","updated_at":"2022-11-15 09:47:27"}}
-*-*-*-*-*-*-*-*-*

---------------------19:11:14
{"status":"1","data":{"id":"323","store_user_id":"10","zonename":"S\u00f8nderborg","zonearea":"6400","zoneprice":"0kr","zonestatus":"1","status":"1","created_at":"2022-11-15 09:47:27","updated_at":"2022-11-15 09:47:27"}}
-*-*-*-*-*-*-*-*-*

---------------------19:11:26
{"status":"1","data":{"id":"323","store_user_id":"10","zonename":"S\u00f8nderborg","zonearea":"6400","zoneprice":"0kr","zonestatus":"1","status":"1","created_at":"2022-11-15 09:47:27","updated_at":"2022-11-15 09:47:27"}}
-*-*-*-*-*-*-*-*-*

---------------------19:11:49
{"status":"1","data":[{"id":"324","store_user_id":"10","zonename":"Nordborg","zonearea":"6430","zoneprice":"0kr","zonestatus":"1","status":"1","created_at":"2022-11-15 09:47:27","updated_at":"2022-11-15 09:47:27"},{"id":"325","store_user_id":"10","zonename":"Augustenborg","zonearea":"6440","zoneprice":"0kr","zonestatus":"1","status":"1","created_at":"2022-11-15 09:47:27","updated_at":"2022-11-15 09:47:27"},{"id":"326","store_user_id":"10","zonename":"Sydals","zonearea":"6470","zoneprice":"0kr","zonestatus":"1","status":"1","created_at":"2022-11-15 09:47:27","updated_at":"2022-11-15 09:47:27"}]}
-*-*-*-*-*-*-*-*-*

---------------------19:11:49
{"status":"1","data":[{"id":"324","store_user_id":"10","zonename":"Nordborg","zonearea":"6430","zoneprice":"0kr","zonestatus":"1","status":"1","created_at":"2022-11-15 09:47:27","updated_at":"2022-11-15 09:47:27"},{"id":"325","store_user_id":"10","zonename":"Augustenborg","zonearea":"6440","zoneprice":"0kr","zonestatus":"1","status":"1","created_at":"2022-11-15 09:47:27","updated_at":"2022-11-15 09:47:27"},{"id":"326","store_user_id":"10","zonename":"Sydals","zonearea":"6470","zoneprice":"0kr","zonestatus":"1","status":"1","created_at":"2022-11-15 09:47:27","updated_at":"2022-11-15 09:47:27"}]}
-*-*-*-*-*-*-*-*-*

---------------------19:11:52
{"status":"1","data":{"id":"323","store_user_id":"10","zonename":"S\u00f8nderborg","zonearea":"6400","zoneprice":"0kr","zonestatus":"1","status":"1","created_at":"2022-11-15 09:47:27","updated_at":"2022-11-15 09:47:27"}}
-*-*-*-*-*-*-*-*-*

---------------------19:11:57
{"status":"1","data":{"id":"323","store_user_id":"10","zonename":"S\u00f8nderborg","zonearea":"6400","zoneprice":"0kr","zonestatus":"1","status":"1","created_at":"2022-11-15 09:47:27","updated_at":"2022-11-15 09:47:27"}}
-*-*-*-*-*-*-*-*-*

---------------------19:12:08
{"status":"1","data":{"id":"323","store_user_id":"10","zonename":"S\u00f8nderborg","zonearea":"6400","zoneprice":"0kr","zonestatus":"1","status":"1","created_at":"2022-11-15 09:47:27","updated_at":"2022-11-15 09:47:27"}}
-*-*-*-*-*-*-*-*-*