

---------------------11:09:50
{"status":"1","data":[{"id":"288","store_user_id":"10","zonename":"Rudk\u00f8bing","zonearea":"5900","zoneprice":"1500kr","zonestatus":"1","status":"1","created_at":"2022-11-15 09:47:27","updated_at":"2022-11-15 09:47:27"}]}
-*-*-*-*-*-*-*-*-*

---------------------11:09:50
{"status":"1","data":[{"id":"288","store_user_id":"10","zonename":"Rudk\u00f8bing","zonearea":"5900","zoneprice":"1500kr","zonestatus":"1","status":"1","created_at":"2022-11-15 09:47:27","updated_at":"2022-11-15 09:47:27"}]}
-*-*-*-*-*-*-*-*-*

---------------------11:09:55
{"status":"1","data":{"id":"288","store_user_id":"10","zonename":"Rudk\u00f8bing","zonearea":"5900","zoneprice":"1500kr","zonestatus":"1","status":"1","created_at":"2022-11-15 09:47:27","updated_at":"2022-11-15 09:47:27"}}
-*-*-*-*-*-*-*-*-*

---------------------11:10:16
{"status":"1","data":{"id":"288","store_user_id":"10","zonename":"Rudk\u00f8bing","zonearea":"5900","zoneprice":"1500kr","zonestatus":"1","status":"1","created_at":"2022-11-15 09:47:27","updated_at":"2022-11-15 09:47:27"}}
-*-*-*-*-*-*-*-*-*

---------------------11:10:22
{"status":"1","data":{"id":"288","store_user_id":"10","zonename":"Rudk\u00f8bing","zonearea":"5900","zoneprice":"1500kr","zonestatus":"1","status":"1","created_at":"2022-11-15 09:47:27","updated_at":"2022-11-15 09:47:27"}}
-*-*-*-*-*-*-*-*-*

---------------------12:10:13
{"status":"1","data":{"id":"1","store_user_id":"10","zonename":"Frederiksberg","zonearea":"2000","zoneprice":"2200kr","zonestatus":"1","status":"1","created_at":"2022-11-15 09:47:27","updated_at":"2022-11-15 09:47:27"}}
-*-*-*-*-*-*-*-*-*

---------------------12:10:24
{"status":"1","data":{"id":"1","store_user_id":"10","zonename":"Frederiksberg","zonearea":"2000","zoneprice":"2200kr","zonestatus":"1","status":"1","created_at":"2022-11-15 09:47:27","updated_at":"2022-11-15 09:47:27"}}
-*-*-*-*-*-*-*-*-*

---------------------12:10:27
{"status":"1","data":{"id":"1","store_user_id":"10","zonename":"Frederiksberg","zonearea":"2000","zoneprice":"2200kr","zonestatus":"1","status":"1","created_at":"2022-11-15 09:47:27","updated_at":"2022-11-15 09:47:27"}}
-*-*-*-*-*-*-*-*-*

---------------------12:10:49
{"status":"1","data":[{"id":"410","store_user_id":"10","zonename":"Gadbjerg","zonearea":"7321","zoneprice":"1000kr","zonestatus":"1","status":"1","created_at":"2022-11-15 09:47:27","updated_at":"2022-11-15 09:47:27"},{"id":"411","store_user_id":"10","zonename":"Give","zonearea":"7323","zoneprice":"1000kr","zonestatus":"1","status":"1","created_at":"2022-11-15 09:47:27","updated_at":"2022-11-15 09:47:27"}]}
-*-*-*-*-*-*-*-*-*

---------------------12:10:49
{"status":"1","data":[{"id":"411","store_user_id":"10","zonename":"Give","zonearea":"7323","zoneprice":"1000kr","zonestatus":"1","status":"1","created_at":"2022-11-15 09:47:27","updated_at":"2022-11-15 09:47:27"}]}
-*-*-*-*-*-*-*-*-*

---------------------12:10:49
{"status":"1","data":[{"id":"411","store_user_id":"10","zonename":"Give","zonearea":"7323","zoneprice":"1000kr","zonestatus":"1","status":"1","created_at":"2022-11-15 09:47:27","updated_at":"2022-11-15 09:47:27"}]}
-*-*-*-*-*-*-*-*-*

---------------------12:10:54
{"status":"1","data":{"id":"411","store_user_id":"10","zonename":"Give","zonearea":"7323","zoneprice":"1000kr","zonestatus":"1","status":"1","created_at":"2022-11-15 09:47:27","updated_at":"2022-11-15 09:47:27"}}
-*-*-*-*-*-*-*-*-*

---------------------12:45:40
{"status":"1","data":[{"id":"334","store_user_id":"10","zonename":"Vamdrup","zonearea":"6580","zoneprice":"500kr","zonestatus":"1","status":"1","created_at":"2022-11-15 09:47:27","updated_at":"2022-11-15 09:47:27"}]}
-*-*-*-*-*-*-*-*-*

---------------------12:45:40
{"status":"1","data":[{"id":"334","store_user_id":"10","zonename":"Vamdrup","zonearea":"6580","zoneprice":"500kr","zonestatus":"1","status":"1","created_at":"2022-11-15 09:47:27","updated_at":"2022-11-15 09:47:27"}]}
-*-*-*-*-*-*-*-*-*

---------------------12:46:04
{"status":"1","data":{"id":"1","store_user_id":"10","zonename":"Frederiksberg","zonearea":"2000","zoneprice":"2200kr","zonestatus":"1","status":"1","created_at":"2022-11-15 09:47:27","updated_at":"2022-11-15 09:47:27"}}
-*-*-*-*-*-*-*-*-*

---------------------18:13:47
{"status":"1","data":[{"id":"326","store_user_id":"10","zonename":"Sydals","zonearea":"6470","zoneprice":"0kr","zonestatus":"1","status":"1","created_at":"2022-11-15 09:47:27","updated_at":"2022-11-15 09:47:27"}]}
-*-*-*-*-*-*-*-*-*

---------------------18:13:47
{"status":"1","data":[{"id":"326","store_user_id":"10","zonename":"Sydals","zonearea":"6470","zoneprice":"0kr","zonestatus":"1","status":"1","created_at":"2022-11-15 09:47:27","updated_at":"2022-11-15 09:47:27"}]}
-*-*-*-*-*-*-*-*-*

---------------------18:13:48
{"status":"1","data":{"id":"326","store_user_id":"10","zonename":"Sydals","zonearea":"6470","zoneprice":"0kr","zonestatus":"1","status":"1","created_at":"2022-11-15 09:47:27","updated_at":"2022-11-15 09:47:27"}}
-*-*-*-*-*-*-*-*-*

---------------------18:13:55
{"status":"1","data":{"id":"326","store_user_id":"10","zonename":"Sydals","zonearea":"6470","zoneprice":"0kr","zonestatus":"1","status":"1","created_at":"2022-11-15 09:47:27","updated_at":"2022-11-15 09:47:27"}}
-*-*-*-*-*-*-*-*-*